jimmyCarter,Occurences
cancel,1
,1
vladivostok,1
prepare,1
minerals,1
ccc,1
southerner,2
half,2
belligerent,2
spoke,1
fifty,2
withdrawn,1
quickest,1
hall,1
discourage,1
nowadays,1
predispose,1
owners,1
pollution,2
salary,1
stalemate,2
delineations,1
aviv,1
ted,2
approved,1
drunk,2
imperfect,2
would,29
pick,1
tel,1
warrant,1
ten,1
sake,1
energy,14
conceal,1
incomes,1
successfully,2
solid,1
sinfulness,1
meanwhile,1
spreading,1
investment,1
competent,2
reserves,2
require,2
compassionate,1
endorsed,1
cooperative,1
persian,2
standards,2
1,2
2,8
3,6
diplomacy,1
4,11
size,1
moore,4
kirbo,1
triple,1
5,5
left,1
6,4
7,5
8,5
9,2
resumption,1
schweitzer,1
resurgent,1
object,1
newspaper,1
telling,1
hang,1
role,1
notable,2
turn,2
perseverance,1
balanced,6
elect,1
example,1
result,1
minds,1
rebuilt,1
gold,1
rejects,1
opposition,1
same,7
selfish,1
transitional,1
procedures,2
commission,1
after,1
citizens:i,1
quiet,1
rational,1
connect,1
policy,5
hand,1
rebuild,1
a,166
ordered,1
salt,1
address,5
c,1
d,2
f,2
g,1
spiral,1
h,1
i,93
railbeds,1
l,1
m,3
blood,1
beliefs,3
n,1
reconfirmed,1
o,1
the,347
p,1
halt,1
entering,1
sale,2
s,42
police,4
t,27
u,1
throw,1
exciting,1
sunset,1
stature,1
fifth,1
thank,1
obvious,3
information,1
regain,1
november,1
resolve,2
thy,1
thundercloud,1
confront,1
good,4
deploy,2
empty,1
justifiably,1
suffered,1
besides,1
serious,3
implement,1
sustains,1
export,1
others,4
laugh,1
!the,1
making,1
fantasy,4
grandchildren,1
check,1
relatives,1
onto,1
gone,2
sane,1
mines,1
walked,1
beacon,1
aside,1
survivors,1
erosion,1
methane,1
supposed,1
cia,1
olympic,2
harm,2
provided,1
protectionism,1
embody,1
representation,1
society,1
expanded,1
verifiable,1
flows,1
romantic,1
anticipation,1
provides,3
hard,1
projection,1
ensuring,1
lend,1
effectiveness,1
roof,1
approval,1
campaigning,2
quarters,1
realized,1
concentrate,1
room,1
better,3
ranging,1
explosion,2
allegations,1
21st,1
permit,1
well,15
personnel,1
cancer,1
taking,1
terrifying,1
illustrates,1
voters,1
pile,1
gains,1
frustrations,1
dummy,1
myth,3
loved,1
experiment,1
gained,1
skyrocketing,1
fierce,1
struck,1
block,1
hath,1
flow,1
order,1
cooperation,3
reminds,1
poorer,1
protecting,1
went,2
hasn,3
considering,1
timid,1
distant,1
buckley,1
propose,1
reformed,1
reform,1
cooperating,1
illustrated,1
bringing,1
schools,1
renewable,1
presses,1
orders,1
foreseeable,1
tnt,3
managers,1
women,1
deferred,1
woman,2
roth,3
save,2
protection,2
matter,6
mandatory,1
scrap,1
ton,2
top,2
too,5
honesty,1
acquiring,1
orderly,1
have,76
neutrality,3
discourages,1
product,1
implications,1
famous,1
question,2
walter,3
occupational,1
automobiles,2
spirit,1
premier,1
hallowed,1
discouraged,2
intellectual,1
cheap,1
produce,1
possessions:,1
reminded,1
industries,1
regard,2
undoubtedly,1
unreasonable,1
constraint,1
thousand,1
town:,1
communities,2
capital,1
criticizing,1
minor,3
fuel,1
hostile,1
irreversible,1
lets,1
straits,1
explosives,1
upon,1
pray,1
employed,1
platforms,1
identical,1
consular,1
helicopters,1
biggest,1
ambitious,1
burger,7
peacemaker,1
function,1
raise,2
west,3
quite,2
owns,1
cronkite,1
say:,1
pipe,1
[domestic,1
representative,1
traffic,1
franchises,1
circumstances,2
including,1
law,3
comparison,2
lay,1
pardon,5
revert,1
less,2
christmas,1
institutions,1
conflicting,1
200,1
condition,1
markets,1
202,1
were,9
mounting,1
obligation,1
improve,1
ceremony,2
violation,1
try,3
taxation,1
patriotic,1
became,1
university,1
artificially,1
captivity,1
intimidate,1
effective,1
times,5
teaches,1
teacher,1
215,1
floor,1
says,1
possibility,1
timeless,1
levi,1
direction,1
that:,1
exhibition,1
wounded,1
ideological,1
comments,1
distinguished,1
opening,1
industrial,1
deferral,1
stable,1
activities,2
harness,1
impatience,1
spoken,1
grapple,1
traveled,1
respond,1
maintenance,1
incident,2
capita,1
gotten,1
japan,4
robbing,2
fullness,1
led,1
diplomats,1
absorb,1
supply,1
lee,1
uncertain,1
wherein,1
defines,1
concern,1
230,1
beautiful,1
worked,2
eventual,1
integrity,1
refrain,1
pact,1
let,2
adviser,1
state,2
worker,1
press,2
contrasted,2
defined,2
element,3
appointments,2
environmental,1
neighborhoods,1
night,2
opposite,1
vulnerability,1
each,1
aftermath,1
restraint,5
242,1
untapped,1
offering,1
creating,1
restrained,1
shots,1
1903,1
items,1
1900,1
wasting,1
cut,10
muslim,1
probably,2
revelations,1
document,2
constitutional,1
dollars,3
96th,1
cohesive,1
networks,2
strains,1
weighed,1
proving,1
two,6
250,1
moment,2
promote,2
does,2
attack,1
reported,2
cornerstone,1
prevented,2
creation,2
situation,1
legislation,1
bluffing,1
immigrants,1
modifying,1
inclination,3
think,21
participate,1
thirst,1
occurred,1
consolidate,1
refused,1
accused,1
team,1
withdrawal,2
services,2
refuses,1
libya,1
producers,5
chilean,1
torture,1
filling,1
prayer,1
speech,1
goals:,1
quit,1
economical,2
polish,1
reassess,1
thing,7
cabinet,1
demanded,1
fashion,1
southwest,2
insurance,1
privileges,3
surely,1
margins,1
principle,1
medical,1
nixon,15
deterrent,3
importantly,1
registering,1
lie,1
tedious,3
source,2
saudis,1
domestic,1
initiate,1
278,1
paying,2
separation,1
homes,2
blights,1
shoot,1
weakened,3
starts,3
stability,1
budget,7
actual,1
eastern,1
tension,1
involves,1
ultimate,1
widely,1
doubt,4
harnessing,1
athletes,1
merit,3
verbal,1
develop,2
misunderstand,1
namibia,1
privileged,1
1940,1
soviets,1
suited,1
involved,1
dominated,1
easiest,1
district,1
overall,2
fixed,1
page,1
assume,2
1945,1
full,3
destiny,1
away,2
memory,2
mystique,1
concept,1
aspects,1
farmers,1
tinsel,1
house,6
disaster,1
1954,1
stark,1
1950,2
1959,1
painful,1
enhance,2
convention,4
hours,1
pain,1
center,3
start,1
cairo,1
refusal,1
purchase,1
earliest,1
advised,1
manage,1
equal,1
wiser,1
1965,1
fallen,1
1961,1
1960,1
gravity,1
breadbasket,1
moderation,1
paid,2
short,2
reducing,1
1969,1
1968,1
finance,1
1967,3
measured,2
regulate,1
attitudes,1
truths,1
ninety,1
obstacles,1
militarily,1
semantics,1
squabbling,1
scapegoat,1
three,1
trains,1
required,2
1976,2
typified,1
1975,2
measures,3
1974,1
remembered,1
1973,2
1972,2
sweden,1
1970,1
suppression,1
season,1
controversial,2
specifically,1
payment,2
enter,1
savings,2
lonely,2
1979,1
1978,1
restoration,1
pale,1
1977,1
typifies,2
sessions,1
warmth,1
convincing,2
1990,1
destroy,1
dates,1
priority,2
preventive,2
creative,1
pennsylvania,1
judicial,1
coast,1
1985,1
shuttle,1
provide,1
1981,2
1980,2
consultation,2
societal,1
requires,1
primary,2
ideologies,1
enterprise,1
bright,1
solar,2
paperwork,1
planned,2
anti,1
lot,3
competence,1
panama,7
computer,1
low,6
assure,1
consult,1
merely,1
meant,1
wealth,1
means,3
undervalue,1
survive,1
dole,1
orphan,1
scarcest,1
pipeline,1
exportable,1
fellow,2
abandoning,1
1985:,1
belligerence,1
$350,1
interests,2
crushing,1
door,1
quick,1
alliance,1
repudiated,1
friendly,1
tell,1
improper,1
recognizing,2
experience,1
flames,1
squarely,1
daughters,1
shows,2
commander,1
outlined,1
emptiness,1
wasteful,1
shown,2
zone,7
jordan,1
slashed,1
disappeared,1
inappropriate,1
trucks,1
day,2
1980s,1
raising,1
created,1
minutes,1
island,1
helsinki,1
sacrifice,2
particular,1
tactical,1
done,11
water,2
illegal,1
corps,3
congratulate,1
perceived,1
cohesion,1
concentrating,1
tens,1
ease,1
channeled,1
critical,1
part,4
reactor,1
boards,1
elsewhere,1
envision,1
outcry,1
shapers,1
judiciary,1
clearcut,1
this:,1
principal,1
tend,1
barbershops,1
east,3
equitable,1
surest,1
restraints,2
relief,1
teng,1
boycott,6
hegemony,2
endowed,1
park,1
cynicism,1
unbelievable,1
cursing,1
built,1
subscribe,1
burdened,1
ratifying,1
concentration,1
heavily,1
peking,1
seeking,3
importance:,1
capitol,1
cooperated,1
economics,1
third,1
someone,1
confession,1
build,1
gratitude,1
earn,1
further,6
demands,1
tolerate,1
pennsylvania:,1
electronics,1
contracted,1
reductions,2
evolved,1
presidents,1
mutually,3
areas,1
compassion,1
conducting,1
doth,1
path,1
bind,1
record,2
poseidon,1
abusing,1
prevention,1
cuba,1
preventing,1
going,5
carefully,1
pass,1
past,5
mile,1
impact,1
mourning,1
shock,2
bill,1
committees,2
paralysis,1
easy,1
whose,1
senior,1
bodied,1
oceans,1
adult,1
attitude,4
relative,1
treatment,4
substandard,1
average,5
profoundly,1
influential,1
bodies,1
linkage,1
choosing,1
investments,1
waited,1
grasp,1
journal,1
bootstraps,1
unlike,1
wednesday,2
term,4
rigid,1
mine,1
accords,2
dramatized,1
grateful,1
mind,4
ambassadors,1
business,5
withdrawing,1
ter],1
staff,2
right,5
possible,2
tanker,1
involve,1
constrained,1
touches,1
taught,1
stage,1
complicated,1
afghanistan,8
maximum,1
borrow,1
repelled,1
desert,1
under,8
paul,1
richest,4
did,6
quarter,4
proposing,1
london,1
busing,1
added,1
quantities,1
emergency,2
displaced,1
dangerously,1
cheated,1
down,13
$1,2
recommendations,1
launching,1
$2,1
divisions,1
$3,1
incumbent,1
faculty,1
shifting,1
$4,2
$5,2
$6,2
later,3
$7,2
brings,1
$8,1
$9,1
livestock,1
legal,1
midst,1
bracket,1
airlines,1
highway,1
businessman,1
seated,1
interferes,1
satellites,1
inconceivable,1
static,1
test,1
journey,1
finally,2
kinship,1
enforcement,2
exacerbated,1
agreements,3
varied,1
conviction,1
brown,2
publicly,1
schlesinger,1
misleading,1
month,1
acceptance,1
stockpiles,1
final,1
tackle,1
occasions,1
expiration,1
occasion,1
hampshire,1
loan,1
rather,4
importance,1
overwhelmed,1
back,10
worthy,2
training,1
endless,1
title,2
resisting,1
states,1
miss,1
incentives,1
load,1
ignore,1
hemisphere,2
company,3
thomas,1
nuclear,1
human,2
continuation,1
deteriorating,2
dwight,1
billions,3
custom,1
harris,1
blessed,1
concerns,1
grand,1
inconveniences,1
schedule,1
henry,1
deterioration,1
overwhelming,2
inherit,1
interpret,1
pays,3
qualified,1
lunch,1
armies,1
industrialized,1
helping,2
bureaus,1
invincible,1
deplorable,1
exhausted,1
aggravates,1
attempt,1
estrangement,1
division,1
stale,1
balance,1
demilitarized,1
supplies,4
testified,1
supplier,1
revealed,1
latin,1
letters,1
fear,1
adoptive,1
made,5
signed,1
sense,1
being,3
yielded,1
removing,1
hoping,1
field,3
epitomized,1
served,3
warned,1
opens,1
legitimate,1
realities,2
senators,1
status,1
trading,1
nobility,1
don,12
statements:,2
serves,1
embarrassed,1
portugal,2
stamp,1
operated,1
targets,1
dow,1
mention,2
government,36
known,1
advocated,3
condemnation,1
recur,1
3/4,1
wouldn,1
crime,3
man,6
insinuating,1
stand,1
knows,1
may,1
listeners,1
advocates,3
forward,8
testifies,1
catholics,1
myths,1
reforms,2
murders,1
precinct,1
300,2
302,1
entities,1
authorizing,1
vividly,3
statutes,1
warlike,1
embargoes,1
peacetime,1
adjustments,1
use,6
subject,2
recognition,1
feel,2
edward,1
nursing,1
main,1
embargoed,1
liked,1
arrangement,1
delano,3
revenue,2
strip,1
irresponsibility,1
concentrated,1
negotiation,1
weaknesses,1
continuous,1
bipartisan,1
grain,1
credit,1
intensive,1
terrible,1
combine,1
waste,3
travesty,1
understandings,1
equipment,2
ideas,3
establishment,1
includes,1
pressure,1
poisoned,1
cheating,1
[sunset],1
becomes,1
literacy,1
feed,1
background,1
nonetheless,1
three:,1
veterans,3
constitution,1
noncontroversial,1
negotiating,1
beneficially,1
angola,2
breath,1
cheapest,1
redouble,1
men,1
repeat,1
338,1
threats,1
transformed,1
physical,2
vandenburg,1
make,8
met,1
repeal,2
attempting,1
opposed,2
speeches,1
exactly,2
legitimately,1
rapidly,5
structure,6
stake,1
witness,1
constituency,1
due,1
conform,1
threat,1
mercy,2
inform,1
depend,1
sized,1
about,25
commit,1
intertwined,1
enacting,1
friendships,1
sorrow,1
opec,3
cure,1
herbert,1
danger,1
constraints,1
crash,1
granted,1
observed,1
presidency,1
character,1
bank,1
meaning,1
oppressed,1
above,1
drawing,1
released,2
10,2
goals,2
comprise,1
moderate,1
11,2
12,1
13,1
14,4
15,1
august,1
16,1
17,1
myself,7
18,1
invent,1
19,1
frozen,1
received,1
hijacking,2
substantial,2
benefit,3
flood,1
quality,2
labor,4
booth,1
avoided,1
highest,2
unique,1
regained,1
consistently,1
sincere,1
allies,3
20,4
21,2
arabias,1
22,2
shared,1
23,1
24,1
25,5
thermostats,1
postponement,1
mia,3
26,1
examine,1
27,1
vigor,1
lone,1
industry,3
eliminate,1
believe,9
long,7
fragmentation,1
shares,1
remember,2
fell,1
into,7
greece,1
frightening,1
goal:,1
supports,1
relationship,2
workers,2
30,1
destruction,1
cuts,3
32,1
33,1
35,2
stiff,1
middle,3
expression,1
though,1
37,1
renewal,1
39,1
drilling,2
appeal,1
many,4
mondale,3
entrepreneur,1
transportation,1
stay,1
controlled,1
extensive,1
negate,1
inspire,1
increasing,2
bureaucracy,1
associated,1
progress,2
40,2
respected,2
experts,1
open,1
seeks,1
devote,1
44,1
protects,1
abortion,4
stabilization,1
bishop,1
49,1
suffering,1
forced,1
invest,2
rapid,1
numbers,2
seven,1
project,1
enhancement,1
hawkins,1
exemplified,3
stationary,1
roughly,3
wood,1
california,3
50,6
nation:that,1
compromising,1
53,1
jordanian,1
55,1
formidable,1
56,1
58,1
59,1
dropping,1
solutions,3
disarray,1
sealed,1
chinajanuary,1
felt,2
invited,1
addicts,1
conquest,1
look,1
troubling,1
withdrawals,1
assurance,1
korea,1
advisers,1
disrupt,1
achieving,1
paths,1
forces,2
60,1
micah:,1
proposals,2
secured,2
65,1
farewell,1
allow,2
defer,1
68,1
consciously,1
needed,1
mast,1
mass,1
lord,1
ranger,1
proper,1
polls,1
18th,1
bitter,1
speed,1
admit,1
common,1
interest,4
urgency,1
ranged,1
themselves,1
steppingstone,1
72,1
73,1
75,1
organic,1
evacuation,1
apply,1
recently,4
hostages,2
separated,1
marx,2
gratifying,1
predictability,1
renewed,1
eagerly,1
money,14
stakes,1
healthy,1
disagree,1
richer,2
trucking,1
80,1
formula,1
81,2
step,2
forever,1
84,1
warnke,7
85,1
mark,1
endanger,1
base,1
simplistic,1
achievement,3
trend,1
sunshine,1
hemisphere:first,1
whole,3
peanuts,1
revolution,1
movies,1
loss,1
fitzgerald,2
incentive,1
lost,2
treasuries,1
premises,1
90,1
preliminary,3
trainload,1
95,1
controlling,2
obstacle,1
attempts,1
99,1
profits,1
still,7
relating,1
work,22
enriched,2
lose,1
exceptional,1
utilization,1
cattle,1
toward,2
[federal,1
books,1
priceless,1
knowing,1
among,3
mate,1
delays,1
convince,1
registration,1
word,1
stated,1
love,2
internal,1
republican,7
excise,1
enjoy,1
defended,1
commitments:,1
foundation,1
secret,6
ourselves,1
specified,1
throwing,1
slave,1
across,1
unwise,1
naturally,1
flexibility,1
mortgage,1
identity,1
federal,13
two:,1
eat,1
believed,1
explosions,1
inaugurate,1
europe,4
academy,1
reward,2
include,1
persecution,1
illegalities,1
disagreement,1
aged,1
tremendously,1
haste,1
consolidation,1
gathering,1
destructive,1
empires,1
opinion,1
mrs,1
insisting,2
altogether,1
alexander,1
soldier,1
regulations,4
cutting,1
exists,1
ages,1
upsetting,1
delineation,1
indian,1
specifics,1
voice,2
hospitals,1
prepared,1
existence,1
amendments,2
world:,1
freedoms,1
maze,1
frittered,1
megaton,1
hunter,1
discover,1
exploration,2
offset,1
adapting,1
mining,1
failed,2
sounding,1
appointed,1
visitors,1
preparing,1
thrust,1
invaded,1
honored,2
seems,1
commence,1
irreplaceable,1
luxuries,1
winter,3
warhead,1
insure,1
platform,2
walking,1
spend,1
talks,1
methodical,1
fairness,1
encompassing,1
arsenals,1
grave,1
advantage,1
notified,1
spent,2
assistant,1
stephen,1
instead,1
selfishness,1
shipments,1
ultimately,1
controversy,1
cuban,1
anticipate,1
slash,2
slightest,1
exception,1
communist,1
projections,4
temporary,1
hands,1
year,19
saved,1
leading,2
politically,1
ignoring,1
urge,1
branch,2
saves,1
understanding,2
empire,1
neat,1
because,6
nongovernmental,1
near,1
educate,1
moving,1
victims,1
agrees,1
agreement,3
dealing,1
mayor,1
vietnam,4
merchant,3
economy,7
inspired,1
reshape,1
community,1
version,1
capitalize,1
planning,1
contains,1
staunch,2
prohibiting,1
stop,4
permits,1
selection,3
guess,1
israeli,6
science,1
restaurants,1
returns,1
convictions,1
vista,1
handguns,1
appropriate,1
debated,1
least,2
utility,1
immediately,3
drilled,2
hungry,1
stretched,1
submarine,1
catastrophic,1
prohibition,1
boldness,1
certified,1
devastated,1
behavior,1
agreed,1
typify,1
stagnant,1
minimize,1
failures,1
learn,1
decreased,1
representing,1
mechanics,1
neck,1
pushing,1
stunt,1
ridiculous,1
intrusion,1
severe,2
debates,1
exemplify,1
communism,1
instructions,1
longterm,1
eager,2
evidence,1
republic,2
clements,1
official,2
historical,4
ohio,1
ethics,1
couldn,1
spring,1
autonomy,1
leave,1
discrimination,5
evasiveness,1
reassessment,1
surrender,3
doesn,2
peoples,1
unopposed,1
predicated,1
poised,1
minister,1
need,11
cruel,1
airlifted,1
wrote,1
journeyed,1
vetoed,4
originally,1
often,2
intentions,1
cardinal,3
jail,1
insist,1
users,1
hijackers,1
volume,1
energies,2
risen,1
tests,1
canada,1
traditions,1
buildings,1
loose,1
nazism,1
vetoes,1
lasting,1
rises,1
useful,1
defied,1
coleman,1
private,5
respecting,1
technical,1
breakdown,3
unwarranted,3
precisely,1
accomplish,1
havoc,1
responsible,7
end,4
satellite,1
lines,1
bullet,1
yugoslavian,1
preoccupation,1
mistake,2
capabilities,1
bargaining,1
drifting,1
longrange,1
rich,4
agencies,6
defensible,1
special,5
charted,1
forum,1
environment,2
airplane,1
arises,1
sweat,1
visited,2
progressive,1
achieved,1
betray,1
family,2
deliberate,1
happens,1
landbased,1
atmosphere,1
slightly,1
tries,1
career,1
education,2
called,1
told,1
release,1
charter,1
abiding,1
toll,1
moral,1
policy:,1
newly,1
gradually,2
tried,2
normalization,1
deepest,1
succeeding,1
brave,1
narrow,1
judge,1
donal,1
similar,1
partnership,1
shape,1
momentous,1
olympics,1
tackled,1
foundations,1
responsibly,2
thousands,3
forth,2
wives,1
nicaragua,1
reinforced,1
driver,1
seventh,1
drives,2
flawed,1
crossed,1
weapons,15
carved,1
prairies,1
superpowers,2
tone,2
optimism,1
persecuted,1
against,3
demandthat,1
aback,1
done:,2
remind,1
too:,1
asked,1
encourage,2
modernizing,1
vacuum,1
era,2
rigs,1
morality,1
rights,7
administer,1
share,1
climbed,1
punished,1
bureaucratic,4
deficit,3
deployment,1
television,1
stores,1
outposts,2
chairman,2
eisenhower,2
sharp,2
species,1
strongest,1
honor,1
trial,1
whites,1
undertake,1
pages,1
deprivation,1
links,2
net,1
intense,1
shale,2
new,4
took,5
below,1
remedies,1
articulate,1
shall,1
positions,1
driving,1
weren,1
stimulating,1
tons,3
bestowed,1
individually,1
franklin,1
inconvenience,1
shame,1
torn,1
supportive,1
mandate,1
elderly,1
financial,2
indictments,1
dreams,2
reaching,2
media,1
around,1
running,2
righteousness,1
credits,1
define,1
chose,2
commensurate,1
harder,1
haven,1
egypt,2
rates,2
adjacent,1
transport,1
employment,3
requirement,1
specific,2
korean,2
rolls,1
disastrously,1
super,2
warheads,1
risks,1
inherited,1
engage,1
martin,1
forms,1
summon,1
amendment,2
developments,1
achievements,1
maintain,1
capitulation,1
shift,6
establishing,1
johnson,3
alaskan,1
professional,1
decided,1
skills,1
companies,2
rekindling,1
nonfarm,1
builds,1
shoulder,1
fully,1
pearl,1
eliminated,1
encompass,1
immersion,2
remain,2
expected,2
exchanges,1
voices,1
countries,1
monitoring,2
liberated,2
eye,1
himself,2
eliminates,1
dictionary,1
wanted,2
slow,1
exchanged,1
continent,1
feels,1
iowa,1
maybe,1
another,6
automatically,1
guarantee,1
students,2
permitted,1
disabled,1
ducked,1
cyprus,1
expectations,1
triumph,1
ratification,1
ghetto,1
black,1
structures,1
arouse,1
persuade,2
questions:,1
consensus,1
such,3
lincoln,1
stayed,1
absolute,1
describe,1
technological,1
understood,1
supported,1
resulted,1
no!,1
penalties,1
presently,1
slum,1
wealthy,1
documents,2
intractable:,1
florida,1
administration,13
genuinely,1
developing,1
solved,1
abridged,1
remains,1
dwell,1
objections,1
research,3
white,5
openly,1
segment,1
houses,1
huge,1
sovereign,1
marshaled,1
termination,1
wounds,1
imagine,1
town,1
demilitarization,1
superb,1
might,3
sharing,2
mentally,1
expressions,1
whatever,1
decrease,1
dictatorships,2
improving,1
servants,1
ignorance,1
wonders,1
leads,2
embarrassing,1
patriotism,1
clothing,1
fields,1
migrate,1
next,3
overpopulation,1
import,1
color,1
hidden,1
submit,1
metcalf,1
graduates,1
nearly,2
simplicity,1
summit,1
non,1
nor,2
conclusion,1
not,29
central,1
impose,1
now,28
statement,1
memorial,1
supporting,1
factor,1
faintly,1
derived,1
innately,1
incorporating,1
news,1
ensures,1
thoughts,1
delivery,1
election,1
race,4
conquer,1
effectively,1
unifying,1
was,29
war,5
futures,1
subpenaed,2
derives,1
grew,1
way,7
realization,1
ronald,1
antitrust,1
[civilian,1
what,12
ensured,1
shortages,1
urban,1
detailed,1
refer,1
israel,5
african,2
risk,1
delivers,1
rise,1
$550,1
play,1
discard,1
voodoo,1
excludes,1
unwinnable,1
fought,1
quickly,1
taxes,18
charles,1
decide,1
when,18
withheld,1
issues,1
lowers,1
modest,1
excluded,2
priorities,1
crush,1
conflagration,1
far,1
stuck,1
greed,1
struggling,1
taxed,1
issued,1
plan,4
reenrichment,1
give,3
practicable,1
counsel,1
idealism,1
lives,1
endures,1
italians,1
depends,1
challenges:,1
double,1
suicide,1
comprising,1
survived,1
stations,2
contention,1
lowest,2
ships,1
determined,2
farms,1
uncontrollable,1
prevail,1
ladies,1
burdens,1
completely,3
denial,1
study,4
explicitly,1
martini,1
bomber,1
purity,1
sentences,1
portion,1
differences,3
direct,1
deferrals,1
enabled,1
gain,1
arabia,2
receiving,1
confuse,1
modern,1
julia,1
memories,1
acknowledging,2
financing,1
feeds,1
older,1
berlin,1
lobbyist,1
explore,1
ourtraining,1
electricity,1
tentative,1
great,9
happened,1
wrong,1
criticize,1
discoveries,1
organization,2
pleased,1
sides,3
dominance,1
heads,2
certain,1
economic,6
levels,3
board,3
statistics,1
housewives,1
pursuing,1
fed,1
distinction,1
arrest,1
fee,1
rogers,1
section,1
used,1
constantly,1
retirement,1
indivisible,1
herds,1
notification,1
earned,1
clarity:,1
threaten,1
presented,1
reshaped,1
few,1
letting,1
rhetoric,1
quoting,1
otherwise,1
visible,1
heirs,1
borne,1
stresses,1
survival,1
rail,1
opened,1
inner,1
solely,1
produced,1
pled,1
market,1
nutrition,1
effects,1
personally,1
indifferent,1
overhaul,2
outside,1
keep,1
effect,1
detente,3
cruise,2
cutbacks,1
produces,1
solemn,1
sugar,1
who,30
politics,2
reagan,35
crucial,3
contribute,3
faith,1
why,1
died,1
founders,1
necessarily,1
alone,1
strive,1
candidate,1
words:,1
along,1
looms,1
structural,1
parallel,1
david,4
win,1
designed,1
fha,1
lawyer,1
didn,1
citizens:this,1
selective,1
handful,1
rebate,1
lobbying,1
stimulus,2
electric,1
approaches,1
reprocessed,1
recommended,1
contained,1
barriers,1
matters,1
administrative,2
various,1
attention,1
uses,1
decisionmaking,1
approached,1
visit,2
fulfillment,1
reduction,4
succumb,2
extent,1
inhabitants,1
thankless,1
bring,5
voted,2
sadat,2
equity,1
intermediary,1
losing,1
fit,2
fix,1
colonial,2
warfare,1
honest,1
manufacturing,2
giant,1
rank,1
assumption,1
outlet,1
deaths,1
digs,1
neglect,1
addition,3
promoting,1
sure,6
grow,1
excited,1
shrink,1
league,1
am,7
an,15
saudi,2
former,1
ap,1
extend,2
thirds,1
as,28
at,10
haunted,1
turning,1
peace,11
intermediate,1
simultaneously,1
looking,2
consideration,1
competitive,2
payroll,2
formed,2
hurt,1
bb,1
frank,1
endlessly,1
gerald,1
be,47
prove,1
1930s,1
hubert,1
ordering,1
kemp,3
refinery,1
multinational,1
communications,1
search,1
stripping,1
systems,2
by,29
groundwork,1
whom,1
relinquish,1
panel,1
develops,1
humanity,1
enabling,2
charge,1
outstanding,1
keeping,1
familiar,2
mounted,1
breathe,1
food,1
disharmonies,1
partner,1
votes,1
freely,1
interview,2
naive,1
essential,2
clarify,1
language,1
congenial,1
do,12
ford,20
dr,1
observe,2
meaningful,1
manageable,2
japanese,1
accomplished,2
unworkable,1
attacks,1
accounted,1
won,4
rare,1
warning,1
exclude,2
criticism,1
oil:,1
needy,1
which,15
needs,6
image,1
em,1
blight,1
fearsome,1
confrontation,2
profound,1
never,6
knife,1
temptation,1
blockading,1
aspiration,1
carry,1
necessity,1
paycheck,1
mountains,1
tears,1
compelling,1
origin,1
unmistakable,1
for,61
illconsidered,1
mistakes,5
grappling,1
india,1
mistaken,1
twilight,1
watching,1
burden,2
perhaps,1
rate,16
teachers,1
skill,1
obsolescent,2
mosaic,1
trouble,1
proverb,1
prosperity,1
governor:,1
class,1
contrary,1
covert,1
landon,1
spanish,3
governors,1
recalled,1
mayors,2
go,12
counter,1
conserve,1
kept,2
gentlemen:two,1
justly,1
formalize,1
form,1
500,2
management,2
renew,1
wrestling,1
he,22
withdraw,1
very,21
decade,3
placed,1
forceful,2
congress,14
geneva,1
weaponry,3
delayed,1
welfare,4
interacts,1
legislative,1
relationships,1
wallposters,1
agony,1
william,1
else,1
four,3
bitterness,1
context,1
easily,1
if,16
prescriptions,1
manipulation,1
french,1
burns,2
ii,1
likely,1
encouraging,1
commitments,8
advisory,1
issue,3
in,148
maturity,1
literally,1
lower,7
index,1
is,73
it,57
dictated,1
aimed,1
peaks,1
disputes,1
announce,1
resulting,1
somebody,1
talked,2
conservation,5
traditional,2
dictates,1
hornblower,1
acted,1
gave,1
continuing,1
impounded,1
become,1
wider,2
$10,1
turned,1
progressively,1
widen,1
$12,1
$13,1
jr,1
$15,1
$16,1
$17,1
eventually,1
$18,1
hungarian,1
inflation,7
disposal,1
extraordinarily,1
settlement,1
delegate,4
library,1
sphere,1
peril,1
dependence,1
sending,1
ability,2
barbara,2
veto,1
belief,1
modernize,1
1979the,1
vessey,1
$20,1
proliferation,1
seemed,1
$23,1
$24,1
knew,1
$25,1
suggestion,1
overrides,1
draw,1
off,2
revolving,1
generally,1
places,1
turner,2
seriousness,1
overlapping,1
complete,5
compensate,1
ll,5
$30,1
domination,1
$36,1
certify,1
political,2
while,1
second,4
that,128
edge,1
ruling,1
faster,1
brotherhood,1
than,9
marshal,1
sufficient,1
me,1
limit,1
claim,1
widespread,1
communication,1
tolerance,1
$40,1
months,3
contest,1
$43,1
$45,1
mr,31
turmoil,1
author,1
feeling,1
my,9
rekindle,1
confronted,1
plus,1
expansion,1
collided,2
fritz,2
gaza,3
entry,1
expand,2
headquarters,1
reticence,1
dream,1
fiscal,3
preachers,1
prediction,1
coal,8
rhodesia,2
devastating,1
disc,2
totalitarian,2
$50,2
heat,1
no,7
code,1
passionate,1
careful,2
terrorists,1
incompetent,1
mixed,1
storage,1
illusion,1
head,1
preparations,1
oil,6
productivity,1
dreamed,1
of,179
imported,1
proposition,2
reserve,4
heal,1
somehow,1
rescue,1
fight,1
hear,1
occupied,2
$60,3
on,39
unofficial,1
brief,1
pretty,1
or,17
recover,1
$65,1
determine,1
$66,1
multilateral,1
evaders,1
considerably,1
voluntarily,1
families,3
friction,1
drew,1
lands,5
luxury,1
spiritual,1
easier,2
vermont,1
knit,1
$70,1
remarks,1
sitting,1
increasingly,1
consternation,1
horatio,1
indications,1
$600,2
strategic,1
nation,4
rocket,1
revitalization,2
determination,2
convenience,1
discipline,1
promised,1
expedient,1
stretching,1
speaking,1
extremely,1
freeze,1
adversaries,1
rebirth,1
hundreds,1
$80,1
promises,1
recent,1
chopping,1
they,19
proposal,1
inevitable,1
thee,2
consciousness,1
old,3
settled,2
recreation,1
spectators,1
them,12
then,9
ancient,1
re,5
concepts,1
gannon,1
have:,1
attorney,1
adopt,1
twelve,1
oppose,2
bridge,2
starting,1
strengthening,1
mistrust,1
discovered,1
conference,2
seek,1
seen,2
seem,1
poorest,1
insulating,1
tanks,1
george,1
aiding,1
persist,1
so,12
unemployed,1
accountability,1
apart,1
exported,1
issuing,1
calendar,2
hesburgh,2
unions,1
decision,3
necessary,2
one,18
syria,1
cents,1
started,1
dismantle,1
closer,1
single,1
buying,1
acquaint,1
threatens,1
closed,1
assist,1
to,198
undergraduate,1
country,29
shotguns,1
commercial,1
joint,1
exporting,1
separate,2
remarkably,1
willing,1
blessings,1
reasonable,1
generations,1
endangered,2
technicalities,1
rules,1
rulings,1
insignificance,1
regularly,1
awareness,1
military,1
details,2
satisfactory,1
up,6
reluctant,1
us,7
forgo,2
waters,1
abolished,1
praised,1
ensure,2
usual,1
invading,1
purchases,3
this,62
anarchy,1
ve,28
remarkable,1
elements:,1
buses,1
sees,1
failure,3
forge,1
solve,1
valiant,1
know,5
region,5
support,1
changed,2
drop,1
streamlined,1
hindsight,1
shaped,1
changes,1
vehicles,1
privacy,1
cold,1
reciprocal,1
resolutions,1
learning,1
we,104
life,11
gap,1
examination,1
destitute,1
gas,2
lies,1
citizens:tonight,1
emphasize,1
cases,3
slight,1
previous,1
wide,1
teach,1
argue,1
fiercely,1
lied,1
vacancies,1
coterminus,1
superior,1
succeed,2
location,1
deeper,5
compensation,4
dame,3
bankrupt,1
held,1
competition,11
courts,2
none,2
kissinger,1
type,1
hell,2
troops,1
april,3
beyond,1
problem,2
closing,1
terms,1
voluntary,1
deeply,1
militant,1
proof,1
seized,1
presence,1
abandoned,1
phase,1
inescapably,1
wife,1
brags,1
contract,1
conclude,1
profitable,1
come,3
elections,1
churches,1
push,1
exist,3
innovative,1
eventuality,1
provisions,1
examples,1
fabric,1
unemployment,19
exact,1
nationwide,1
praying,1
force,1
handgun,2
ecuador,1
surrounded,2
south,2
precautions,2
north,1
brezhnev,1
barbed,1
repressive,1
distribution,1
our,55
tools,2
out,18
capacity,1
cope,1
eminence,1
consuming,2
get,4
continues,1
dark,1
course,1
power,8
hilliard,1
clarifying,1
precious,1
yielding,2
sell,1
premiums,1
continued,1
unnamed,1
suspect,1
abide,1
transformation,1
apologize,1
puts,2
help,4
disciples,1
kabul,1
massive,1
depth,1
unified,1
dividends,1
ended,1
self,1
located,1
matured,1
lastly,1
owe,2
asset,1
minimum,4
constitution:,1
date,1
magic,1
unyielding,1
addresses,1
courageously,1
reveal,2
data,1
2secretary,1
own,6
sound,4
harbor,1
rebuilding,1
hospitable,1
sales,1
drug,3
realistic,1
revitalize,1
successes,1
create,1
consequences,1
adversarial,1
criminal,1
avoiding,1
parlors,1
blow,1
development,3
proud,2
like,5
asserted,1
resource,1
depended,1
proposes,1
populated,1
judged,1
nightmare,1
sent,2
plutonium,1
prestige,1
insulation,1
ending,1
core,1
efforts,1
addressed,2
proposed,1
fraud,1
council,1
purposes,1
reaffirm,1
ground,1
embassy,1
environmentally,1
repression,1
send,1
judges,1
here,4
necessities,1
concrete,1
everybody,1
ancestry,1
challenges,1
regret,1
purpose,1
rejected,1
line,1
link,1
recovery,1
undertakings,1
security,2
contributor,1
station,1
regimes,1
affairs,4
earning,1
costs,1
factory,2
cost,4
aims,1
will,10
confidence,1
implementation,2
fishing,1
confidently,1
dictator,1
groups,4
arbitrary,1
allowing,2
follow,3
revenues,1
propose:,1
fertilizer,1
loopholes,1
factors,1
tuesday,1
oath,1
compliance,1
treaty,3
york,4
debative,1
assured,1
challenge,5
dignity,1
locations,1
powerplants,1
intend,2
slowed,1
govern,1
numerous,1
recognized,1
your,1
remote,1
palestinians,1
without,1
youth,1
these,8
yearnings,1
protected,1
slows,2
graduation,3
wasted,1
essentials,1
sovereignty,1
persistent,1
prison,2
exporters,1
wins,1
audience,1
rehearsal,1
thus,1
devices,2
dedication,1
thoughtfulness,2
volunteers,1
analysis,1
historically,1
recognizes,2
inefficient,1
much,4
bombers,1
arab,10
wind,1
chapter,1
entitled,2
independent,2
ahead,1
achieve,1
concluded,1
anybody,1
appalachian,1
talking,1
fates,1
afflicted,2
plausible,1
miscalculation,1
arrived,1
economically,1
steelworker,1
headline,1
giveaway,1
resolved,1
committed,3
committee,2
licensed,1
sets,1
jamming,1
vance,1
union,7
faced,2
forests,1
plentiful,1
soviet,6
printing,1
americans,2
veins,1
subtle,1
component,1
together:,1
blue,1
humbly,1
speaks,1
unprecedented,1
days,2
combined,1
returned,1
faces,1
yours,1
god,3
adopted,1
discuss,1
liberal,1
undone,1
standard,1
acceptable,1
reports,2
harmony,1
1940s,1
correct,2
sharply,1
got,15
dominate,1
wish,1
deadly,1
institution,1
wise,1
amounts,1
aspirations,2
callous,1
contributed,1
area,1
shipment,3
invitation,1
european,2
fuels,3
pay,7
enormous,1
clearer,1
list,1
contributes,1
andrew,1
strange,1
lack,1
sixties,1
neglected,3
wire,1
spending,2
carpools,1
circumstance,1
ingenuity,1
success,2
revise,1
600,1
treasury,1
authority,2
claims,1
forgotten:,1
paramount,1
preserving,3
shocking,1
chile,4
child,2
legislature,1
deleterious,1
mismanagement,1
young,3
regional,1
germany,2
taxpayers,2
divided,1
authorizations,1
obsolete,2
gasoline,1
medium,1
deductions,5
remove,1
kidnaping,1
wisdom,2
inhospitable,1
producing,1
inexhaustible,1
secrecy,1
germans,1
unhindered,1
standardized,1
airline,2
live,1
responded,1
espoused,1
departed,1
victory,1
perform,1
negotiations,5
evolution,1
peak,1
with,31
laborers,1
china,2
service,1
battlefield,1
there,19
inject,1
strands,1
smuggled,1
named,1
injustice,1
indifference,1
considered,1
channel,3
focus,1
invisible,1
american,9
delivered,1
entire,2
changing,1
approach,1
habitually,1
americas,1
wholeheartedly,1
russia,1
palestinian,1
normalize,1
per,2
wage,4
period,3
africa,1
fiber,1
passengers,1
proceed,1
unconventional,1
corporation,1
understand,6
birth,1
disrespect,1
theodore,1
underlying,1
confirmation,1
slowly,1
suspended,1
intelligence,1
vigorously,1
ever,1
uniting,1
million,10
even,5
strongly,1
analyze,1
shadows,1
meetings,1
indication,1
despair,1
assumed,1
vacancy,1
larger,2
engaged,2
gun,3
wait,1
hundred,1
rebates,1
blackmail,1
rashly,1
vitally,1
gut,1
egyptian,2
magnificent,1
kinds,3
restrict,1
injured,1
persecute,1
costly,1
imperative,1
hitherto,1
tempted,1
violence,1
accordingly,1
laid,1
particularly,1
discussed,1
bought,1
pacific,2
opportunities,1
framework,1
names,1
requiring,1
caucus,1
prisons,1
attorneys,2
tensions,1
mencken,1
entity,1
armaments,2
depletion,1
tonight,1
possibilities,1
prohibit,1
predecessors,1
imposed,2
almost,3
steward,1
equally,2
broadening,1
manner,1
penetrating,1
sustained,2
harmful,1
defenseless,1
wake,1
imposes,1
judgment,1
earlier,3
whipping,1
whether,2
members,1
crisscrossed,1
arns,1
archeological,1
jammed,1
verification,1
terror,1
everyone,1
surge,1
strengthened,1
guaranteed,1
basis,1
affected,1
resolute,1
senator,1
carter,2
tempt,1
snow,1
arms,7
october,1
governor,2
cartel,1
basic,9
forthcoming,1
rising,2
initiated,2
unite,1
replied,1
bush,1
policies,1
cause,1
combat,3
restoring,1
despise,1
factors:,1
represents,1
unity,1
godspeed,1
pursue,2
ties,1
catastrophe,1
intended,1
convey,1
extra,3
design,1
luther,1
working,3
land,2
belgrade,1
department,1
sacrifices,2
tied,1
chief,2
liberties,1
aircraft,1
accord,1
pinpointed,1
contributing,1
foremost,1
osha,1
doubtful,1
despite,1
followed,1
backfire,2
burning,2
plo,3
conduct,1
private:,1
obey,1
plunder,1
objectives,1
defeating,1
interested,1
wall,1
formerly,1
walk,1
quietly,1
gobbledygook,1
policeman,1
four:,1
accessibility,1
discussion,2
unleashed,1
oversight,1
liberty,2
lesser,1
arrangements,1
thinks,2
meeting,1
welcome,1
events,1
drift,1
confidential,1
discussing,1
bible,2
chaos,1
mankind,2
abundant,1
began,1
earns,1
want,3
violations,1
unnecessarily,1
laos,1
rifles,1
deteriorate,1
recognize,1
warehouse,1
critically,1
reassurance,1
kennedy,4
difference,2
reality,1
must,1
demonstration,2
actions,1
safeguard,1
sophisticated,1
dispersed,1
nobler,1
crops,1
indicative,3
scrutiny,1
giving,4
prize,1
facts,2
chase,2
accident,1
inalienable,1
limousine,1
found,1
excuse,1
deregulated,1
defense,2
canal,8
reorganization,4
trillion,1
enlist,1
limits,1
emerging,1
gives,1
retention,1
latest,1
interrelated,1
receive,1
ideals,1
guaranteeing,1
consulting,1
noninflationary,1
combining,1
simplification,1
summarized,1
politicians,1
entirely,1
declaration,2
shaping,3
religion,1
standing,1
tragedy,1
powerless,1
extensively,1
prosperous,1
representatives,1
implies,1
feelings,1
communiqué,4
friendship,3
exploding,1
attend,1
smith,1
voting,1
goods,1
had,22
secure,1
anymore,1
guided,1
budgetary,1
disappointed,1
wasn,1
late,1
school,3
differing,1
continue,3
preserved,1
mediocrity,1
things,6
basically,1
avenue,1
has,28
abolishing,1
realize,2
offers,1
given,1
pre,1
last,15
roadblocks,1
bogota,1
deficits,2
spruance,2
technicality,1
preserves,1
freed,1
casualties,1
warm,1
measure,1
guilty,3
checks,1
playing,1
wars,1
employees,6
coastal,1
asking,3
exports,1
hampers,1
impossible,1
effort,2
showdown,1
antiballistic,1
thicket,1
submarines,2
wave,1
anything,2
yesterday,1
agriculture,2
weapon,1
minimal,1
courageous,1
stronger,2
prudent,1
retired,3
assembled,1
steady,1
vote,1
early,1
trident,1
zimbabwe,1
disease,1
yes,5
yet,1
lowering,2
volatile,1
engineer,1
wages,7
genius,1
alike,1
clarity,1
typical,3
observing,1
time,12
embargo,6
horrifying,1
medicare,1
pricing,1
forming,1
hammered,1
xiaoping,1
aroused,1
shadow,1
striving,1
sapping,1
happy,1
electoral,1
governments,2
program,9
infant,1
put,11
baptists,1
her,1
fluctuations,2
carbon,1
options,1
nonproliferation,1
way:,1
struggle,1
okay,1
aggravating,1
laws,2
having,4
iran,4
lesson,1
iraq,3
heritage,2
supreme,1
slope,3
kansas,1
philosophy,2
extraction,1
light,1
apparently,2
tiny,1
deregulate,1
worship,1
valuable,1
pornographic,1
doubled,1
methods,1
aggressively,1
indictment,1
confirmed,1
tourist,1
ways,2
suburban,1
emphasized,2
shortcircuit,1
grown,1
attest,1
barrel,1
grasping,1
disclosure,2
desire,1
suffers,1
efficient,5
entirety,1
unify,1
unfortunately,1
consistent,1
lately,1
disgrace,2
reverse,1
january,3
permanent,1
chat,1
backgrounds,1
subsidies,1
organized,1
summarize,1
choice,1
travel,1
revitalized,1
small,2
gallant,1
civilization,1
before,10
fiction,1
tito,1
replace,1
pakistan,2
appointment,1
him,2
listen,3
wondering,1
peremptory,1
hit,1
his,10
major,5
answering,1
emphasis,5
beat,1
bumpy,1
interrupt,1
worldwide,4
bear,1
feasible,1
funds,1
grandfather,1
consider,2
potential,2
group,1
humphrey,1
tapping,1
repeatedly,1
imports,8
gross,1
vigilant,1
resist,1
accentuated,1
allotment,1
history,1
disarm,1
grossly,1
stimulate,1
reciprocity,1
careless,1
twice,1
thwarted,1
sailors,1
hurts,1
absolutely,1
soar,1
managing,1
interference,1
sustain,1
distortion,1
request,3
values,5
howard,1
their,20
percent,38
point,2
general,1
diverted,1
nominees,1
sounds,1
hospital,2
nostalgia,1
ceiling,2
process,1
deserve,1
requirements,1
embassies,1
restore,2
diplomatically,2
alternative,1
clear,2
eighth,1
banner,1
clean,1
morally,1
duplication,1
governing,1
reelected,1
mean,1
approve,2
neither,1
fulfilling,1
glad,2
suggestions,1
determining,1
account,1
settlements,3
sometime,1
been,25
innocent,1
safer,1
advance,1
evaluation,1
primaries,3
trip,1
mothers,1
appreciate,1
predictable,2
yom,1
diverse,1
strict,2
reflects,1
you,14
rally,1
safely,1
knowledge,1
limitations,1
prime,1
happen,3
preference,1
loyal,1
mainstream,4
opportunity,1
active,1
july,2
court,2
lacked,1
distort,1
yugoslavia,6
warren,4
population,1
atlantic,1
enthusiasm,1
route,1
unraveling,1
flexible,1
corps],1
trying,2
deals,1
millions,1
firms,1
wisely,1
advantaged,1
negotiated,1
sustainable,1
comes,1
cambodia,1
soil,1
abuses,3
unmatched,1
characteristic,1
interior,1
how,2
capability,1
involvement,5
integral,1
assembly,1
spare,1
democrats,1
subjects,1
outraged,1
overcoming,1
vietnamese,1
affirmation,1
transition,1
march,1
appeals,1
materiel,2
advantages,1
meet,1
answer,1
regarded,1
calls,1
series,1
700,1
restored,1
drastically,1
predication,1
thrive,1
misplaced,1
passions,1
represent,1
compete,1
putting,2
sometimes,3
questions,1
moscow,1
promise,1
barns,1
dramatize,1
playboy,3
hold,1
magnificently,1
chinese,2
hiroshima,1
prior,1
summarizing:,1
blockade,1
rubber,1
talk,3
listened,1
injecting,1
landmark,1
reply,1
train,1
richard,1
ignored,1
dedicated,1
planet,4
count,1
prerequisite,1
2000,1
planes,1
zones,1
vision,1
take,6
preeminence,1
immediate,1
beneficial,1
blame,1
relatively,1
georgians,1
confusion,1
personalities,1
carrying,1
some,6
beginning,3
waiting,1
landlord,1
purchasing,1
session,1
additional,1
denominations,1
primarily,1
averaged,1
unfinished,1
passed,2
just,7
1950s,1
outward,1
notice,1
respects,1
sole,1
rediscover,1
spans,1
jury,1
restraining,1
asia,1
affects,1
monitor,1
killed,1
superpower,1
tracks,1
home,1
existing,1
print,1
although,3
material,1
encouragement,1
owned,1
hud,1
spectacular,1
iron,1
decades,1
injection,1
patriots,1
president,29
explain,1
basket,2
reaches,1
answers,1
dropped,1
royalty,1
hope,2
soon,1
america,2
executive,2
sons,1
[administration],2
bend,1
religions,1
action,2
guidelines,2
stadium,1
fired,1
heartless,1
suspected,1
bounty,1
ridicule,1
sensitive,1
loading,1
ter]there,1
heavy,1
moslem,1
accompanied,1
afford,1
reached,1
asks,1
hardest,1
cancelled,1
impression,1
tonight:we,1
acting,1
suburbs,1
britain,1
unpleasant,1
dealings,1
deliver,1
headed,1
curtailed,1
summer,1
sparsely,1
eight,2
products,1
nerves,1
robert,1
file,2
member,2
affirmative,1
disapprove,1
elimination,1
nourish,1
together,3
within,2
could,6
health,8
boycotting,1
positive,1
trigger,1
marks,1
corrected,2
prospect,2
able,1
efficiently,1
observable,1
evening,1
return,1
cheaper,1
instance,8
concerned,1
conscience,1
sinai,2
eliminating,1
british,1
serve,1
trampled,1
importing,1
radio,2
confused,3
baines,1
individualized,1
solution,2
fine,2
find,1
opponent,2
corporation[,1
backward,1
dramatically,1
international,1
regardless,1
selected,1
citizen,1
mayaguez,4
cities,1
sooner,1
occur,1
illustrate,1
drove,1
difficult,1
winston,1
seriously,1
fill,1
experiences,1
steps,4
friends,4
heart,1
dentist,1
corporations,8
forget,1
convenient,1
task,3
specialist,1
transit,2
strengths,1
principles,2
true,1
tactics,2
position,2
present,3
curtain,1
problems,1
since,9
sentiment,1
strife,1
arrested,1
wavered,1
belong,1
borders,1
soul,1
dangerous,5
best,5
mess,3
troubles,1
allusions,1
invulnerable,1
transform,1
hour,1
suasion,1
competitor,1
leadership,6
alliances,1
idealistic,1
rooted,1
troubled,4
genuine,1
heard,1
experienced,1
certainly,1
processes,1
admonition:,1
sought,2
deviation,2
stern,1
discredit,1
master,1
extraordinary,1
principle:,1
concerning,1
regulation,1
conventional,1
evident,1
merchants,1
fence,1
coming,3
convenes,1
notre,3
specials,1
briefer,1
outpatient,1
understandably,1
quotes,2
cover,1
firm,1
reflect,1
contribution,1
fire,5
pentagon,2
czech,1
based,1
dependability,1
sonnenfeldt,1
something,1
intention,1
miners,1
pointed,1
undertaken,1
bypassed,1
except,3
programs,16
panamanians,2
understandable,1
religious,1
saturday,1
fact,5
superiority,2
fundamental,3
global,9
bases,1
outline,1
overdue,1
unless,2
unequaled,1
plants,2
excess,1
christian,1
ian,1
perspective,1
free,2
equality,1
ought,16
admonition,1
invade,1
accordance,2
crystalized,1
restrictive,1
kippur,1
protections,1
people,52
mastered,1
democracy,1
airplanes,1
actually,3
evolve,1
face,1
simon,1
abandon,1
oldest,1
trips,1
afraid,1
showed,1
fish,1
stagnation,1
unrealized,1
intolerable,1
operation,1
adverse,1
coordinated,1
circumvent,1
alarming,1
refugees,1
acheson,1
afterward,1
obligations,2
reputation,1
independence,3
cause:,1
want:,1
secretaries,1
whenever,1
endangers,1
restrain,1
falsely,1
adjusting,1
five,1
colonialism,1
alienated,1
replacing,1
collection,1
offshore,3
hunger,1
elected,4
announced,1
extends,1
owning,1
campaign,3
vital,1
israelis,1
rewards,1
conflict,1
reasons,1
rough,1
scheduled,1
father,2
rule,1
condemn,1
assistance,1
commerce,1
towers,1
damaging,1
gulf,2
wants,3
definition,1
every,6
characteristics,1
answered,1
propaganda,1
madness,1
inferior,1
again,2
refuge,1
dramatic,1
taxpayer,2
indeed,2
thethere,1
artificial,1
deficiency,1
removal,1
comment,2
railroads,1
fireside,1
humanitarian,1
employ,2
guns,2
disadvantaged,1
confronting,1
discussions,1
negotiator,1
binding,1
during,2
fair,3
balcony,1
degrees,1
reestablish,2
consist,2
compatible,1
deregulation,1
price,2
safety,3
enable,1
profiteer,1
games,2
dependent,1
deplore,1
passionately,1
briefly,1
arise,1
reduced,1
cherish,1
risked,1
agree,1
imagination,1
arabs,2
fail,1
itself,1
enjoyment,1
enjoyable,1
anyone,1
pride,1
betrayed,1
embodied,1
refund,1
broadcast,1
spain,1
civilized,1
regions,1
hoped,1
seize,1
church,1
isolated,1
privilege,1
requests,1
pictures,1
substitute,2
foreign,3
uniform,2
fall,3
bountiful,1
moreover,1
causes,1
violate,2
hopes,2
collective,1
boldly,1
demonstrated,1
event,1
overshadowed,1
wherever,1
established,3
sympathize,1
atheistic,1
springtime,1
railroad,1
agency,5
caused,1
innate,1
agenda,1
inouye,1
cannot,1
coproduction,1
incumbents,1
first,8
gasohol,1
lipshutz,1
bizarre,1
lawyers,2
quotas,2
perfect,1
prefer,1
struggled,1
fewer,2
clearly,2
poll,2
overridden,2
minority,1
nonaligned,1
tight,2
stringent,1
space,1
preferable,1
spite,1
harmed,1
from,15
assessing,1
launchings,1
averell,1
solzhenitsyn,1
bottom,1
ill,2
commitment,1
misled,1
fossil,1
refueling,1
healed,1
powerplant,1
focal,1
speaker,1
covered,2
determinations,1
intervention,2
replacement,1
slogan,1
invariably,1
arthur,1
wishful,1
death,2
mobilization,1
advice,2
according,1
frequent,1
factories,1
statements,1
error,2
stricter,1
network,1
terrorist,7
holding,1
operations,1
moments,1
public,5
terrorism,5
nominee,2
value,1
listening,1
modernization,1
enforced,1
quantity,1
monetary,2
harboring,1
stifle,1
traded,1
verified,1
unchanged,1
resources,1
heaviest,1
rush,1
rusk,1
expensive,2
cyrus,1
trade,2
performance,1
churchill,2
currently,1
ambassador,1
insisted,1
growth,6
castigated,1
sweating,1
pope,1
lamont,1
accuracy,1
texas,1
impunity,1
resolution,1
building,6
geological,1
setting,1
quote,2
alaska,2
interruptions,1
poor,2
graduate,1
farm,1
sulfur,1
invented,1
ran,2
ashamed,2
unlikely,1
enduring,1
excellent,1
younger,1
fairly,1
destroyers,2
truman,1
moratorium,1
authorities,2
cultural,1
persons,5
extensions,1
charges,1
advancement,1
800,1
municipal,1
institute,1
placement,1
endure,1
shocks,1
charged,1
shortly,1
firmly,1
southern,2
providing,1
weeks,2
fate,1
criterion,2
hasten,1
robbed,1
dollar,1
founding,1
blamed,1
unwinding,1
aspect,1
targeted,1
departments,3
aggressive,1
close,1
linked,1
supporters,1
winners,1
indulgence,1
maxims,1
pulled,1
unleash,1
reconciliation,1
it:,1
embarrassment,1
fast,2
invasion,2
precedent,1
desperation,1
calling,1
grocery,1
frankness,1
apologized,1
citizens,2
blames,1
restless,1
fleet,1
couple,1
controls,1
moved,1
rural,1
cartels,1
pushes,1
red,1
act,1
agricultural,1
shortage,1
awakening,1
offender,1
repeating,1
helped,1
warsaw,1
gifts,1
add,2
discouragement,1
pose,1
erupt,1
its,3
constructive,1
propitious,1
unpopular,1
consent,1
distorted,1
respect,3
mutual,1
peacefully,3
ruins,1
guys,2
panamanian,1
therefore,1
exchange,1
hesitate,1
washington,4
nourishment,1
income,13
trust,2
campaigned,1
buyers,1
production,2
united,2
smallest,1
searching,1
directors,1
wallace,1
choose,5
overtake,1
peaceful,1
overwhelmingly,1
miles,1
campaigner,1
prevent,2
overnight,1
behave,1
disturbing,6
unites,1
previously,1
happiness,1
mixture,1
irresponsible,2
scope,1
strikes,1
democratic,4
nurtured,1
bills,4
periphery,1
incapable,1
identify,1
embrace,1
nitrogen,1
northeast,1
honorary,1
precondition,1
message,1
improvement,1
modify,2
truth,1
stewardship,1
pledge,1
reservoir,1
collectively,1
age,1
college,2
shoulders,1
iranian,1
smaller,1
russians,1
islamic,1
ago,8
rid,1
faults,1
years,21
number,4
disappointment,1
reinforce,2
decline,1
property,3
centers,1
jerry,1
businesses,1
eggs,1
nothing,1
testing,1
handle,1
tough,1
system,12
defects,1
reaffirmed,2
mighty,1
presenting,1
aid,1
partial,2
depleted,1
other,8
fathers,1
aim,1
$900,2
city,1
minorities,1
sophistication,1
confident,1
fairer,2
retain,1
doubling,1
exclusion,1
drastic,1
air,6
slowdown,1
skilled,1
courage,1
local,2
accommodate,1
steadily,2
yield,1
promptly,1
decisions,6
speak,1
dissidents,1
thriftily,1
craving,1
jews,1
rests,1
filled,1
meantime,1
inauguration,1
reversal,1
powerful,1
removed,3
future,4
mississippi,1
movement,1
signing,1
shortsighted,1
impressed,1
body,1
crewmen,1
commenced,1
points,2
hoover,1
commissions,2
geothermal,1
implemented,1
modified,1
maintained,2
all,12
always,2
border,1
read,1
already,2
barrels,1
touch,1
conducted,1
real,2
couples,1
adhere,1
expense,2
maintaining,2
substantive,1
mobilize,1
uranium,2
prayers,1
collect,1
dusty,1
rearmed,1
hiring,4
wealthier,1
responds,1
contracts,1
amy,1
simpler,2
weakness,3
futuristic,1
and,163
today,1
petitioned,1
construction,1
predict,2
saying,1
abroad,1
undermine,1
reelection,1
honorably,1
assassinated,1
radical,4
deliberately,1
looked,1
inpatient,1
unnecessary,2
any,4
reverses,1
minute,1
suggested,1
caring,1
milestone,1
reliant,1
productive,1
hardworking,1
issues:,1
disavowed,1
kilometers,1
ninth,1
communicated,1
until,3
formally,1
reversed,1
scrapping,1
reason,2
expanding,1
thought,1
accurate,3
five:,1
prosecution,1
treaties,4
ship,4
lyndon,1
anywhere,1
acts,1
demonstrations,1
chiefs,2
modicum,1
annual,1
english,1
initiatives,1
exclusive,1
poverty,1
resort,2
shelters,1
shopping,1
goodness,1
reorganizing,1
using,3
devoted,1
deeds,1
hosts,1
completed,1
testament,1
demand,1
mount,1
000,11
territories,1
ter]first,1
recipients,1
atomic,7
choices,3
succeeded,1
annually,1
increased,4
unaffordable,1
housing,4
appliances,1
frequently,2
predecessor,1
espouse,1
inspiring,1
acquire,1
worth,1
increases,1
automobile,1
diversity,1
releasing,1
fruits,1
are,26
watchman,1
openness,1
taken,1
came,1
patience,1
captive,1
where,8
broader,1
takes,2
popular,1
arm,1
cleveland,1
unchanging,1
kids,1
vice,3
thoughtful,1
noticed,5
intolerance,1
favors,1
lacking,1
describes,1
abraham,1
call,1
ownership,2
partners,1
escalation,1
armed,1
ask,1
relations,2
shifted,1
through,4
grips,1
becoming,1
strength,5
officer,1
offices,1
lifetime,2
bloodshed,1
towering,1
run,3
losers,1
enact,1
bomb,1
individuals,5
repeated,1
challenging,1
unbalances,1
scrutinize,1
debate,6
mother,1
extinguish,1
vulnerable,1
either,1
view,1
ours,1
neighbors,3
unrestricted,1
jet,1
subjugate,1
inflationary,4
helpful,1
fragmented,1
unbalanced,1
results,1
those,13
micah,1
statistic,1
lifted,1
significant,1
bold,1
admiral,2
worse,1
camp,4
difficulty,1
longer,1
watched,1
overlap,1
volunteer,1
senate,2
everywhere,1
parties,1
name,2
spaces,1
worst,1
neighborhood,1
benefits,4
congressional,1
abolish,1
prospects,1
absence,3
book,1
approaching,1
show,1
description,2
cautious,1
recession,1
shot,1
vigilance,1
negative,1
defend,1
ally,2
street,1
crying,1
plains,1
outrageous,1
shoe,2
inaction,1
resting,1
learned,1
resolving,1
waterway,3
substance,1
suddenly,1
target,1
momentum,1
tokyo,1
restricted,1
assuming,2
lippmann,1
duty,2
commonsense,1
reorganize,1
leader,2
trump,1
dangers,1
republicans,3
pledged,1
amnesty,4
cast,2
largely,1
officials,2
broad,2
awakened,1
pressures,2
truly,1
severely,1
1960s,1
greater,1
case,2
generation,1
crises,2
$1/2,1
item,1
downtown,1
unequivocal,2
longing,1
cars,1
saving,2
moon,1
rely,1
phone,1
slide,1
evaded,2
excessive,1
style,1
card,1
outsider,1
care,4
participation,1
purely,1
assault,2
damage,1
harry,1
guard,1
settle,1
pattern,2
fulfilled,1
harsh,1
exercise,1
unilateral,1
carters,1
farmlands,1
rededicate,1
freedom,2
transfers,1
bilateral,1
seldom,1
lebanon,1
protect,1
criticized,2
$100,1
nato,1
licensing,1
architecture,1
stress,1
reliance,1
shortcomings,1
more,12
born,1
display,1
consulted,1
bore,1
inaccurate,1
nomination,3
beings,2
mexico,1
chastened,1
accounts,1
harriman,2
persevere,1
shut,1
habits,1
tyranny,1
navy,1
administration],1
bonds,1
simple,2
emplacements,1
influence,1
15th,1
cloud,1
georgia,4
responsibilities,3
percentage,1
$120,2
described,2
negotiate,1
package,1
crisis,1
marshall,1
king,1
forgiven,1
kind,3
undelivered,1
exceptionally,1
both,1
most,1
important,3
1789,1
transfer,1
phrase,2
daily,1
abnormality,1
principles:first,1
$130,1
job,1
$133,1
correction,2
daughter,1
erroneous,2
limitation,1
largest,1
danger:,1
forbid,1
inspiration,1
footing,1
understands,1
causing,1
billion,16
joy,1
consummation,1
reject,1
correcting,1
mentioned,2
profit,1
prosecuting,1
accompanying,1
rest,1
safeguards,1
move,1
amount,5
administrations,1
comply,1
original,1
parents:thank,1
assignment,1
deviate,1
adherence,1
fragmentary,1
saw,2
also,14
say,7
enough,2
increase,14
insensitivity,1
gets,2
spread,1
puppet,1
afternoon,3
favor,1
megatons,1
organizations,1
depression,3
flights,2
simply,2
equivalent,1
projects,1
bad,1
stripped,1
completing,1
ban,1
retrospect,1
nazi,1
suffer,2
diplomatic,1
campaigns,2
bas,2
complex,1
draft,4
missiles,1
gaining,1
violated,1
adequately,2
narrowly,1
personal,1
accurately,1
underestimate,1
symptoms,1
delay,2
globe,1
violates,1
transient,1
chemical,1
plans,2
plant,1
switched,1
applause,1
drive,1
greatly,1
dean,1
deal,2
strong,3
geographical,1
abuse,2
insulate,1
standby,1
scheme,1
homeland,1
affect,2
readiness,1
lobbyists,2
scarcity,1
facing,1
dead,1
buildup,1
proven,2
eyes,1
drain,1
sea,1
sixth,1
containment,1
slogans,1
smoothly,1
see,1
servant,1
advertisements,2
responsibility,4
offered,1
underway,1
civil,3
national,2
montana,1
subsequent,1
indicate,1
poses,1
compared,1
sixty,1
set,2
contain,1
oval,10
joined,1
jobs,10
sex,1
words,1
founded,1
benefited,2
procedure,1
entered,1
indigent,1
practices,1
hormuz,1
compares,1
battle,1
instructed,1
admiration,2
awesome,1
normalizing,1
difficulties,1
gifted,1
piling,1
fighter,1
inordinate,1
jobless,1
bed,2
beauty,1
excused,1
developed,1
needless,2
holiness,1
detention,2
shipping,1
france,1
clear:,1
unsettling,1
prospective,1
typically,1
defenses,2
financed,1
searched,1
she,2
lessened,1
adjust,1
parts,1
helps,1
western,1
vigorous,1
party,1
little,1
duties,1
accountants,1
however,1
lucky,1
deep,1
humane,2
sources,4
trained,1
knesset,1
parity,1
regulatory,2
capable,1
getting,1
salaries,1
related,1
undermines,1
candid,1
captured,1
supervision,1
await,1
unfair,1
client,1
confines,1
sir,1
views,2
sit,1
conversion,1
over,8
ballot,1
directed,2
brilliant,1
living,2
six,2
practical,2
historic,1
captures,1
shackle,1
bound,1
roosevelt,2
false,1
inimical,1
reviewing,1
firsthand,1
obviously,1
football,1
retained,2
farmer,1
realm,1
avoid,1
fresh,1
comprehensive,1
prompt,1
appointees,1
big,1
select,1
fulfill,1
advanced,1
thankful,1
crowd,1
convinces,1
reprocessing,2
improves,1
mechanical,1
nations,3
sick,1
bit,2
blacks,1
output,1
thanks,1
improved,3
convinced,1
advances,1
majority,1
join,1
helms,1
misquoted,1
reduce,2
large,2
quenched,1
watergate,2
satisfied,1
tomorrow,2
ordinary,2
foresight,1
drink,1
exclusively,1
john,1
begin,2
valleys,1
secondly,1
chicano:,1
recommending,1
works,1
brought,1
alive,1
payments,3
pursuit,1
installations,1
prophet,1
emerged,1
abhorrent,1
bankruptcy,1
thinking,1
world,3
december,1
embarked,1
everything,1
urgent,1
table,1
italy,1
affordable,1
fatherless,1
side,1
bread,2
creator,1
change,8
willingness,2
briefest,1
indirectly,2
extremes,2
comfort,1
dictatorship,3
century,1
suspicions,1
corporate,1
report,1
powers,2
facilities,2
improvements,1
pessimism,1
theirs,1
constant,1
divisiveness,1
knees,3
several,2
sign,1
outrage,1
office,9
alleviation,1
stands,1
high,6
split,2
contagious,1
perilous,1
publication,1
imposition,1
reviewed,1
outlived,1
expressed,1
different,6
petroleum,1
directly,1
administered,2
awaits,1
officially,1
allende,1
redtape,1
level,5
adjusted,1
longstanding,2
escalated,1
restrictions,1
legalities,1
modernized,1
preserve,2
establish,1
permanently,1
deter,1
skirmishings,1
synthetic,3
deduction,3
arrests,1
belongs,1
proclaim,1
troublespots,1
attached,1
focused,1
contriving,1
jeopardize,1
consumed,1
behind,1
dozens,1
tenth,1
candy,1
medicaid,1
weeding,1
purposeful,2
mental,3
decent,1
hostility,1
racial,3
switch,1
hispanics,1
preservation,1
total,4
pursued,1
1/2,6
deng,1
consumers,3
countrymen,1
prices,14
viable,1
harmoniously,1
consumer,1
highly,2
chance,4
initiative,1
plays,1
immobility,1
social,2
nature,3
deserters,1
emulation,1
interesting,2
raised,1
cross,1
control,5
demanding,1
drill,1
budgeting,2
100,1
acknowledge,1
lobby,1
dormant,2
earth,2
quarrel,1
amen,1
overthrow,1
matte,1
stance,1
closest,1
newcomer,1
windfall,3
vary,1
lesson:,1
coherent,1
threatening,1
county,1
stood,1
decency,1
fighting,1
behalf,1
somewhere,1
democracies,1
objective,1
victimize,1
improperly,1
112,1
encouraged,2
exert,1
geography,1
horrible,1
raises,1
strengthen,1
accomplishments,1
friend,1
paine,1
draws,1
drawn,1
societies,1
trends,1
deny,1
karl,2
closely,1
informally,1
spirituality,1
accept,1
glory,1
morning,2
122,1
mission,5
requested,1
overthrew,1
appreciated,1
stopping,1
interpreted,1
conditions,1
daytime,1
lessons,1
strictest,1
painless,1
access,1
enhances,2
wiped,1
advisable,1
cooperate,3
sum,1
ports,1
sun,1
neighboring,1
extended,1
serving,1
current,1
democrat,1
secretary,4
managed,1
actively,2
engulfed,1
civilian,1
detroit,1
conferences,1
key,2
surprised,1
stopped,1
makes,2
launch,1
amid,1
threatened,1
enemies,1
store,1
beloved,2
140,2
condemned,2
hill,1
gallon,1
tightly,1
shanghai,2
mortality,1
appoint,1
depths,1
bum,1
fourth,1
vast,1
instincts,1
purposefulness,1
story,2
but,25
bus,1
sincerely,1
symbol,3
declare,3
suppliers,1
buy,1
revelation,2
available,2
express,1
95th,1
principles:,1
150,1
confine,1
advocate,4
quest,1
zero,1
instantly,1
illiteracy,1
austerity,1
missile,1
waffled,1
dynamic,1
weakens,1
wishes,1
written,1
generate,1
sector,4
passion,1
extreme,2
one:,2
sino,1
coordinate,2
greatness,1
degree,1
dismal,1
163,1
enhanced,1
taiwan,1
especially,3
ocean,1
once,2
naval,1
gallup,1
demonstrate,1
onethird,1
insists,2
higher,1
doing,1
brazil,1
hire,1
figures,1
idea,2
adults,1
prisoners,1
inventory,1
vivid,1
kim,1
assesses,1
nation:,1
backing,1
throughout,1
missing,1
conflicts,1
successful,1
compulsion,1
aired,1
normal,1
gradual,1
encourages,1
reforming,1
weaker,1
consumption,1
technology,1
weaken,1
apathy,1
stone,2
zest,1
migration,1
ones,3
passing,1
expedite,1
streets,1
reach,1
tested,1
humility,1
backed,1
hack,1
read:,1
tripled,1
shrinking,1
seconds,1
children,1
road,1
review,2
rulers,1
justify,1
tighter,1
weather,1
tighten,1
nobody,1
between,7
guide,1
tenet,1
$200,1
efficiency,4
ethnic,1
goal,2
collar,1
natural,1
deprived,1
intact,2
following,2
substantially,1
$227,1
flag,1
james,1
complacency,1
confidentiality,1
unsuccessful,1
range,1
topsoil,1
derive,1
overseas,3
weak,4
budgeted,1
undiminished,1
leader:,1
announcing,2
lean,1
feature,1
blocked,1
recall,1
place,2
spills,1
1970s,1
firmer,1
dispute,1
6:8)this,1
observation,1
twisted,1
tired,1
aggression,4
suggest,1
lead,1
expect,1
sunlight,1
assess,1
elements,4
gentlemen,1
robs,1
scarce,1
concerted,1
passage,3
adequate,3
bombs,1
uniformity,1
begun,1
leaders,4
hopeful,1
abortions,2
delegations,2
tremendous,5
leasing,1
growing,1
assets,1
deciding,1
tab,1
plain,1
only,10
should,2
justice,1
indistinct,1
downtrodden,1
mechanisms,1
versa,1
notebook,1
officers,1
centuries,2
tap,1
individual,1
rationing,1
goes,2
loans,2
accepted,1
tax,23
towards,1
posed,1
six:,1
condemning,1
chances,1
interim,1
person,2
safe,1
$250,1
parenthetically,1
enforce,1
presidential,1
fragile,1
departure,3
herself,1
prohibitions,1
potentially,1
arsenal,1
week,1
instances,1
gigantic,1
fled,1
unselfishness,1
mprove],1
aware,1
can,28
projected,1
cap,1
car,1
ready,3
eligible,1
albert,1
bankruptcies,1
flew,1
limitless,1
wells,2
them:what,1
weed,1
acknowledges,1
said,4
village,1
privately,1
terminated,1
greatest,2
carried,1
racism,1
motion,1
manufacturers,1
idle,1
limited,1
satisfy,1
wastebasket,1
studied,1
match,1
fault,1
fearful,1
ways:,1
accent,2
played,1
really,1
succinctly,1
carrier,1
carries,1
(micah,1
corresponding,1
response,2
arguments,1
rival,1
tends,1
