johnTyler,Occurences
annexation,6
year,10
numerous,5
objects,6
texas,10
branch,29
without,8
advance,7
empire,5
near,10
outlet,9
dorr,6
thus,10
banks,7
mile,9
bill,15
require,7
court,6
am,9
1,7
submitted,8
islands,8
left,7
peace,10
consideration,13
millions,7
greatly,6
much,7
object,5
independent,6
result,8
gold,6
same,5
national,7
commission,18
after,6
close,6
agreed,7
policy,7
union,8
possible,6
right,5
march,6
s,19
meet,6
regarded,7
river,5
under,5
citizens,8
adopted,4
liberal,6
specie,8
notes,8
republic,6
good,5
chinese,5
act,5
undersigned,14
intersection,14
discharge,7
commissioner,13
others,5
making,6
minister,8
pay,5
blazes,8
take,6
immediate,6
treasury,10
authority,5
claims,5
therefore,6
exchange,8
washington,7
debt,7
necessity,5
duties,8
legislature,9
however,8
united,12
session,10
importance,7
directors,10
medium,7
states,13
miles,9
wisdom,6
rate,6
happiness,8
captured,4
prosperity,8
bills,5
just,6
over,8
attended,8
thence,11
highlands,10
improvement,8
existing,7
china,10
service,5
well,9
president,4
very,7
practice,7
placed,6
congress,16
monuments,12
charter,10
discount,8
american,5
nations,5
years,9
executive,9
vessel,5
embarrassments,5
action,6
majority,5
per,7
order,8
africa,4
period,7
large,4
issue,6
distant,6
nothing,7
corporation,10
ordinary,5
being,9
ever,6
erected,21
system,11
orders,8
john,23
silver,6
engaged,7
britain,9
against,4
payments,6
protection,4
matter,6
rhode,20
local,6
crew,6
government,15
world,4
known,6
stream,26
too,10
rights,6
side,12
consequence,6
question,6
within,8
spirit,6
regard,6
report,7
powers,9
facilities,6
cent,6
subject,6
honor,8
several,11
political,6
feel,5
british,4
office,9
upon,5
while,7
revenue,6
high,6
copies,10
proceeds,6
whether,9
negotiation,8
me,6
west,22
claim,9
expressed,6
credit,9
different,6
calculated,7
new,8
circumstances,6
law,13
mr,6
4th,7
shall,6
establishment,7
establish,10
institutions,5
condition,8
fiscal,11
true,8
principles,6
survey,14
present,5
lake,33
since,7
boundary,42
constitution,13
cause,6
best,7
respective,6
head,14
times,7
land,8
department,12
any,7
due,6
lands,5
circulation,7
mere,6
vessels,7
territory,6
thought,4
readily,6
intercourse,8
bank,13
character,5
above,5
lawrence,9
state,6
myself,4
exchanges,7
countries,9
000,11
thereby,8
must,7
20,6
fact,10
latitude,15
northwest,14
jurisdiction,6
found,6
secretary,8
taken,7
tariff,5
where,12
currency,9
free,6
limits,5
st,53
receive,6
implied,8
necessary,5
surplus,6
correspondence,5
such,7
relations,7
southwest,20
through,6
dissent,9
country,11
commercial,6
joint,9
florida,5
administration,6
offices,8
obligations,8
objections,6
run,11
source,22
exchequer,11
either,6
view,7
late,6
continue,7
things,6
military,8
those,12
us,7
waters,8
formidable,6
given,5
courses,6
maps,31
last,7
might,6
felt,8
measure,9
district,8
halls,13
full,7
benefits,6
next,6
brazil,6
proper,9
monument,16
regis,8
commerce,7
house,5
life,6
nor,8
interest,5
themselves,6
assent,21
every,10
convention,5
commissioners,6
again,9
estimated,7
war,10
yet,6
indians,4
mouth,7
fund,7
paid,6
duty,6
mark,7
happy,6
governments,9
whole,6
during,6
troops,8
issues,7
three,7
required,6
measures,6
terms,10
far,11
payment,6
plan,8
between,7
case,9
slaves,6
still,7
having,5
laws,6
exist,6
itself,7
columbia,6
expenditures,7
following,9
force,7
ascertained,7
dividing,8
south,13
north,26
portion,8
exercise,7
distribution,7
foreign,6
slave,5
rouses,10
causes,6
course,6
power,8
place,8
europe,7
means,4
desire,6
great,11
opinion,6
mexico,17
altogether,6
interests,10
board,6
small,6
astronomical,12
friendly,6
own,6
heretofore,7
sales,7
should,6
only,6
officers,7
imports,7
island,17
done,6
both,6
most,12
appointed,7
important,6
market,7
efforts,8
proposed,9
purpose,6
line,83
point,25
general,7
september,8
operations,8
public,7
along,20
paper,7
parallel,16
value,6
maine,8
amount,5
confidence,7
connecticut,7
also,6
say,6
increase,7
trade,7
matters,9
treaty,11
attention,9
further,7
