johnFKennedy,Occurences
,1
ccc,1
half,1
hall,2
salary,1
pollution,2
spontaneous,1
diverged,1
pretend,1
photographers,2
morton,1
imperfect,1
ted,1
pick,1
coals,1
ten,4
sake,1
daring,1
energy,1
deference,1
conceal,1
polluting,1
$,1
switzerland,1
spreading,2
squares,1
investment,1
),1
competent,1
require,1
carriers,1
avoidance,1
compassionate,1
standards,1
1,1
2,1
3,1
4,1
triple,1
5,2
6,1
7,1
8,1
professors,1
9,2
dismayed,1
rounded,1
:,1
newspaper,1
telling,2
hang,1
role,1
roll,1
heartedly,1
concede,1
turn,1
perseverance,2
gold,1
result,1
opposition,1
golf,1
same,2
selfish,1
procedures,1
commission,1
after,4
citizens:i,2
parliamentarian,1
rational,1
hand,1
resume,1
a,12
contractual,1
ordered,1
b,2
c,1
salt,1
d,1
posture,1
f,1
g,1
h,1
spiral,1
i,7
artistic,1
j,1
l,1
eating,1
m,1
blood,1
neighbor,2
n,1
o,1
the,99
straight,1
p,1
entering,1
halt,4
sale,1
r,1
s,4
t,18
readers,1
u,2
v,1
exciting,2
w,1
x,1
obvious,1
y,2
regain,2
information,2
november,1
resolve,1
converting,1
good,3
faithful,1
empty,1
tie,3
suffered,1
besides,1
serious,2
predicted,1
delivering,1
shipmates,1
owes,1
quickening,1
grandchildren,3
unchecked,1
informative,2
gone,2
sane,1
owed,1
aside,1
erosion,1
cia,1
scholars,1
olympic,1
aligning,1
pieties,1
harm,1
provided,2
intransigence,1
protectionism,1
cio,1
representation,1
ridgway,1
muster,1
motive,1
earth:,1
provides,1
shrinks,1
root,1
motivate,1
webster,1
patrick,1
hard,1
multiply,1
hare,1
effectiveness,1
pioneers,2
roof,1
quarters,1
antagonisms,1
congressmen,1
morrill,1
room,1
better,1
ranging,1
ungratefully,1
permit,1
suitable,1
cancer,1
taking,1
terrifying,1
breadth,1
voters,1
pile,1
atlas,1
immortal,1
prohibits,1
ambassadorships,1
frustrations,1
discharged,1
gained,1
skyrocketing,1
struck,2
hate,1
block,1
poets,2
hath,1
flow,2
order,2
reminds,2
protecting,1
hasn,1
pressed,1
indelible,1
timid,1
faiths,1
traveling,1
buckley,1
gore,1
exertion,1
eider,1
propose,3
reform,1
remit,1
illustrated,1
podium,1
women,2
vaccination,1
woman,1
save,1
illustrate:,1
protection,2
combatants,1
footsteps,1
unforgettable,2
frankly,2
tom,1
top,1
too,1
orderly,1
have,8
casting,1
salinger,3
kentucky,1
energetic,1
avail,1
implications,2
famous,1
question,15
drugs,1
spirit,3
hallowed,1
intellectual,2
wishing,1
picture,2
warmer,1
firmament,1
regard,3
creeds,1
officious,1
thousand,1
captives,1
com,1
coo,1
madman,1
automation,1
academic,1
coral,1
time:,1
foresworn,1
pipe,1
howitzers,1
representative,1
circumstances,1
including,1
patriot,1
constitutes,1
markets,1
anew,1
obligation,2
mounting,1
violation,1
indistinguishable,1
try,1
patriotic,1
became,2
effective,1
times,1
says,1
congress:it,1
direction,1
ammunition,2
ideological,1
whence,1
cry,1
spires,1
horizons,1
reservations,1
stable,1
activities,1
gentlemen:it,1
clamor,1
harness,1
impatience,1
directing,2
respond,1
incident,3
capita,1
caught,1
exceeds,1
japan,1
concert,1
uncertain,1
concern,2
restated,1
beautiful,1
eventual,2
worked,1
unflagging,1
refrain,1
state,9
worker,2
contrasted,2
defined,2
undue,1
element,1
hopkins,1
subversives,1
concealment,2
synagogue,1
opposite,2
240,1
restraint,1
watchful,1
247,1
offering,1
europeans,1
creating,1
hodges,1
shots,1
sweeping,1
outnumbering,1
cut,1
probably,1
constitutional,1
untrue,1
harass,1
two,3
250,1
moment,1
outpacing,1
desired,1
calmly,1
attack,1
reported,1
distribute,1
attach,1
kitchen,1
prevented,1
creation,1
think,6
participate,1
languages,1
occurred,1
forbidden,1
accused,1
friends:,1
replaced,1
services,2
team,1
cadets,1
marvin,1
filling,1
speech,2
watch,1
paramilitary,1
enslaved,1
thermonuclear,1
cabinet,2
thing,1
privileges,1
lessening,1
apparel,1
participant,1
domestic,2
initiate,1
harding,1
deception,1
paying,1
fellows,1
starts,1
“someone”,1
strengthens,1
stability,1
budget,5
zuckert,1
actual,1
eastern,1
reflection,1
ultimate,2
campus,2
widely,1
enlisted,1
surprising,1
inspected,1
privileged,1
suited,1
opposites,1
woodrow,1
assume,1
expiring,1
memory,1
payloads,1
scientist,1
concept,2
warranted,1
banish,1
farmers,4
house,12
disaster,1
hours,1
opposing,1
shore,1
start,1
stars,1
earliest,1
fallen,1
hotels,2
recipient,1
short,2
reducing,3
finance,2
measured,1
downward,1
abreast,1
dogmatic,1
persisting,1
unsold,1
attitudes,1
regulate,1
ninety,3
obstacles,2
truths,1
militarily,1
consistency,1
required,1
climb,3
conjugate,1
measures,1
reinvestment,1
golden,2
specifically,1
savings,1
enter,2
attain,1
warmth,1
convincing,1
destroy,3
dates,1
priority,1
creative,1
statesmen,1
coast,1
thirties,1
solemly,1
requires,1
submitting,1
bright,1
consume,1
planned,1
benefactor,1
anti,1
unknown,2
competence,1
hazards,1
congressman,2
assure,1
emergent,1
pretext,1
consult,1
manners,1
survive,1
blown,1
precarious,1
adversary,1
performed,1
barely,1
belligerence,1
hanging,1
outlines,1
endorsement,1
outlaw,1
friendly,1
tell,1
possession,1
cluttered,1
dag,2
shores,1
flames,1
squarely,1
dam,2
shows,1
outlined,1
shown,1
celebrated,1
pointing,1
trucks,1
speeds,1
day,3
raising,1
ambush,1
stereotypes,3
statesman,1
island,1
created,1
water,2
corps,1
formal,1
stays,1
countless,1
fervor,1
vienna),1
canadians,1
entertain,1
tens,1
concentrating,1
critical,1
logistics,1
elsewhere,1
judiciary,1
exceedingly,1
guarded,1
declining,1
somber,1
equitable,1
sixteen,1
regulars,1
tones,1
restraints,1
possessing,1
ageless,1
harshest,1
endowed,1
editors,1
introduction,1
annals,1
built,1
threads,1
concentration,1
heavily,1
fellowship,1
colleague,1
third,1
build,2
lectured,1
further,1
demands,1
tolerate,1
aged),1
presidents,1
outlets,1
areas,2
exemption,1
stunning,1
parliament,2
finds,1
interdependence,1
examining,1
cuba,2
prejudices,1
encircling,1
going,4
banks,2
carefully,1
impact,2
ashes,1
paralysis,1
committees,1
beginnings,1
skeptics,2
unconquered,1
bodied,1
reassured,1
attitude,8
average,2
treatment,1
substandard,1
compare,2
guardsmen,1
bodies,1
virtues,1
investments,1
choosing,1
waited,1
grasp,1
journal,1
composition,1
unlike,1
term,1
acquisition,1
evins,1
rigid,1
reinvesting,1
ambassadors,2
business,3
advent,1
lucius,1
withdrawing,1
staff,1
possible,1
partly,1
right,1
astride,1
shoes,1
edmund,1
stage,4
taught,1
returning,1
complicated,1
maximum,1
under,1
did,3
quarter,1
proposing,1
die,3
dig,1
parades,1
murray,1
din,1
dim,1
believing,1
dangerously,1
$1,1
$2,1
divisions,1
areas:,1
fears,1
$3,2
$5,1
$6,1
cliche,1
later,1
$7,1
vraiment,1
$8,1
livestock,1
forgotten,1
airlines,1
highway,1
businessman,1
possibly,1
impair,1
satellites,1
emancipation,1
static,1
test,1
journey,1
aiken,2
finally,3
remained,1
enforcement,3
conviction,2
louisiana,2
publicly,2
brown,1
misleading,3
stockpiles,1
final,1
deserving,1
distract,1
occasion,1
loan,2
virtual,1
proportionate,1
repeat:,1
back,1
statistics!the,1
training,1
mach,1
expectation,1
resisting,1
states,5
duration,1
isaiah:,1
load,1
houston,4
ignore,1
company,1
loaf,1
thomas,2
blinded,1
applaud,1
enforceable,2
deteriorating,1
lunar,1
billions,1
relax,1
length,1
priest,1
grand,1
concerns,1
schedule,1
insurgent,2
“they,1
overwhelming,1
baby,3
conceals,1
grant,1
up:,1
qualified,1
lunch,1
tempering,1
armies,1
industrialized,2
wagner,1
helping,1
reared,1
construct,1
attempt,1
do:,1
rivalry,1
stale,1
balance,1
revealed,1
know:,1
latin,1
text,1
weakening,1
dearly,1
lying,1
exceeded,1
framing,1
today:,1
made,2
conciliation,1
being,2
yielded,1
physicist,1
menace,1
safeguarding,1
renounces,1
hoping,1
fredericksburg,1
sideline,1
warned,1
curse,1
ups,1
status,1
silenced,1
trading,3
nobility,1
don,14
diffusion,1
operates,1
pours,1
stamp,1
friends:i,1
exodus,1
scattered,1
government,4
known,1
stream,1
condemnation,1
coalition,1
crime,1
stand,2
disappointments,1
surround,1
us:,1
knows,1
characterized,2
forward,1
catholics,5
myths,2
precinct,1
300,1
lawsuits,1
deriving,1
305,1
succor,1
klan,2
comparable,1
insincere,1
peacetime,1
adjustments,1
use,1
subject,1
nursing,1
main,1
rockets,1
arrangement,1
opposes,1
revenue,1
concentrated,1
monopoly,1
continuous,1
negotiation,4
weaknesses,1
lungs,1
mcgeorge,1
grain,1
credit,2
intensive,2
alter,1
combine,1
likes,1
waste,1
cries,1
catholic),1
motivated,1
tribune,2
curbing,1
bearing,1
understandings,1
includes,1
establishment,1
dry,1
cheating,1
picking,1
brood,1
deposits,1
roosevelt’s,1
compass,2
dispose,1
befits,1
veterans,4
fidelity,1
negotiating,1
angola,1
balk,1
jeopardized,1
reckless,1
redouble,1
threats,6
transformed,1
make,2
included,1
hostilities,1
assisting,3
no!but,1
attempting,1
opposed,1
penetrated,1
questioned,1
eloquently,1
suppresses,1
rapidly,1
stake,1
intensity,1
witness,1
fortify,1
freeing,1
due,1
349,1
threat,1
interagency,1
invention,1
activated,1
bowie,1
inform,1
psychological,1
commit,1
friendships,1
cure,1
sorrow,1
curb,1
trees,1
observed,1
observer,1
presidency,2
hiding,1
happier,1
bank,1
man:,1
flourished,1
1%,1
meaning,1
wellbeing,2
oppressed,2
rostrum,1
drawing,1
bane,1
band,1
orbit,1
meaningless,1
interpretations,1
released,1
10,1
11,1
resettle,1
12,1
devaluation,1
13,1
14,2
august,3
15,1
16,1
17,1
18,2
19,1
bastogne,1
allied,1
execute,1
benefit,1
cracking,1
labor,1
vastly,1
highest,1
unique,2
regained,1
sober,1
allies,2
20,2
22,1
transporting,1
estudiante,1
23,1
24,1
25,1
shelter,1
worlds,1
seizure,1
26,1
postponement,1
examine,1
invective,1
participated,1
29,1
experiments,1
industry,2
examines,1
long,1
fragmentation,1
remember,1
ravaging,1
378,1
participates,1
invites,2
panicky,1
examined,1
relationship,1
workers,1
30,2
32,1
cuts,1
baruch,1
35,1
expression,2
many,5
releases,1
stay,1
controlled,1
dedicate,1
inspire,3
increasing,1
progress,1
40,4
respected,1
progreso,2
42,1
seeks,1
devote,1
44,1
45,1
lasts,1
protects,1
alumnus,1
treat,1
46,1
47,2
48,1
wholly,2
bishop,1
numbers,1
rapid,1
seven,1
expressing,1
arena,1
devoting,1
darker,1
imperil,1
swiftly,1
uniformly,1
televising,1
wood,1
50,3
52,1
53,1
compromising,1
54,1
56,1
surprise,1
admitted,1
57,1
richness,1
58,1
59,1
maps,1
dropping,1
seeds,1
disarray,1
complaints,1
invited,1
loof,1
look,4
duress,1
grounds,1
korea,1
achieving,2
disrupt,1
sergeant,1
commits,1
purchasers,1
60,1
61,1
62,1
63,1
64,1
65,1
farewell,1
67,1
needed,1
mass,3
lord,1
recording,1
doubled!,1
speed,1
admit,1
common,3
interest,1
themselves,2
70,1
75,1
79,1
winning,1
apply,2
mars,1
postwar,2
politician,1
mary,1
marx,2
separated,1
gratifying,2
foreseen,1
bass,1
landing,1
mare,1
disloyal,1
disagree,2
80,1
bask,1
formula,1
milton,1
step,2
revolt,1
mark,1
tribute,1
comrades,1
base,1
89,1
trend,1
versatility,1
quincy,1
businessmen,1
loss,1
incentive,2
caribbean,1
relate,1
lost,2
repudiate,1
premises,1
90,1
91,1
emphasizing,1
94,1
preliminary,1
controlling,1
97,1
worn,1
biology,1
immediately:first:,1
work,1
lose,1
exceptional,1
utilization,1
indict,1
tragedies,1
courier,1
convince,1
mate,1
delays,1
word,1
stated,1
theory,1
love,1
contractor,1
extension,1
romanus,1
unanswered,1
secret,1
foundation,1
across,1
unwise,1
identity,1
eat,2
explosions,1
europe,5
reward,1
prevailed,2
simplest,1
disagreement,2
uniquely,1
empires,1
opinion,1
soldier,1
devotion,1
stir,1
upsetting,1
indian,1
godunov,1
hospitals,1
existence,1
textiles,1
world:,1
freedoms,1
whooping,1
megaton,1
ramifications,1
irritability,1
exploration,1
vex,1
mining,1
revision,1
squeezed,1
visitors,1
preparing,1
darkly,1
tombs,1
provision,1
thrust,1
seems,2
honored,1
battlefields,1
commence,1
catton,1
eec,2
scientific,2
congratulations,1
winter,1
insure,1
clouds,1
cubas,1
platform,1
spend,3
fairness,1
monolithic,1
tenants,1
grave,1
arsenals,1
advantage,1
spent,1
decried,1
instead,1
cuban,1
klux,1
ernie,1
truisms,1
communist,7
exception,1
temporary,1
hands,1
year,2
sufficiently,3
allowed,1
staying,1
ignoring,1
branch,1
anguish,1
emergencies,1
awaiting,1
vii,1
understanding,1
empire,3
near,1
silence,1
victims,1
inviting,1
vietnam,2
economy,6
inspired,1
community,1
planning,1
slighted,1
stop,1
humbled,1
minnesota,1
inspires,1
unused,1
convictions,1
prudence,1
appropriate,1
boston,1
usefulness,1
nashville,1
least,2
immediately,1
ein,2
subsequently,1
needs:,1
defenseone,1
submarine,1
antietam,2
rumbles,1
boldness,1
devastated,1
agreed,3
computers,1
perceptive,1
secretly,1
density,1
learn,1
representing,1
logical,1
newer,1
characterize,1
perceptions,1
missions,1
severe,1
immoderate,1
monopolize,1
communism,2
lease,1
exploit,2
addressing,1
instructions,1
evidence,3
occupancy,1
amity,1
official,1
signified,1
parishioners,1
ethics,1
spring,1
assessment,2
leave,1
excluding,1
signifies,1
assigns,1
faint,1
bourgeois,1
peoples,1
intrusive,1
minister,1
need,1
vetoed,1
often,1
newspapers,1
staggered,1
obtaining,1
kindly,1
tests,3
canada,1
traditions,2
vetoes,1
hardly,1
useful,1
lasting,2
sanctions,1
drugged,1
private,1
companion,1
roles,1
unwarranted,1
rigidity,1
precisely,1
gates,1
lined,1
accomplish,1
engine,1
hoffa,1
end,8
lines,1
scholastic,1
mexicans,1
fails,3
forty,4
vow,2
offending,1
stalingrad,1
o/the,1
hardpressed,1
rockefeller,2
barring,1
people:,1
slippery,1
special,2
forum,1
noted,1
horizon,1
environment,1
berkeley,1
undertaking,1
airplane,1
achieved,2
progressive,1
happens,1
shaft,1
slightly,1
education,1
occupation,1
called,1
charter,7
mccloy,3
investors,1
turns,1
fullest,1
newly,1
gradually,2
tried,1
burdensome,2
collins,1
deepest,1
succeeding,1
narrow,1
brave,1
proceedings,1
splitting,1
shape,1
seventy,3
momentous,1
indochina,4
educating,1
allegiance,1
forth,1
hudson,1
reinforced,1
africans,2
converge,2
400,1
pertinent,1
seventh,1
graves,1
weapons,1
authors,1
persecuted,1
valid,1
asked,1
deployable,1
era,2
erd,1
rights,1
malaya,1
share,1
climbed,1
antarctic,1
deployment,1
thoroughly,1
television,1
chairman,1
undimmed,1
boasted,1
sharp,1
species,1
federalized,2
strongest,2
shake,1
43%,1
cent,5
tucker,1
metals,1
degradation,1
mexican,1
trial,2
perception,1
exploitation,2
disorders,2
finest,1
undertake,2
deprivation,1
doctrines,1
links,1
entrance,1
victorian,3
subjected,1
below,2
substitutes,1
soundly,1
remedies,2
intimately,1
surviving,1
estate,1
shall,1
articulate,1
revolts,1
careers,1
impending,1
followers,2
substituted,1
races,1
individually,2
shame,1
financial,1
elderly,3
enormity,1
dreams,1
450,1
pollute,1
righteousness,1
running,1
exalt,1
454,1
harder,1
render,1
republics,2
declared,2
rates,2
endeavor,1
relieve,1
progressing,1
armored,1
transport,2
rolls,1
indignity,1
martin,2
misinformed,1
borrowing,1
strategy,3
forms,1
achievements,1
victories,1
maintain,2
farther,1
belgian,1
establishing,1
couch,1
commodore,4
skills,1
companies,1
annihilate,1
differently,1
same:,1
malformation,1
sixth:,1
represented,1
attractions,1
chemicals,1
congressionally,1
waves,2
verifying,1
remain,1
expected,1
voices,1
sustenance,1
countries,11
eye,1
himself,1
wanted,1
degrades,1
continent,1
feels,1
another,1
guarantee,1
enemy,1
lowell,1
gray,1
cemetery,4
triumph,1
horror,1
gram,1
liberation,1
black,3
structures,1
fortunate,1
questions:,2
such,1
exacting,1
recovered,1
classic,1
oppressions,1
describe,1
technological,1
campuses,1
incorporation,1
florida,2
administration,2
widening,1
developing,1
remains,1
dwell,1
recapture,1
features,1
incomplete,1
white,3
openly,1
sounded,1
thailand,1
huge,2
clothe,1
termination,1
superb,1
might,1
imports),1
sharing,1
expressions,1
improving,1
servants,2
wonders,2
eradicate,1
hurricanes,1
trumpet,1
leads,1
installment,1
deflationary,1
patriotism,1
fields,1
next,1
retrain,1
submit,1
occupy,1
import,1
eventualities,1
summit,4
conclusion,1
central,1
impose,1
supporting,1
memorial,1
undoing,1
masefield,1
news,1
greek,1
griffin,1
green,1
race,2
effectively,1
was,6
war,1
greet,1
crucible,1
remake,2
ladies:it,1
grew,1
way,1
realization,1
contamination,1
signers,1
logistic,1
urban,1
shortages,1
disciplines,1
summons,1
bolivia,1
african,1
departmental,1
attempted,1
play,1
disciplined,1
prized,1
betterment,1
fought,3
foes,1
quickly,1
obrero,1
taxes,1
decide,1
unchangeable,2
insurrection,1
issues,1
saigon,2
priorities,1
instruments,1
far,1
stuck,1
fat,1
greed,1
issued,1
plan,6
embattled,1
double,1
suicide,1
instituted,1
rendering,1
fbi,1
lowest,2
feasibility,1
classifications,1
comfortable,1
prizes,1
institutes,1
tranquility,1
completely,3
suit,1
rested,1
dividing,2
denial,1
intensify,1
study,1
entangled,1
portion,1
differences,2
fever,1
youngest,1
totaling,1
vatican,1
bombed,1
gain,1
burned,1
receiving,1
memories,1
financing,1
tragic,1
older,1
categories,1
berlin,11
explore,1
kremlin,2
climate,1
continuously,1
great,3
meanings,2
entrusted,1
staggering,1
happened,1
criticize,1
discoveries,1
pleased,1
peaceable,1
sides,2
terminating,1
indebted,1
hull,1
economic,3
statistics,1
grim,1
wondered,1
dick,1
fed,3
distinction,1
arrest,1
disability,1
section,1
discontent,1
retirement,1
indivisible,1
astern,1
rumor,1
horace,1
looks,2
provoke,1
presented,2
theoretically,1
omitting,1
few,1
highways,1
strain,1
rain,1
heirs,1
hangs,1
repugnant,1
opened,1
plea,1
produced,1
voyage,1
baptized,1
obsolescence,1
outside,2
effect,2
unfavorable,1
elementary,2
produces,1
explaining,1
topic,1
producer,1
totality,1
perceive,1
darkest,1
sugar,1
sums,1
who,5
raid,1
option,1
politics,1
game,1
crucial,1
contribute,1
why,1
faith,2
died,1
founders,1
athenians,1
reappraise,1
denies,1
candidate,1
structural,1
muffled,1
hospitality,1
peanut,1
diet,2
david,1
win,1
lawyer,1
didn,2
citizens:this,1
electric,1
colleges,2
bolivar,2
radford,1
diminish,2
availed,1
recommended,1
barriers,1
matters,1
theaters,2
various,1
administrative,1
posterity,1
attention,1
fulfillment,1
visit,3
reduction,2
denied,2
extent,1
greeting,2
arteries,1
voted,12
losing,1
fond,1
fit,1
skins,1
belaboring,1
pangs,1
fix,1
interrelationship,1
honest,1
rank,1
assumption,1
negroes,5
outlet,1
nullification,1
addition,1
party’s,1
doubts,1
sure,1
grow,1
congress:i,1
aggressions,1
shrink,1
af,1
textile,1
ordinarily,1
unswerving,1
am,1
an,2
former,1
panic,1
shrine,1
extend,2
fold,1
blowing,1
will!,1
as,13
at,10
intermediate,1
looking,1
simultaneously,1
payroll,1
formed,1
ells,1
gerald,1
disavowing,1
be,12
prove,1
cherished,1
admire,1
systems,1
sudden,3
by,10
popularity,1
tactically,1
panel,1
abandonment,1
ca,1
wills,1
enabling,2
hating,1
charge,1
outstanding,1
keeping,3
familiar,1
co,1
gaps,2
breathe,2
food,2
salud,1
tropical,1
fly,1
withdrew,1
partner,1
stability:,1
skeptical,1
buddhist,1
votes,2
valley:i,1
voter,1
freely,2
huts,1
observers,1
expenditure,1
de,1
congress:,1
admits,1
di,1
commanders,1
language,2
sites,5
do,12
ford,1
dr,1
observe,1
unsatisfied,1
accomplished,1
attacks,1
won,1
rare,1
encroachment,1
criticism,1
enlighten,1
needy,1
which,6
needs,2
patterns,1
unpredictable,1
favored,1
blight,1
er,1
jailer,1
profound,2
affirm,1
wiley,1
never,2
ex,1
piece,1
aspiration,1
fa,1
foe,1
unmistakable,1
for,10
easing,1
twilight,1
watching,1
content,2
plow,2
jefferson,2
perhaps,3
dine,2
fatherland,2
subterfuge,2
alert,1
rate,4
skill,1
prophecy,1
prosperity,1
divide,1
contrary,1
covert,3
vistas,1
governors,1
go,6
50%,1
conserve,1
unmistakably,1
form,2
500,1
misunderstandings,1
renew,1
he,1
griswold,1
withdraw,1
placed,1
geneva,1
prospering,1
poland,2
ho,1
welfare,1
memorable,2
flourish,1
authorization,1
foul,1
intricate,1
relationships,1
appeared,2
else,1
four,1
contemplate,1
context,1
ia,1
easily,1
portal,1
if,1
ii,2
likely,1
conscript,1
commitments,1
advisory,1
in,26
maturity,1
civics,1
dismissed,1
is,17
it,8
aimed,1
disputes,3
iv,1
announce,1
somebody,1
ix,1
talked,3
habitable,1
lively,1
raul,1
delusions,1
supplement,1
contrast,1
halting,1
gave,1
alteration,1
je,1
become,1
recovering,1
$10,1
$11,1
neocolonialism,1
$12,1
$13,1
$15,1
jr,1
eagerness,1
majestic,1
inflation,1
disposal,1
settlement,4
recede,1
literature,1
531,1
sending,2
customary,1
ability,1
unbalancing,1
belief,1
abyss,1
predicting,1
$22,1
mentality,1
knew,1
despairs,1
suggestion,1
nobel,1
ku,1
keynoter,1
places,1
disposition,1
troublesome,1
irreparably,1
catledge,1
equals,1
stabilize,1
conscious,1
accomplishment,1
ll,2
leukemia,1
$35,1
administratively,1
political,2
solitary,1
while,1
enterprises,1
second,2
that,14
suggests,1
faster,1
morgan,1
than,9
sufficient,1
me,1
limit,1
communication,2
spacefinally,1
enterprised,1
entre,1
tolerance,1
contest,6
mr,3
alabama,2
$47,1
possessed,1
fissionable,1
feeling,1
my,2
rekindle,1
plus,1
expansion,1
fiscal,1
dream,1
possesses,1
preachers,1
prediction,1
noble,1
either!the,1
rays,1
postpone,1
$50,1
totalitarian,2
heat,2
no,6
legacy,1
student,1
careful,1
ideology,1
seal,1
terrorists,1
storage,1
illusion,1
head,1
dialog,2
thermopylae,1
of,70
reserve,3
heap,1
hear,1
avenues,1
$60,1
occupied,1
on,5
or,8
unfilled,2
multilateral,1
foolishly,1
embark,1
tendencies,1
families,1
occupies,1
intelligent,1
disavow,1
peacemakers,1
luxury,1
easier,1
dillon,1
knit,1
$70,2
sitting,1
macaulay:,1
dominican,1
po,2
increasingly,1
indications,1
subversive,1
nation,7
readily,1
rocket,3
splendid,1
oratory,1
determination,2
discipline,1
stretching,1
extremely,1
proclamation,1
tongues,1
inevitably,1
rocked,1
adversaries,2
hundreds,1
$80,1
recent,2
they,1
inevitable,1
grouped,1
frustration,1
them,3
allowance,2
then,2
mitchell,2
lagging,1
seat,1
seas,1
re,21
concepts,1
adopt,2
attorney,1
oppose,1
obtained,1
bridge,1
strengthening,2
seed,1
distracts,1
seek,2
seen,1
seem,2
defying,1
fourths,1
exporter,1
covenant,1
compelled,1
sh,1
si,1
origins,1
adore,1
lecture,1
so,2
pierce,1
gentlemen:i,1
apart,1
exported,1
calendar,1
maintains,1
st,1
unions,1
necessary,2
decision,1
squadrons,2
righteous,1
souls,1
ministrations,1
syria,1
started,1
abstained,1
heed,1
closer,3
dismantle,1
single,2
cement,1
dissenters,1
th,1
scourge,1
closed,1
actuarially,1
flowed,1
to,32
censorship,1
commercial,2
joint,1
separate,1
baseless,1
reasonable,1
generations,1
endangered,1
risking,1
nebraska,1
rules,3
batista,2
uh,38
ruled,1
un,1
military,1
up,1
reluctant,1
fifteenth,1
us,3
waters,1
usual,1
twining,2
purchases,1
untold,1
this,17
anarchy,1
fourth:,1
ve,6
thin,1
remarkable,1
vi,1
purchased,1
sees,1
failure,2
forge,1
laboratories,2
know,2
suggesting,1
frightened,1
changed,1
populace,1
breakthrough,2
changes,1
privacy,1
approving,1
frustrating,1
we,2
willingly,1
summoned,1
heir,1
gap,1
examination,2
gas,1
emphasize,1
slight,1
previous,2
securing,1
teach,1
reading,1
argue,2
deepen,1
deeper,1
compensation,1
talents,2
footnotes,1
monopolies,1
outpost,2
held,1
broadthe,1
annihilation,1
courts,2
fruitful,1
type,1
beyond,1
troops,1
nonintervention,1
terms,1
deeply,1
proof,1
phase,1
swearing,1
oaths,1
contract,1
conclude,2
sluggish,1
elections,2
churches,3
susceptible,1
provisions,1
insight,1
assail,1
revolutionary,2
fabric,1
unemployment,1
exact,1
cooling,1
force,3
encompassed,1
splendor,1
surrounded,1
south,1
north,1
forefathers,2
barbed,1
tools,1
eminence,1
counterfeit,1
get,2
continues,1
course,1
sewing,1
power,8
questions:first,1
mediation,1
precious,1
yielding,1
americans:today,1
sell,1
industrious,1
continued,1
thou,1
transformation,1
abide,1
enfeeble,1
help,3
forcing,1
massive,1
dividends,1
ended,1
self,2
located,1
challenge:,1
addresses,1
succeeds,1
hindrance,1
sound,2
obliged,1
harbor,1
gromyko,2
sales,1
translate,1
impetus,1
healing,1
indignation,1
barrier,1
pavilion,1
fertilized,1
create,2
welcoming,1
greeley,2
comforts,1
tariffs,1
sens,1
proud,1
curious,1
depended,1
judged,1
sent,1
addressed,2
purposes,2
techniques,1
reaffirm,1
send,2
expenses,1
here,6
concrete,1
fitful,1
necessities,1
regret,1
purpose,2
challenges,1
rejected,1
scale,3
engaging,1
security,7
challenged,1
surmount,1
organize,1
observations,1
station,1
paternalism,1
challenger,1
citizens:we,1
earning,2
costs,2
factory,1
stating,1
sputnik,1
implementation,1
confidently,1
smoke,1
follow,1
revenues,2
intent,1
fertilizer,1
factors,1
services:,1
ascendancy,1
loophole,1
subversion,1
treaty,1
skies,1
ounce,1
intend,2
german,1
almanac,1
numerous,1
recognized,3
undergoing,1
without,3
youth,1
introduced,1
sovereignty,1
persistent,2
assassins,2
authorize,1
mormons,2
thus,1
possess,1
volunteers,2
devise,1
evacuate,1
recognizes,1
educators,1
explorations,2
much,4
glenn,1
entitled,1
appomattox,1
sights,1
rejecting,1
omits,1
anybody,1
misery,1
booster,1
weekly,1
mastery,1
hearsay,2
indulgent,1
currents,1
miscalculation,1
guantanamo,1
dwindling,1
lights,1
resolved,1
committed,2
committee,7
hardships,1
capitals,1
defends,1
union,1
faculties,1
subtle,2
returned,1
yours,2
god,1
adopted,1
standard,1
reports,1
correct,1
reader,1
sworn,1
got,1
imitate,1
dominate,1
institution,1
ambition,1
aspirations,2
enlarge,1
avert,1
contributed,1
area,1
revered,1
murder,1
tracing,1
shipment,1
european,1
aviator,1
internationally,1
clearer,1
governmental,4
lack,3
neglected,1
success,1
ingenuity,1
authority,1
aren,1
remarked,1
misjudge,1
cleared,2
wendell,1
unnaturally,1
young,3
regional,1
taxpayers,1
obsolete,1
eloquence,1
inexhaustible,1
marginal,1
gavin,1
standardized,1
bruce,1
sustaining,1
illumination,1
mobile,1
evolution,1
negotiations,3
exhilaration,1
armistice,1
debating,1
neglects,1
injustice,1
foreigners,1
offense,2
indifference,1
considered,1
averaging,1
inception,1
channel,1
focus,1
delivered,1
favorable,2
entire,1
changing,1
approach,2
exaggeration,2
overshadow,1
usher,2
tetanus,1
wholeheartedly,1
decisive,1
635,1
write,1
wage,2
rudolf,1
neglecting,1
musical,1
loyalty,1
corporation,1
unconventional,2
understand,3
dismiss,2
intelligence,1
vigorously,1
unhappy,1
winner,1
million,4
arrogance,1
install,1
strongly,1
analyze,1
shadows,1
legacies,1
appearing,4
despair,1
bull,1
communique,1
champion,1
larger,1
gun,1
hundred,5
wait,1
vitally,2
queen,4
guerrilla,1
kommen,1
magnificent,1
restrict,1
starkly,1
instant,1
prematurely,1
650,1
native,1
remembers,1
costly,1
accordingly,1
laid,1
particularly,2
dominant,1
heading,1
discussed,1
redoubled,1
opportunities,1
pacific,1
inconsistent,1
writ,1
framework,2
names,1
armaments,1
tide,2
tonight,1
possibilities,1
franchise,1
predecessors,1
measuring,1
threefold,1
almost,2
equally,1
andthird,3
sustained,2
harmful,1
associate,1
stricken,1
wake,1
earlier,1
rejoin,1
charity,1
whether,1
loomed,1
beneath,1
ritual,1
87th,1
nehru,1
sway,1
basis,1
affected,1
resolute,2
army,5
arms,7
october,1
governor,1
virginia,1
basic,1
lake,1
misunderstood:,1
unite,2
replied,1
policies,3
combat,2
units,1
restoring,1
it’s,1
adjudication,1
gavan,1
unity,1
sacrificed,1
pursue,1
twentieth,1
ties,2
catastrophe,1
deterrents,1
extra,1
convey,1
busy,1
worsening,1
land,2
belgrade,1
contaminate,1
torpor,1
sacrifices,1
imposing,1
tied,2
countryside,1
custodial,1
performing,1
farsighted,1
automatic,2
foremost,1
envisioning,1
livelihood,1
conduct,1
bury,1
costs:,1
objectives,1
wall,2
walk,1
extending,2
quietly,2
marred,1
refusing,1
witnessing,1
fulton,1
decay,2
discussion,1
unleashed,1
crowds,2
lessen,1
lesser,1
rendezvous,2
sufferance,2
arrangements,1
welcome,2
events,3
drift,1
reappraisal,1
discussing,1
recounting,1
mankind,1
chaos,1
want,5
unnecessarily,1
laos,1
gunpowder,2
devaluing,1
induce,1
deserts,1
kennedy,1
wane,1
difference,1
must,1
thinly,1
circle,1
resign,1
populations,1
reasons:,1
beclouded,1
sophisticated,1
was:,1
crops,1
hitting,1
archaic,1
accident,1
colors,1
incompatible,1
found,2
defense,1
seeding,1
currency,1
canal,1
arts,1
limits,2
ideals,1
cruelty,1
christ,1
disarmament,19
fanatics,1
war:,1
intimate,3
politicians,1
entirely,1
entrust,2
religion,1
narcotics,1
tragedy,1
contrived,1
chart,1
till,1
attend,3
nationals,1
goods,2
voting,1
had,6
accounting,1
secure,1
guided,2
drumfire,1
instructors,1
budgetary,1
guides,1
late,1
school,2
preserved,1
brutally,1
proclaimed,1
things,2
basically,1
immense,1
has,2
abounds,1
hay,1
unlock,1
last,1
definite,1
deficits,8
adapt,1
lass,1
spruance,2
weight,1
preserves,1
shoved,1
warn,1
warm,1
measure,2
checks,1
outskirts,1
wars,1
cosmonauts,1
basement,1
evacuated,1
policing,1
exports,3
impossible,2
effort,2
jewish,1
submarines,1
exercising,1
wave,1
untenable,1
hartley,1
yesterday,1
weapon,1
disdains,1
courageous,1
stronger,1
ends,1
denying,1
steady,1
vote,1
early,1
disease,1
yes,1
yet,2
lowering,1
technician,1
reserving,1
engineer,1
quieted,1
gentlemen:this,1
insurgents,1
alike,1
wages,1
faring,1
clarity,1
law),1
time,9
bulwarks,1
happy,1
electoral,1
governments,4
multi,1
her,1
universities,2
authorized,1
panicked,1
befoul,1
gleason,1
hew,1
dinosaur,2
way:,1
slaves,1
aggravating,1
tion,1
laws,3
stationed,1
having,2
russian,1
lesson,1
supreme,1
philosophy,1
kansas,1
customarily,1
worship,1
adams,1
stubborn,1
doubled,1
emphasizes,1
merits,2
confirmed,1
smart,1
alien,1
vowed,2
tomatoes,2
ways,1
emphasized,1
floodravaged,1
deficient,1
editor,2
vows,1
minuteman,1
efficient,1
(labor,1
consistent,1
reverse,1
sword,1
earnings,1
subsidies,1
waging,1
governed,3
small,1
gallant,2
before,2
again:,1
aviation,5
him,1
temptations,1
pushkin,1
hit,1
his,2
staff:,1
emphasis,1
beat,1
bear,1
grandfather,1
potential,1
touchstones,2
bean,1
repeatedly,1
resist,1
history,6
stimulate,1
careless,1
square,1
twice,1
camps,1
interference,1
subverting,1
fibre,1
belonged,1
distortion,1
“normalcy”,1
colony,1
wagon,1
values,1
reveals,1
initialed,2
leninism,1
point,1
diverted,1
attachment,1
agitators,1
portuguese,3
hospital,1
dimension,1
wildlife,1
deserve,1
restore,1
alternative,3
crowded,1
banner,1
debts,3
crockett,1
mean,1
approve,1
chafe,1
asunder,1
meat,2
nominated,1
suggestions,1
determining,1
disarmed,1
burgesses,1
been,7
radioactive,1
advance,3
tenable,1
appreciate,1
mothers,1
barre,1
dental,1
foregoing,1
diverse,1
strict,1
reflects,1
you,8
safely,1
limitations,2
preference,1
delighted,3
opportunity,1
active,3
court,10
lacked,1
distort,1
misuse,1
endeavor:,1
deals,1
dealt,2
councils,1
firms,2
beds,1
call:,1
organ,1
obstruction,1
cited,1
hot,1
unsafe,1
abuses,1
unmatched,2
“the,1
thereto,1
how,4
assembly,6
neutrals,1
endeavors,1
subjects,1
scranton,1
overcoming,1
dragged,1
assemble,1
march,1
inaugural,1
blast,1
cargoes,1
advantages,1
meet,10
answer,3
regarded,1
calls,1
timidity,1
700,1
restored,1
volcanic,1
abused,1
passions,1
spokesmen,1
publications,1
putting,1
sometimes,1
questions,1
promise,1
enjoying,1
ignores,1
blockade,1
reply,1
vanish,1
richard,3
undernourished,1
ignored,1
enactment,1
antiaircraft,1
count,1
amherst,2
vision,1
blame,1
uncompetitive,1
confusion,2
personalities,1
thoreau,1
carrying,1
beginning,1
waiting,1
averages,1
malaysia,1
question:,1
insurgency,1
deceived,1
exposed,1
unfinished,1
“every,1
outward,3
bloody,1
notice,3
grants,1
asia,4
mercenaries,1
killed,1
scrutinized,1
although,1
approximately,1
encouragement,1
spectacular,1
diplomat,1
decades,1
patriots,1
president,1
fortunes,1
envy,1
reaches,1
dropped,2
quaker,1
unjustified,1
tracking,1
america,6
”for,1
action,1
guidelines,1
undefensible,1
fired,1
“be,1
unafraid,1
undercut,1
sensitive,2
bell,1
altered,1
accompanied,1
afford,2
fires,2
explored,1
reached,1
asks,1
maligned,1
explorer,1
impression,1
acting,3
shield,1
suburbs,1
deliver,1
headed,1
damocles,1
products,1
eight,10
intelligencein,1
outlaws,1
pained,1
sensibility,1
disapprove,1
incumbency,1
nigeria,1
could,1
strike,1
5th,1
torch,1
defining,1
segregate,1
88th,1
withhold,1
trusted,1
able,1
stuart,1
forged,1
concerned,1
conscience,1
engulf,1
inheritance,1
british,1
cough,1
radio,1
outlays,1
solution,1
opponent,1
urbanized,1
accelerate,1
supplementary,1
international,6
regardless,1
calculated,1
designating,1
flagrant,1
upward,1
citizen,2
cities,1
accepts,1
sooner,1
relaxing,1
dimly,1
difficult,2
winston,1
steps,3
friends,1
corporations,2
forget,1
eroded,1
professor,1
strengths,1
principles,3
testifying,2
present,1
harvard,2
curtain,2
softly,1
problems,2
strife,1
belong,1
borders,1
surveys,1
soundest,1
best,1
movements,1
invulnerable,1
transform,1
attracting,1
advise,1
rooted,1
magnitude,2
genuine,1
excitements,1
probing,1
certainly,1
spokesman,1
copartners,1
impressive,2
pretended,2
outflows,1
shocked,1
master,1
negro,1
concerning,1
epidemics,1
attraction,1
regulation,1
conventional,1
mere,1
accommodation,1
bailistic,1
opinions,1
strength:,1
profess,1
outpaced,1
techo,1
quotes,1
cover,1
quoted,1
reflect,1
competitors,1
convulsive,1
defenders,2
massacre,1
statesmanship,1
adventures,1
based,1
basel,1
unaligned,1
trip:,2
something,1
intention,1
miners,1
pointed,1
thereby,1
understandable,1
shower,1
religious,1
nevertheless,1
saturday,1
fact,3
contradicts,1
grandparents,1
ironic,1
escuela,1
fundamental,1
unmindful,1
reshaping,1
deliberation,1
bases,3
pieces,1
upheld,1
temperature,1
free,2
equality,4
dictation,1
bothers,1
weary,2
airplanes,1
actually,1
evolve,1
face,2
congratulation,1
oldest,1
afraid,1
showed,2
cessation,1
stagnation,1
household,1
reactions,1
invite,1
coordinated,1
ratio,1
calculation,1
refugees,2
acheson,1
instinct,1
unfairness,1
knifed,1
independence,2
meza,1
honors,2
coordination,3
melancholy,1
ich,2
presentation,2
symbolizing,2
afforded,1
whenever,1
inextricably,1
arabella,1
commands,1
colonialism,5
cheaply,2
impatient,1
keeper,1
arnold,2
please,1
replacing,2
finding,1
anemic,1
plumbing,1
elected,1
enlarging,1
protestants,2
laboratory,1
scriptures,1
judging,1
vital,3
expires,1
czar,1
rule,2
detect,2
condemn,1
prelate,1
fundamentally,1
resentment,1
damaging,1
gulf,1
coordinating,1
illusory,1
characteristics,1
decreed,1
propaganda,1
inferior,1
refuge,1
dramatic,1
certainty,1
commend,1
spine,1
indeed,1
100th,2
conditioned,1
removal,1
comment,1
railroads,1
convoked,1
war:take,1
guns,1
unsparing,1
confronting,1
discussions,1
binding,1
youth:,1
fair,1
stepping,1
preparation,1
safety,2
enable,1
untried,1
liabilities,4
slavery,1
racketeering,2
profession,1
competing,1
arise,1
besieged,1
drummond,1
cynics,2
doors,1
fail,1
scriptural,1
repaid,1
spectrum,1
valve,1
federally,1
nineties,1
steel,2
adoula,1
steep,1
seize,1
church,2
triumphs,1
isolated,2
undramatic,1
iii,1
privilege,2
admirals,1
pictures,1
foreign,6
175th,1
fall,1
unsympathetic,1
1630,1
meager,1
decisively,1
steer,1
boldly,1
overshadowed,1
disruptions,1
reorienting,1
contrivance,1
siege,1
appropri,1
appearance,1
liquid,1
culture,1
wings,1
gaulle,1
fisherman,1
runs,1
first,5
perfect,1
combating,1
fewer,2
clearly,2
poll,1
nonaligned,1
pole,2
exhausting,1
descending,1
preferable,1
conspiracy,1
spite,1
theater,1
from,4
day!though,1
segregation,2
stressing,1
ill,1
inaccurately,1
finished,2
rejection,1
fortress,1
focal,1
[and,1
speaker,1
remitted,2
determinations,1
fame,1
replacement,1
adopted:,1
repair,1
bribery,1
death,2
advice,1
according,1
denounced,1
factories,1
error,1
despotism,1
seemingly,1
operations,1
atmospheric,1
paper,1
winds,2
colored,2
value,1
concealed,1
mcgee,2
enforced,1
centennial,1
fortune,1
quantity,1
staged,1
rusk,1
worthless,1
churchill,1
stages,2
growth,5
unwanted,1
bolshevik,1
pope,1
keenly,2
objects,2
texas,3
elephant!but,1
resolution,1
properly,1
graduate,2
poor,2
unsatisfactory,1
farm,3
gratified,1
invented,1
grief,1
insurrections,2
enduring,1
virtually,1
fairly,1
pool,1
himself”,1
moratorium,1
adapted,1
persons,2
recalling,1
charges,1
advancement,1
800,1
cigarettes,1
charged,1
shortly,1
firmly,1
rhetorical,1
providing,1
weeks,1
fate,1
hasten,1
insistence,1
maneuver,1
founding,1
is:,6
richard’s,1
retire,1
aggressive,1
close,1
supporters,1
linked,1
chemistry,1
winners,1
unleash,1
multiracial,1
disdain,1
fast,1
turbulent,1
invasion,4
trials,1
precedent,2
citizens,1
edifice,1
persuasive,1
nine,2
unborn,1
controls,4
communicate,1
fledged,2
asserting,1
astronauts,1
isn,1
bill:,1
rural,1
agricultural,1
post,1
repeating,1
concluding,2
dispensable,1
educational,2
discouragement,1
pose,1
erupt,1
its,2
constructive,1
remedy,2
seventeenth,1
distorted,1
article,1
respect,1
retreat,4
holmes,1
port,1
shell,1
plymouth,1
adjustment,1
hesitate,1
income,1
joining,1
united,6
production,4
searching,1
choose,1
peaceful,1
miles,1
overnight,1
undo,1
payola,1
previously,1
unites,1
grandeur,2
mixture,1
industrially,1
strikes,1
democratic,1
bills,3
surveillance,3
enacts,1
potentials,1
reigning,1
identify,4
cigars,1
citizenship,1
pour,1
honorary,1
improvement,1
steadfast,1
marines,1
mariner,1
pledge,1
enjoyed,1
following:,1
segregated,2
college,1
russians,2
shah,1
mobilized,1
number,3
875,1
slack,2
property,2
centers,1
debris,1
deactivation,1
shorter,1
nothing,2
testing,1
distributed,1
isolation,4
handle,1
degradations,1
urged,1
885,1
reaffirmed,1
catholic,14
silver,1
blessing,1
desalinization,1
fathers,1
generously,1
outgrowing,1
city,2
confident,1
exclusion,1
slowdown,1
local,2
courage,3
commonwealth:,1
yield,1
rehired,1
promptly,1
assertion,1
decisions,1
ordinance,1
mortgaged,1
incidentally,1
drained,1
rests,1
filled,1
curriculum,1
satisfaction,1
heartening,1
[and],1
powerful,1
removed,1
”as,1
involvements,1
cite,2
unsoundness,1
objected,1
marxist,1
atom,1
shed,1
shortsighted,1
precision,1
shek,6
points,2
hoover,1
mister,1
reap,1
acrimony,1
engels,1
maintained,1
border,1
read,1
constructing,1
ghettoes,1
real,4
admission,1
clock,1
prompted,1
englishmen,1
communists,1
unit,1
mobilize,1
disarmamenti,1
monthly,1
coupled,1
gear,1
badly,1
shattered,1
facilitate,1
point:,1
telegraph,1
diminished,1
flagged,1
today,5
construction,2
predict,1
saying,1
diminishes,1
universal,2
fifteen,2
deliberately,1
twenties,1
looked,1
mills,1
warnings,1
skepticism,1
irresistible,1
wrongs,1
reck,1
minute,1
transcendent,1
application,1
milestone,1
productive,1
irresistibly,1
heartwarming,4
urge:,1
(should,1
puppets,1
reason,2
comforting,1
plimpton,1
ship,2
acts,1
triomphe,2
subcontinent,1
revolutions,1
demonstrations,3
jam,1
annual,1
initiatives,1
graduates:i,1
whitney,1
reef,1
reorganizing,1
using,1
reconciled,1
deeds,2
containing,1
reed,1
noting,1
completed,1
demand,4
letter,1
alternatives,1
longin,1
imitating,1
annually,1
mobility,1
housing,1
frequently,1
forthright,1
poisons,1
predecessor,1
aristocracy,3
espouse,1
acquire,1
visionary,1
worth,2
tactic,1
fertile,1
taken,3
dividend,2
tarnished,1
monroney,1
takes,1
airpower,1
popular,1
unchanging,1
broken,1
cleanses,1
detection,1
outweigh,1
deteriorated,1
intolerance,1
lacking,1
fitted,1
escalation,1
armed,1
lines:first,1
oliver,1
dilemma,2
disagreements,1
centered,1
lifetime,1
occasional,1
individuals,1
repeated,1
treacherous,1
challenging,3
debate,3
aeronautics,1
either,1
vulnerable,1
unrestricted,4
preach,1
jet,1
helpful,1
recurrent,1
jew,1
those,7
estimates,1
“all,1
courses,1
flaming,1
quotations,2
refraining,1
lifted,1
telephone,1
significant,1
worse,1
arbitration,1
prosecuted,1
difficulty,1
timidities,1
longer,1
watched,2
everywhere,1
senate,2
colleagues,1
gladly,1
parties,2
selling,1
worst,2
budapest,1
leaving,1
distance,1
prospects,1
attract,1
show,1
renounce,1
recession,4
shot,1
vigilance,1
crowding,1
street,1
mantle,1
seamen,1
winthrop,1
elizabeth,2
unto,1
inaction,1
learned,1
resolving,1
substance,1
estimated,1
clarification,2
suddenly,1
receipts,1
compensated,1
discomfort,1
guidance,1
nervous,1
stranger,1
doomed,1
delicate,2
rebel,1
poured,1
prospectively,1
jim,1
mobilizing,1
largely,1
frost,12
firebrands!,1
severely,1
rend,1
lifestruggle,1
crises,1
waits,1
eighteen,1
chester,1
investigative,1
unification,2
unequivocal,1
rely,1
bounds,1
style,1
southeastern,1
jimmy,1
purely,1
guard,4
harry,1
settle,1
harsh,1
unilateral,1
babies,1
splintered,1
vehicle,1
parched,1
pressing,1
freedom,1
cushion,1
soaring,1
$100,1
stress,1
consolation,1
appreciable,1
nomination,2
tibet,1
mexico,1
persists,1
accelerators,1
allowances,1
dairy,1
persevere,1
unremittingly,1
shut,1
ivied,1
bonds,1
minded,1
influence,3
1776,1
georgia,3
responsibilities,5
luce,1
shun,1
totally,1
dissipation,1
ridden,1
england,1
violin,1
marshall,1
marketplace,1
crisis,1
temporarily,1
minuet,1
glamour,1
important,7
persuasion,2
glimpse,1
resin,1
phrase,1
nominating,1
bones,2
daily,2
job,3
daughter,2
marshals,3
castro,17
largest,1
joi,1
awaken,1
captain,1
rotting,1
administrator,2
adjective,1
billion,4
gibraltar:god,1
miracle,1
sheet,1
battalions,1
subvert,2
rest,3
administrations,1
original,1
gifford,1
kingdom,1
resenting,1
gets,1
pestilence,1
differ,1
90%,1
afternoon,2
900,1
interruption,1
front,1
flights,4
customer,1
plane,1
equivalent,1
momentary,1
projects,1
wedge,1
supremely,1
plague,1
kashmir,1
offer,1
diplomatic,2
campaigns,1
complex,1
missiles,1
gaining,1
afterwards,1
adequately,2
accurately,1
misreadings,1
plans,1
unimaginable,1
920,1
plant,1
drive,1
jones,1
traits,1
homeland,1
readiness,2
intractable,1
sixth,1
servant,3
discouraging,1
offered,1
$182,1
civil,2
underway,1
national,4
subsequent,1
audiences,1
indicate,1
customers,1
civis,1
intangling,1
(2),1
sixty,5
contain,1
founder,1
jobs,1
words,1
founded,1
benefited,1
medicine,1
entered,1
dispels,1
applicant,1
instructed,1
difficulties,1
gifted,1
piling,1
beamed,1
somewhat,1
validity,1
(3),1
precede,1
developed,1
needless,2
disillusion,1
spiraling,2
shouts,2
contact,1
excuses,1
(4),1
disadvantage,1
manmade,1
inadequately,1
dishonest,1
defenses,1
searched,1
anxiety,1
exploited,1
adjust,1
immunization,1
parts,1
western,2
vigorous,2
helps,1
(5),1
party,1
duties,1
however,2
visiting,1
trained,1
sources,1
parity,1
compel,1
boisterous,1
salute,1
signs,1
related,1
candid,1
captured,1
(6),1
views,7
directed,1
assurances,2
historic,2
roosevelt,1
false,2
coercion,2
tyrant,1
wreath,2
dinner,1
disobey,1
farmer,6
prompt,1
peasant,1
fulfill,1
sick,2
counsels,1
candor,1
output,1
fatigue,1
corner,2
bailey,1
methodist,1
majority,1
join,1
unpronounceable,1
faithfully,1
ricans,1
director,1
vain,1
harmonious,1
wilkes,1
attracted,1
john,1
narrowed,1
impulses,1
rearm,1
recommending,1
judgement,1
reporters,1
brought,1
works,1
proportion,1
alive,1
payments,1
pursuit,4
installations,1
german!there,1
emerged,1
ruthless,1
thinking,1
cycle,1
nonnuclear,1
steamboats,1
world,2
composed,1
prejudice,1
embarked,1
gripped,1
urgent,1
everything,3
fanatic,1
bundle,1
italy,1
side,2
bread,1
counseling,1
break,1
composer,1
restaurant,2
willingness,3
indirectly,1
deceit,1
dictatorship,2
comfort,1
bacon,1
hide,1
century,3
lemnitzer,1
traditionally,1
denunciations,1
candle,1
report,1
emerges,1
proposals:,1
powers,1
pessimism,2
sponsoring,1
sign,2
cotton,1
diffuse,1
levies,1
turneth,1
high,1
falls,1
split,1
sailed,1
publication,1
adequacy,1
onrush,1
expressed,1
different,2
directly,3
administered,2
awaits,1
officially,2
misstates,1
peripheral,1
level,1
disruption,1
adjusted,1
restrictions,1
modernized,1
preserve,2
roots,1
lever,2
establish,1
deter,4
arrests,1
belongs,1
bismarck,1
oregon,1
jeopardize,3
errors,2
parents,1
birthday,1
pursuer,1
scores,1
purposeful,1
setbacks,1
decent,1
bundy,1
preservation,2
tirania,1
enjoys,1
total,1
kai,6
pursued,1
tiros,1
speedier,1
consumers,1
roosa,1
revisions,1
benson,3
pursueth,1
countrymen,1
loser,1
ills,1
viable,1
savage,1
consumer,1
informs,1
cripple,1
sentry,1
initiative,1
plays,1
social,15
interesting,1
cross,2
raised,2
relying,1
control,5
unobligated,1
demanding,1
matsu,2
declined,1
lobby,1
acknowledge,1
scored,1
earth,3
overthrow,2
inflict,2
backs,1
specialty,1
threatening,2
precept,1
episode,2
decency,1
behalf,1
objective,1
scene,1
injure,1
deterred,1
exert,1
gentlemen:we,1
lighten,1
raises,1
affirming,1
strengthen,1
hemispheres,1
accomplishments,1
conant,1
rayburn,1
injury,2
vienna,1
publishing,1
appreciates,1
inadequate,1
karl,1
assemblies,1
remaining,1
accept,2
badge,1
yearning,1
foes:,1
appreciated,2
stopping,1
inflicts,1
surrendered,1
access,2
nations:,1
norstad,1
harsher,1
referring,1
nationalists,1
artists,2
presuppositions,1
engulfed,1
conferences,2
key,1
situations,1
silent,1
stopped,1
laying,1
americans:,1
jose,1
loads,1
launch,1
silo,1
hill,1
cloak,1
expeditious,1
tightly,1
appoint,1
boasts,1
vast,1
fourth,1
1804,2
intervene,1
declare,1
dislike,1
guiding,1
available,1
receded,1
confine,1
quest,2
1811,1
sealift,1
fallout,1
pugnacity,1
dynamic,1
unusual,1
sector,1
extreme,3
recedes,1
sino,1
clergyman,1
degree,2
banning,1
divisional,1
discord,1
especially,1
once,1
dismay,1
headlines,1
headlined,1
demonstrate,1
fanfare,1
speeding,1
hire,1
figures,1
records,1
pending,1
monument,1
inventory,2
infantry,1
vivid,1
initiation,1
1830,1
throughout,1
conflicts,3
unanswerable,1
virtue,2
coverage,1
types,2
allocation,1
corrupt,2
transmit,1
commemorate,1
extermination,1
technology,3
sir:,1
apathy,1
litigation,1
ones,2
initiating,1
hammarskjold,3
specially,1
gentleman,1
compromise,1
realists,1
$207,1
reach,1
backed,1
comparative,1
broadened,1
react,1
1851,1
1850,1
justify,1
rulers,1
sight,1
entrench,1
teeth,1
slippage,1
between,1
$200,1
lending,1
banker,1
deprived,1
lyautey,1
intact,1
families:i,1
1861,2
expenditures,1
seventeen,1
1860,2
following,1
juvenile,1
drivers,2
managerial,1
complacency,1
wear,1
unsuccessful,1
16th,1
overseas,1
weak,4
again!i,1
undeterred,1
distressed,1
announcing,1
seeing,1
lean,1
blocked,1
place,3
regular,2
objection,1
1878,2
informed,1
sits,1
firmer,2
dispute,2
sitters,1
observation,1
bigger,2
tired,1
hesitancy,1
aggression,2
speeded,1
lead,1
inhabitant,1
fraction,1
expect,3
sunlight,1
tangled,2
site,1
assess,1
parochial,1
gentlemen,1
miracles,1
goldberg,3
passage,1
resembles,1
adequate,1
bombs,1
leaders,2
measures:first,1
vaguest,1
eased,1
parks,1
routes,1
assets,1
preconceptions,1
divert,1
describing,1
sacked,1
only,2
should,3
justice,1
officers,1
individual,1
loans,1
accepted,3
comparing,1
excitement,1
regards,2
continents,1
testimony,1
person,1
$250,1
retaliation,2
webb,1
arsenal,1
supposedly,1
week,1
concerting,1
paris,8
ready,2
bankruptcies,1
studies,1
wealthiest,1
acknowledges,1
greatest,2
orientation,1
manufacturers,1
limited,2
studied,1
match,1
hemispheric,2
fearful,2
played,1
corresponding,1
granite,1
proxmire,1
informal,1
schooling,1
prepare,1
explosive,1
minerals,2
spoke,1
fifty,4
unhampered,1
discourage,1
character:,1
stalemate,3
shrugged,1
asserts,1
approved,1
–,2
would,5
customs,1
endorses,1
warrant,1
”,2
incomes,1
successfully,2
solid,1
meanwhile,1
notably,1
symington,2
reserves,1
than:,1
yourselves,1
endorsed,2
cooperative,2
diplomacy,2
size,1
applies,1
left,1
resumption,1
eleven,1
statute,1
object,1
statistical,1
troika,1
infinite,1
suffice,1
slowing,1
notable,1
unparalleled,1
southerners,1
balanced,4
elect,1
example,1
minds,2
rebuilt,1
corners,1
balances,1
things:,1
feeding,1
stirring,1
quiet,1
multiplication,1
policy,12
rebuild,1
provocative,2
address,1
benches,1
beliefs,1
consisting,1
heightened,2
destroyed,1
police,1
throw,1
stature,1
fifth,1
thank,1
quarantine,3
accumulated,1
violent,1
wheels,1
unreasonably,1
confront,1
ginning,1
provocation,1
illiterate,1
speakers,1
scholarship,1
unrivaled,2
festers,1
implement,2
reservists,1
export,1
others,1
justifiable,1
misdeeds,1
making,2
sectors,1
beset,1
check,1
mines,1
beacon,1
survivors,2
supposed,1
entangling,1
translating,1
benito,1
reorient,1
applied,1
indispensable,1
unfulfilled,1
society,1
expanded,1
flows,1
other:,1
laureates,1
reinforcement,1
lend,1
worsen,1
pilot,1
ticket,1
approval,3
blocks,1
byrd,1
inequities,1
realized,2
concentrate,1
versus,1
weld,1
explosion,1
well,3
realizes,1
personnel,1
handling,1
outlook,1
ambitions,1
affirmatively,1
irrelevant,3
extinguished,1
observance,1
allegation,1
that],1
gains,1
rainy,1
myth,6
experiment,1
loved,1
inventories,1
implication,1
fierce,1
reservation,1
endangering,1
cordial,2
cooperation,5
poorer,1
enlisting,1
went,1
considering,1
inter,2
distant,1
turbulence,1
philosophers,1
bringing,1
schools,1
41/2,1
orders,5
razor,1
southeast,1
penicillin,1
successor,1
enlightenment,1
respectively,1
matter,1
alerting,1
walls,1
acquiring,1
philosopher:,1
noise,1
neutrality,1
discourages,1
succession,1
product,1
reminder,4
contented,1
occupational,1
automobiles,2
affidavits,2
lover,1
premier,1
ballistic,1
cheap,1
produce,1
hates,1
nautical,1
reminded,1
underrate,1
adorein,1
undoubtedly,1
industries,1
unreasonable,1
tormented,1
scientifically,1
inevitability,2
communities,1
infiltrate,1
neutralism,1
capital,1
traveler,1
minor,1
hostile,4
fuel,1
pleas,1
arrows,1
fellowman,1
irreversible,1
celestial,1
translated,2
upon,2
expeditions,1
prepayment,1
pray,1
employed,1
bulwark,1
identical,1
lag,1
helicopters,1
ambitious,1
function,2
west,4
delinquency,1
raise,1
quite,1
employer,1
traffic,1
frontiers,1
law,13
comparison,1
lay,1
hatch,1
differs,1
less,1
institutions,1
adventure,1
conflicting,1
condition,1
inventions,1
were,2
improve,2
ceremony,1
wholehearted,1
shining,1
abdicate,1
taxation,1
neutralist,1
hastily,1
university,8
troop,1
teaches,1
teacher,2
aflcio,1
similarly,1
differn,1
lamar,1
repressed,1
generous,1
floor,3
possibility,1
economists,1
secretary:i,1
solon,1
realizing,1
distinguished,1
opening,1
doctor,1
industrial,1
deployments,1
lengths,1
spoken,1
traveled,2
equilibrium,1
maintenance,1
contemporaries,1
prey,1
elation,2
lieutenant,1
expedition,1
led,1
diplomats,1
supply,4
lee,2
rivalries,1
unfailing,1
expediencies,1
mountain,1
integrity,2
breakthroughs,1
pact,1
courthouse,1
destroys,1
let,1
adviser,1
press,1
philippines,1
cargo,1
subordinates,1
cares,1
hammarskiold,1
night,1
pace,2
carey,1
breathtaking,1
havens,1
vulnerability,1
courtesy,1
each,3
patchwork,1
labels,4
untapped,1
rendered,2
pescadores,4
items,1
1901,1
thirty,1
bankers,2
document,1
killing,1
dollars,9
strains,2
proving,2
descendants,1
clay,1
promote,1
does,5
punishments,1
1918,2
rewritten,1
divorce,1
(as,1
1915,1
1914,1
situation,2
bradford,1
legislation,2
clause,1
fraught,1
thirst,1
refused,1
consolidate,1
withdrawal,2
ignited,1
jungles,1
producers,2
1920,1
outweighed,1
admitting,1
collapses,1
1929,1
1928,1
imperialist,1
economical,2
1926,1
polish,1
1924,1
imperialism,1
optical,1
demanded,1
fashion,1
(by,1
insurance,5
surely,1
medical,7
principle,1
deterrent,1
nixon,11
importantly,1
surmounted,1
statecraft,1
lie,1
source,1
griswold:,1
1932,1
unable,2
1931,1
1930,1
lip,1
irrigation,1
uncontrolled,1
separation,2
vitality,1
bias,1
homes,1
weakened,1
1938,1
1936,1
1935,1
acquired,1
1933,1
appeasement,1
historians,1
tension,1
preys,1
involves,1
judgments,1
labeled,1
doubt,1
merit,1
develop,2
nurses,1
harassment,1
potsdam,1
tamed,1
supplements,1
soviets,1
1940,1
involved,1
dominated,1
mockery,1
converted,1
district,1
overall,3
fixed,1
1949,1
1948,1
page,2
1947,1
1946,2
1945,1
full,1
destiny,1
away,2
cards,1
motivation,2
aspects,1
millennium,1
specter,1
1954,1
grocer,1
dogmatism,1
1952,1
puerto,1
1951,1
cared,1
1950,1
bict,1
1959,1
painful,1
1958,1
1957,2
$300,1
1956,1
1955,2
enhance,1
convention,3
pain,1
harvest,1
appropriately,1
suspicion,1
center,1
enlarged,1
advised,2
manage,1
equal,4
1965,1
1964,1
1963,2
1962,1
separating,1
1961,1
1960,2
fund,1
gravity,1
paid,2
intermittently,1
conducts,1
lindbergh,1
tampa,1
three,2
17th,1
eagles,1
ordeal,1
complacent,2
1975,1
remembered,1
sweden,1
1970,1
season,1
unlawfully,1
controversial,1
lonely,1
pale,1
roads,2
planet:,1
preventive,1
mythology,2
pennsylvania,1
judicial,2
provide,1
myself),1
consultation,1
primary,1
log,1
ideologies,1
enterprise,1
solar,1
teaching,1
abating,1
formation,1
nation!should,1
phased,1
accidental,1
lot,1
panama,1
wholesale,1
aided,1
planets,2
low,1
angels,2
solidarity,2
indulging,1
merely,1
phases,1
contradiction,1
wealth,1
meant,1
means,2
funding,1
initial,1
incisive,1
impracticable,1
disturbs,1
salutes,1
eternal,1
redress,1
fellow,1
abandoning,1
advancing,1
disclosures,1
meany,2
interests,2
door,1
quick,2
alliance,1
omniscient,1
improper,1
recognizing,2
experience,3
launched,1
unessential,1
commander,1
wasteful,1
delinquents,1
disappeared,1
affair,1
combination,1
obtain,1
lousiest,1
fixing,1
adept,1
minutes,1
sacrifice,1
particular,1
tactical,1
done,1
illegal,2
pause,3
economies,1
congratulate,1
perceived,1
overriding,1
ample,1
residents,1
ease,2
certitude,1
relied,3
mathematics,1
regents,1
part,1
conversations,1
penetrate,1
fillmore,1
principal,1
need:first,1
east,2
relies,2
para,1
surest,1
relief,4
manpower,1
amply,1
boycott,1
villages,1
flagship,1
persuaded,1
seeking,2
tides,1
capitol,1
economics,2
ears,1
unbalance,1
calvin,1
someone,1
misjudgment,2
earn,1
terrors,1
earl,1
interfere,1
fitting,1
(of,1
coherence,1
smiles,1
reductions,1
evolved,1
mutually,1
compassion,1
conceivably,1
conducting,1
path,1
assemblyman,1
record,3
chicago,1
ter]however,1
prevention,1
accepting,2
provinces,1
preventing,1
pass,4
past,3
mile,1
nineteen,3
milk,1
bill,13
whose,4
easy,2
mill,1
senior,1
domain,1
omitted,1
oceans,1
assigned,1
adult,2
pluralistic,1
relative,1
indo,1
highlevel,1
profoundly,1
thrived,1
bequeath,1
accelerating,1
existed,1
philadelphia,1
mine,1
mind,1
grateful,1
passkey,1
emergence,1
apartheid,1
operational,1
involve,1
unwillingness,1
duplications,1
reuter,1
unilaterally,1
tierra,1
showcase,1
paul,1
phrases,3
platitudes,1
richest,1
london,8
added,2
stocking,1
collaborations,1
meshed,1
emergency,1
recommendations,1
down,1
launching,1
shifting,1
faculty,1
incumbent,1
habit,1
brings,1
adding,1
bracket,2
legal,2
club,1
boundaries,1
disintegration,1
(to,1
espionage,1
reviving,1
agreements,2
varied,1
regarding,1
irritations,1
armor,1
month,2
occasions,1
solvent,1
acres,2
trustees,1
hampshire,1
squeeze,1
individualism,1
rather,1
requesting,4
flowered,2
importance,1
pacts,1
worthy,1
endless,1
title,1
heartland,1
miss,1
incentives,1
hemisphere,2
nuclear,2
human,1
continuation,2
dwight,1
prince,1
poetry,5
kuwait,1
arrogant,1
spelling,1
4200,1
custom,1
deadlocked,2
generalities,1
statistically,1
considerations,1
travels,1
henry,1
beach,1
interpret,1
universe,2
inherit,1
recommends,1
articles,1
nonprovocative,1
brothers,1
exhausted,1
convert,1
division,1
impaired,2
demilitarized,1
upholding,1
supplies,1
testified,1
usually,1
feat,1
letters,1
fear,1
inspection,3
adversity,1
inferences,1
inadvertent,1
appreciation,1
signed,2
sense,1
broadcasting,1
printed,2
physically,2
field,1
served,3
wilderness,1
messages,1
opens,1
legitimate,1
battleground,1
realities,2
whereby,1
senators,1
upset,1
obscures,1
serves,1
bizerte,1
skin,2
grievances,1
stamped,1
inflated,1
targets,1
mention,1
advocated,1
legally,1
herald,1
reconstituted,1
wouldn,1
man,3
stifled,1
despotisms,1
map,1
twenty,10
may,8
supplied,1
fifth:,1
undetected,1
pilgrim,1
reforms,1
obscured,1
arbella,1
parley,1
vividly,1
oceanography,1
statutes,1
methodists,1
feet,1
fenced,1
recognition,1
defending,2
presiding,1
feel,2
irresponsibility,1
lubricants,1
narrows,1
fifths,1
bipartisan,1
residence,1
terrible,1
ideal,1
carolina,1
spurred,1
equipment,1
unaccustomed,1
ideas,3
unavoidable,1
pressure,2
interrupted,1
mormon,1
resourcefulness,1
becomes,1
literacy,1
feed,1
directions,1
lists,2
colorful,2
handsome,1
constitution,2
lulled,1
blend,1
harvests,1
conceive,1
symbols,1
airborne,1
custer,1
men,4
repeat,1
physical,1
met,3
repeal,1
wicked,1
supervisory,1
absorbs,1
speeches,1
exactly,1
structure,1
circulation,1
authentic,1
contingency,1
consonance,1
lodge,1
sweeps,1
mercy,1
depend,1
about,5
outdo,2
onsite,1
danger,1
herbert,1
ribicoff,1
granted,1
character,2
pericles,1
above,1
prophecies,1
stick,1
goals,3
resident,1
moderate,1
injunction,5
myself,3
outer,5
invent,1
frozen,1
received,1
substantial,1
flood,1
quality,1
avoided,4
illicit,1
miller,1
health:,1
cubans,1
consistently,1
animal,1
boost,2
sincere,1
invested,1
binds,1
doolittle,2
shared,1
outset,1
vigor,1
eliminate,1
believe,3
shares,1
fell,1
into,4
confrontations,1
greece,1
supports,1
grandsons,1
outpayments,1
mix,1
destruction,1
stiff,1
unceasing,1
middle,1
prosper,1
though,1
associates,2
renewal,1
appeal,1
swamp,1
polio,1
transportation,1
everyday,1
reverend,2
appear,1
collaboration,2
bureaucracy,1
associated,1
descended,1
holds,1
wording,2
overwork,1
experts,2
open,1
stabilization,1
salvation,1
suffering,1
forced,1
invest,1
project,1
lateral,1
tobacco,1
california,3
emotionally,1
formidable,1
studying,1
mckay,1
gettysburg,1
solutions,1
felt,1
owing,1
bears,1
gardener,2
conquest,1
sections,1
withdrawals,1
assurance,1
unanimity,1
advisers,1
tragically,1
paths,1
fulbright,1
forces,6
proposals,2
secured,2
allow,1
brigham,2
sponsorship,1
proper,1
polls,3
slain,1
vegetable,1
bitter,2
stocks,2
urgency,1
evening:seven,1
leonidas,1
now:first,1
patron,1
recently,1
incredible,1
flatly,1
(through,1
renewed,1
money,7
riches,1
stakes,1
healthy,1
richer,1
transcending,1
dewey,1
unprotected,2
forever,1
endanger,2
ireland,1
mob,1
achievement,1
farmers’,1
arctic,1
claimed,1
whole,1
fingers,1
revolution,1
relation,1
reliable,1
say:they,1
reentering,1
goads,1
obstacle,1
attempts,2
unconstitutional,1
profits,1
still,2
enriched,1
linking,1
constitute,1
talon,1
beams,1
toward,1
books,1
knowing,1
among,1
humiliating,1
continental,1
internal,1
algeria,1
signature,1
republican,8
excise,1
enjoy,1
defended,2
ecclesiastical,1
greeks,1
noncommunist,1
ourselves,3
specified,2
slave,2
naturally,1
flexibility,1
believes,1
beans,2
federal,4
believed,1
academy,1
include,1
persecution,1
alongside,1
aged,6
nucleus,1
tremendously,1
destructive,1
mrs,1
outflow,1
altogether,1
dulles,2
censor,1
cutting,1
ages,1
dimensions,2
defender,1
voice,1
allen,1
illnesses,1
prepared,1
craft,1
rigorously,1
tours,1
olive,1
discover,1
imply,1
offset,1
capture,1
mysteries,2
failed,6
chancing,1
appointed,1
shipped,1
alerted,1
revolutionized,1
retraining,2
deployed,1
warhead,1
elder,1
prescribed,1
plebiscites,2
knotty,1
talks,1
austrian,1
overlook:,1
riots,1
prescribes,1
soundness,1
assistant,2
greens,1
ministerial,1
controversy,1
ultimately,2
command,3
ineffective,1
compulsory,1
sentries,1
meredith,4
revised,1
perfection,1
prevailing,1
saved,1
desperate,1
leading,1
(which,1
politically,1
urge,1
stabilizers,1
unjustifiable,1
music,1
famine,1
because,3
educate,1
moving,4
assigning,1
agreement,6
dealing,1
agreeable,2
mayor,1
contains,1
prohibiting,2
permits,2
selection,1
boris,1
science,3
ensued,2
conception,1
restaurants,2
happening,2
guest,1
returns,1
detail,1
endowment,1
forest,1
icebergs,1
stretches,1
fantasies,1
worded,1
occupations,1
eloquent,1
optimistic,1
sleep,1
hungry,1
refuse,1
realistically,2
intimidated,1
sweep,1
descend,1
preferences,2
failures,1
highlighted,1
unlimited,2
decreased,1
chiang,6
golfing,1
predictions,1
pushing,1
pagoda,1
descent,1
legality,1
debates,1
pathway,2
emerge,1
ago:,1
anniversary,1
republic,2
historical,1
repetition,1
couldn,1
outmoded,1
fitness,1
discrimination,4
tyrannies,1
artillery,1
surrender,1
nonexistent,1
doesn,2
coulee,1
poised,1
cruel,1
wrote,1
journeyed,1
originally,1
intentions,1
gather,1
cardinal,1
insist,1
risen,1
energies,1
beneficiary,1
materials,2
buildings,3
(and,1
protestant,1
sailing,1
rises,1
unsolved,1
defied,1
technical,2
respecting,1
candidly,2
breakdown,1
ride,1
stretch,1
responsible,1
medal,1
capitalism,1
fifties,1
satellite,1
illuminate,1
mistake,2
capitalist,1
jake,1
uncrated,1
capabilities,1
bargaining,1
toil,1
rich,2
agencies,1
rice,2
defensible,1
significance,1
frenzy,1
arises,1
visited,1
attacked,2
family,1
deliberate,2
swear,1
referred,1
atmosphere,2
gift,1
career,1
told,1
laotian,2
release,1
abiding,1
rolled,1
dispassionate,1
moral,1
policy:,1
rehabilitation,1
brethren,1
boosters,1
nam,1
judge,9
darkness,2
secretariat,1
lindsey,1
usefully,1
similar,2
aristotle,1
mapping,1
partnership,1
foundations,1
thousands,1
wives,1
crossing,2
itemizing,1
malnutrition,1
driven,1
adenauer,1
crossed,1
supersonic,3
tone,1
indicated,6
against,1
pouring,2
objectives:,1
remind,1
manufacturer,1
encourage,1
indicates,2
holders,1
gaither,1
morality,2
charters,1
deficit,1
manufactured,1
uphill,1
obstinate,1
stores,2
clustered,1
outposts,1
touchstone,1
eisenhower,4
concessions,1
firing,1
urgently,1
reprisal,1
preceding,1
logic,1
francisco,1
breaker,1
capped,2
honor,4
losses,1
decorated,1
equanimity,1
whites,2
bureau,1
net,1
intense,1
new,1
took,1
baghdad,2
positions,1
tool,1
underestimated,1
stimulating,1
scales,1
bestowed,1
strenuous,1
franklin,1
inconvenience,1
torn,1
mandate,1
reaching,2
respective,1
media,1
seeping,1
around,10
influences,2
talented,1
dictate,1
douglas,1
stimulation,1
frontier,2
haven,2
stepped,1
egypt,1
indefensible,1
decides,1
employment,1
alarmist,1
specific,1
korean,1
super,1
workable,1
warheads,1
risks,3
engage,1
inherited,2
territory,4
wilson’s,1
persuading,1
entails,1
amendment,2
developments,1
shift,1
impairing,1
johnson,1
bargain,1
stevenson,1
securities,1
professional,1
decided,1
homethe,1
builds,1
butler,2
dance,1
fully,1
pearl,3
flinch,1
imminent,1
relaxation,1
exchanges,1
uninterrupted,1
udall,1
disinterested,1
slow,1
tory,2
graduated,1
supplying,1
widened,1
pinchot,1
skillful,1
$500,1
associations,1
complexity,1
regrets,9
automatically,1
students,4
recommend,1
slopes,1
permitted,1
cyprus,1
mechanism,1
protested,1
poison,1
suffocate,1
arouse,1
riot,2
tour,1
persuade,5
lincoln,2
unitarian,1
absolute,2
understood,1
supported,1
resulted,1
intercontinental,1
genuinely,1
solved,2
philip,2
boast,2
research,1
betrays,1
segment,1
houses,1
confinements,1
sovereign,2
marshaled,1
commemoration,1
attractive,1
imagine,1
wounds,1
town,1
engineering,1
mentally,2
mahan,1
whatever,2
decrease,1
airports,1
destroying,2
pawns,1
ignorance,3
materialism,1
aloud,1
reexamine,3
involving,2
blind,1
bernard,1
color,1
hidden,1
affluent,1
graduates,6
nearly,1
simplicity,1
non,1
vested,1
nor,1
not,6
now,2
tempered,1
statement,1
lived,3
$540,1
wisconsin,1
delivery,2
thoughts,1
disunity,1
election,2
breaks,1
conquer,2
unifying,1
continuity,1
asiatic,1
sharpest,1
what,1
refer,1
detailed,2
fortified,1
risk,2
battles,1
rise,1
desegregating,1
recalls,1
excludes,1
subsidy,1
charles,1
factfinding,1
when,1
nearby,1
denouncing,1
hatred,1
proudest,2
struggling,1
financially,1
promising,1
give,7
practicable,1
counsel,1
idealism,1
lives,1
endures,1
depends,2
survived,1
contention,1
limiting,1
lofty,1
invasions,2
explicit,1
ships,1
determined,2
farms,1
ladies,1
prevail,1
inhabited,1
burdens,4
dependents,1
sentences,1
direct,1
futile,2
districts,1
flags,1
conscripted,1
hardship,1
firepower,1
confuse,1
modern,1
occasionally,1
probes,1
enables,1
harlan,1
enrollments,1
wrong,1
bargains,1
choices:,1
organization,7
hampered,1
certain,1
levels,1
board,1
distorts,1
indicator,1
pursuing,1
uninterested,1
heretofore,1
used,1
constantly,1
earned,1
stressed,2
threaten,1
rhetoric,1
neighbors:first,1
otherwise,1
marked,1
recital,1
visible,2
borne,1
stresses,1
handicap,1
survival,2
nearer,1
stumbling,1
unsurpassed,1
newsman,1
solely,1
denominator,1
market,1
effects,1
indifferent,1
overhaul,1
keep,1
citizens:,1
eagle,1
conventions,1
solemn,1
forecasts,1
weigh,1
acute,1
quemoy,2
almighty,1
determines,1
deserves,1
shortcuts,1
telephones,1
fares,1
necessarily,1
rocky,1
90th,1
alone,1
strive,1
along,1
parallel,2
dialogue,1
designed,1
breach,1
selective,1
stimulus,1
spurring,2
approaches,1
critics,1
contained,1
koreans,1
handouts,1
approached,1
uses,1
disproportionate,1
inhabitants,1
diminishing,1
clogged,1
bring,1
assures,1
percy,1
hearted,1
brink,1
edwards,1
equity,1
colonial,1
warfare,1
manufacturing,1
giant,1
neglect,2
employers,1
promoting,1
carve,1
urging,1
formosa,6
engineers,1
thirds,3
turning,1
peace,1
consideration,1
competitive,1
dormitories,1
exerts,1
brother,1
frank,2
endlessly,1
insured,1
hubert,1
ordering,1
javits,3
commodities,1
consequently,1
correspondents,1
viability,1
reluctance,1
claws,1
search,1
communications,1
berliners,1
extinction,1
whom,1
relinquish,2
attainable,1
humanity,1
innovation,1
peacekeeping,2
alternate,1
attainment,1
third:,1
obligated,1
brandishing,1
empowered,1
essential,1
sanctity,1
parchment,1
tailored,1
girls,2
fighters,2
meaningful,1
commissioned,1
manageable,1
generosity,1
exploratory,1
warning,2
commissioner,1
utmost,1
gentlemen:let,1
image,1
immeasurably,1
succumbed,1
portray,1
caracas,1
confrontation,1
fourteen,2
celebration,1
temptation,1
manhood,1
carry,1
burst,1
necessity,1
immeasurable,2
negotiators,1
mountains,1
identifying,2
origin,1
clash,1
mistakes,1
grappling,1
india,1
mistaken,1
burden,1
precaution,1
venus,2
brightest,1
teachers,7
trouble,1
proverb,1
class,1
landon,1
attended,1
oas,2
spanish,1
berliner!,1
counter,1
kept,1
perpetuity,1
clark,1
management,1
counted,2
correspondent,3
presents,1
promotion,1
assign,1
very,9
decade,1
practice,1
congress,1
custodians,1
examinations,1
weaponry,1
canadian,3
pendell,1
delayed,1
legislative,1
astronaut,1
agony,1
william,1
bitterness,1
said:two,1
drag,1
schonbrunn,2
french,1
encouraging,1
alloys,1
ambassadorial,1
issue,4
dependency,1
literally,1
lower,2
metal,1
kerr,2
index,1
resulting,1
legion,1
traditional,1
conservation,3
dictates,1
acted,1
evasion,1
continuing,1
remotely,1
escaping,1
wider,2
turned,1
widen,1
indefinitely,1
eventually,1
hungarian,1
settlers,1
alertness,1
library,1
sphere,1
peril,1
veto,4
modernize,1
remembrance,1
sadly,1
tuttle,1
slums,1
seemed,1
draw,1
off,1
generally,1
exploring,1
complete,1
oft,1
burke,1
domination,3
yesterday!i,1
unchallenged,1
edge,1
brotherhood,1
yemen,1
marshal,2
relentless,1
claim,1
widespread,1
colonies,1
chronic,1
appeasing,1
months,1
westmoreland,2
enriching,1
follows,1
retold,1
enmities,1
kefauver,1
confronted,1
chosen,1
wrench,1
daniel,1
paving,1
coat,1
expand,1
subcommittee,1
headquarters,1
coal,1
survey,1
hourly,1
malice,1
devastating,1
termed,1
athwart,1
code,1
swayed,1
hammer,1
lowly,1
burma,2
underdeveloped,2
preparations,1
devastation,3
considerable,1
oil,7
productivity,1
respresentatives,1
proposition,3
sympathy,1
faltered,1
fight,1
bethel,1
brief,1
allows,1
pretty,1
assessments,3
men’s,1
recover,1
determine,2
anderson,1
decreasing,1
voluntarily,1
confer,2
regiments,1
friction,1
contractors,1
wrought,1
equip,1
radiation,1
lands,1
spiritual,4
crumbling,1
remarks,1
exercised,1
strategic,1
amounting,1
revitalization,1
expedient,1
promised,1
155th,1
relayed,1
speaking,1
engines,1
shifts,1
promises,1
breaking,1
proposal,6
settled,1
old,3
recreation,1
opponents,1
spectators,1
ancient,3
uncommitted,1
twelve,1
starting,1
checking,1
conservative,2
conference,1
activity,1
variety,1
disturb,2
tanks,1
george,3
aiding,1
persist,1
unemployed,1
caution,1
strained,1
headings:first,1
stormy,1
fights,1
one,4
incurred,1
disillusionment,1
cents,2
pull,1
crowned,1
buying,1
assist,1
threatens,1
materially,2
prefabricated,1
partially,1
storms,1
country,1
excellence,1
saline,1
aide,1
willing,1
blessings,1
rulings,1
sincerity,1
regularly,1
trivial,1
awareness,1
details,1
satisfactory,1
conscientious,1
treated,1
praised,1
abolished,2
authoritative,1
ensure,2
rawlings,1
dentists,1
harried,1
retarded,1
suppose,1
chancellor,1
obscure,1
procurement,1
solve,1
towns,1
communizing,1
region,1
support,1
drop,3
shaped,1
destination,1
vehicles,1
cold,2
reciprocal,1
resolutions,1
learning,1
cole,1
dams,1
life,2
expects,2
establishments,1
dank,1
lies,1
promise:,1
dana,1
cases,1
wide,1
regime,1
superior,1
succeed,2
location,1
forego,1
proportions,1
intimidation,1
chains,1
woven,1
depresses,1
competition,4
none,3
cong,1
repository,1
problem,6
closing,1
years:,1
hazard,1
depressed,1
voluntary,1
abandoned,1
seized,1
presence,2
obsessed,1
method,1
wife,1
profitable,1
come,6
infiltration,1
push,1
campesino,1
exist,1
story:,1
examples,1
columbia,1
nationwide,1
lift,1
resourceful,1
(and),1
conceived,1
wasteland,1
repressive,1
distribution,1
our,7
out,2
capacity,1
cope,1
inescapable,1
transcript,1
noon,1
dark,2
precise,1
dare,3
sensible,1
clarifying,1
cool,1
desirability,1
maketh,1
oblivion,1
apologize,1
puts,2
clearheaded,1
unified,1
firmness,1
owe,1
asset,3
onetime,1
minimum,2
perished,1
date,1
magic,1
vindication,1
rightful,1
corn,1
own,16
drug,1
realistic,1
successes,1
partisan,1
distributing,1
publishers,2
consequences,1
bearer,1
blow,1
avoiding,1
development,1
resource,3
like,1
proposes,1
spiritually,1
fraser,1
brisk,1
illusions,1
prestige,1
prolonged,1
bloc,1
ending,1
receiverships,1
efforts,1
proposed,4
council,1
fraud,1
fission,1
repression,1
ground,1
visitor,1
note,1
blunted,1
you:,1
line,1
link,1
exile,1
riding,1
trappings,1
recovery,4
conveyed,1
undertakings,1
fiscally,1
herter,1
intends,1
isaiah,1
hearts,1
affairs,1
cost,3
confronts,1
stories,1
aims,1
lima,1
warmest,1
will,4
gewin,1
confidence,1
dictator,1
arbitrary,1
groups,1
allowing,1
loopholes,2
unskilled,1
tempers,2
tuesday,1
oath,4
york,1
assured,1
swollen,1
challenge,2
dignity,1
wild,1
slowed,1
functions,1
chips,1
govern,3
your,2
remote,1
bering,1
assassin,1
these,6
begins,1
contributions,2
protected,2
graduation,1
wasted,1
essentials,1
investing,1
calculate,1
prison,1
sister,1
exporters,1
organizational,1
devices,1
nonagricultural,1
dedication,1
khrushchev,3
neutral,1
analysis,1
journalism,1
apparent,1
journalist,1
graduating,2
omaha,1
righted,1
workaday,1
historically,1
seizing,1
harkins,1
enlightened,1
dawn,1
stalinism,1
wing,2
bombers,1
wind,1
humble,1
flight,1
commodity,1
folly,2
independent,3
steps:(1),1
ahead,1
achieve,1
concluded,1
talking,1
congo,2
arrived,1
covenants,1
insidious,1
economically,2
revita1ize,1
fervent,1
hutcheson,1
sharpen,1
americana,1
sharper,1
combines,1
faced,1
forests,1
printing,1
soviet,3
wipe,1
americans,1
finally:,1
humbly,1
blue,1
speaks,1
unprecedented,1
pocketbook,1
days,5
combined,2
faces,1
facet,1
discuss,1
liberal,1
recessions,1
acceptable,1
harmony,1
sharply,1
reunite,1
ghana,1
deadly,1
wish,1
miami,1
analyses,1
incredulity,1
wise,2
amounts,1
exceed,1
pan,1
conversation,2
par,1
vicious,1
invitation,1
pax,1
pay,2
revival,1
enormous,1
list,1
rivals,1
ventures,1
sixties,2
candidates,1
external,1
wire,1
spending,2
sobering,1
treasury,2
revise,1
claims,1
restrictionism,1
preserving,1
permitting,1
chile,1
child,1
legislature,1
withholding,1
manning,1
germany,1
divided,1
instrument,1
medium,1
remove,1
wisdom,1
fatal,1
outstrip,1
producing,1
secrecy,2
confinement,1
psychology,1
divides,1
germans,1
live,4
responded,2
victory,1
peak,1
with,11
impairs,1
china,2
pastoral,1
service,1
there,2
hopeless,1
bleeding,1
american,1
exterminate,1
americas,2
harnessed,1
havana,2
heroes,1
russia,1
precipitated,1
pen,1
per,1
ceased,1
period,1
africa,3
operatives,1
proceed,1
theodore,1
birth,1
slowly,1
academies,1
ever,1
assisted,1
loving,1
uniting,1
even,2
restriction,1
integration,1
meetings,1
assumed,1
engaged,1
assumes,1
dismantling,1
kinds,1
indicating,1
persecute,1
imperative,1
violence,1
piecemeal,1
robust,1
verge,1
requiring,1
sermons,1
tensions,1
burying,1
depletion,3
prohibit,1
imposed,2
environments,1
30th,1
reign,1
appropriated,1
versailles,2
broadening,1
manner,1
foresee,1
earthly,1
perils,1
imposes,1
judgment,6
pin,1
members,1
verbs,1
stock,1
guarantees,1
verification,1
terror,3
everyone,1
accumulation,1
heroic,1
strengthened,1
guaranteed,1
disagreed,2
unmanned,1
senator,2
tempt,1
simplified,1
rarely,1
evil,1
forthcoming,1
functionally,1
brigades,1
peril!,1
$700,1
rising,2
initiated,1
fruit,1
cause,3
neutralists,1
represents,1
mallory,1
intended,2
attending,1
design,1
resuits,1
working,2
friday,1
redeem,1
victim,1
conformity,1
department,1
penetration,1
chief,1
liberties,1
aircraft,6
accord,2
pinpointed,1
contributing,1
satisfying,1
followed,1
despite,3
(particularly,1
burning,1
sahara,1
obey,1
plunder,1
fantastic,1
interested,1
defeating,1
machines,1
vessels,1
policeman,1
accumulating,1
gentlemen:the,1
fracture,1
liberty,1
clashing,1
meeting,3
displayed,1
inefficiency,1
began,1
absorption,1
violations,4
recognize,1
abnormal,1
bravely,1
palmerston,1
humming,1
stanford,1
reality,3
demonstration,1
shepard,1
rover,1
actions,1
safeguard,1
defeatist,1
scrutiny,1
giving,1
facts,1
prize,2
marine,1
hungary,1
excuse,1
freer,1
ecosoc,1
forebears,1
tariff,2
irritants,1
sectional,1
lunches,1
reorganization,2
demonstrating,2
escape,1
enlist,1
gives,1
depreciation,1
emerging,2
colombia,1
latest,2
receive,1
equate,1
surplus,1
consulting,1
seekers,1
theft,1
declaration,1
standing,1
defiant,1
manned,2
prosperous,1
hailed,1
representatives,4
implies,4
backwash,1
feelings,1
facilities:,1
indeed:,1
friendship,1
rightfully,2
smith,1
juan,1
placing,1
disappointed,1
continue,1
overcrowded,1
mediocrity,2
inherent,2
realize,3
offers,1
given,2
pre,1
perish,1
bogota,1
crimes,1
bryant,1
freed,3
pro,1
disappears,1
secrets,1
casualties,1
exaggerated,1
institutional,1
statutory,1
playing,1
maritime,1
employees,2
rotating,1
pers,1
capsule,1
asking,1
eroding,1
complaining,1
dedicationthese,1
booming,1
trespass,1
ceremonial,4
peru,1
mccafferty,1
anything,1
newton,1
agriculture,1
minimal,1
conclusionin,1
prudent,1
retired,1
assembled,1
triumvirate,1
cromwell,1
volatile,1
deploring,1
endorse,1
genius,1
gateway,1
bravery,1
forming,1
shadow,1
assassination,1
circles,1
program,3
continually,1
put,1
identified,3
fluctuations,1
trap,1
nameless,1
struggle,1
grows,2
redevelopment,1
reassuring,1
meets,1
ramey,1
unfolds,1
caves,1
infamy,1
conclusions,1
iran,1
heritage,1
infancy,1
baptist,2
light,2
apparently,1
appropriating,1
classrooms,1
valuable,1
circled,1
artist,9
methods,1
questioning,1
formulate,1
indictment,1
overshadows,1
southland,1
10:30,1
consenting,1
barred,1
theme,1
grown,1
appropriation,2
desire,2
suffers,2
liberia,1
unfortunately,1
strides,2
barren,1
propagandists,1
decker,1
january,1
permanent,1
foster,1
backgrounds,1
organized,1
choice,2
travel,1
incidence,1
civilization,2
defeated,3
intensified,1
battlegrounds,1
replace,1
listen,1
assumptions,1
wondering,1
pessimistic,1
major,3
worldwide,3
heeding,1
funds,1
compels,1
feasible,1
consider,1
eighty,1
gravest,1
group,1
humphrey,1
imports,1
tack,1
gross,1
tree,2
disarm,1
eclipse,1
sailors,1
thwarted,1
distrust,1
southward,1
managing,1
sustain,6
arbitrarily,1
particular:first,1
request,3
substitution,1
howard,1
their,3
inherently,1
percent,1
taft,1
fuller,1
general,1
tenets,1
september,2
hurst,2
uphold,2
nostalgia,1
requirements,1
process,2
clear,1
eighth,1
substituting,1
clean,1
duplication,1
governing,1
marking,1
neither,1
fulfilling,1
glad,1
account,2
televise,1
impels,1
mostly,1
hogs,1
saboteurs,1
safer,1
conqueror,1
rhodes,1
evaluation,1
trip,3
transmitting,1
fiat,1
goldwater,1
lloyd,1
soft,1
knowledge,1
fictitious,1
prime,4
dispassionately,1
happen,1
intellect,1
devised,1
loyal,1
july,1
population,4
tags,1
disseminated,1
atlantic,1
enthusiasm,1
route,1
islands,13
flexible,1
trying,1
millions,1
wisely,1
infifth,1
negotiated,1
comes,2
unwilling,1
cambodia,2
soil,2
capability,1
involvement,2
spark,1
augustine,1
blocking,1
hearing,1
vanderbilt,11
schooner,1
spreads,1
committing,1
democrats,9
hydropower,1
thursday,1
noticeable,1
transition,1
appeals,1
materiel,1
tells,1
prevails,2
june,1
series,1
represent,2
compete,1
goodwill,1
arkansas,1
moscow,1
hold,1
chinese,2
trail,1
pronouncements,1
absurd,1
prior,1
talk,2
tall,2
hundredth,1
train,1
dedicated,1
l949,1
planet,4
workweek,1
planes,4
scholar,1
granting,3
cordell,1
contradictory,1
take,1
accompany,1
budgets,1
immediate,1
beneficial,1
relatively,1
platitude,1
some,3
chancellors,1
landlord,1
warmongers,2
purchasing,1
session,1
additional,2
leashes,1
primarily,1
symbolized,1
symbolizes,1
tennessee,1
l970,1
passed,2
goethe,1
reception,1
just,3
sold,1
midnight,1
remembering,1
affects,1
comforted,1
strictly,1
home,1
existing,4
material,1
owned,1
marching,2
iron,1
answers,1
hope,8
soon,1
executive,1
gardner,1
sons,1
stadium,1
husbands,1
counseled,2
macmillan,1
song,1
stimulants,1
adversely,1
propulsion,1
classified,2
protest,2
heavy,1
underground,1
machinery,3
summed,1
britain,1
anvil,1
conquered,1
summer,1
students!this,1
robert,9
nerves,1
buchanan,1
member,1
incidents,1
macleish,3
affirmative,1
elimination,2
creed,1
nourish,1
together,2
imperialists,2
within,1
allege,1
health,1
positive,1
agents,1
prospect,1
refugee,1
machine,1
efficiently,1
evening,1
return,1
instance,1
bishops,1
$800,1
practically,1
seato,1
dirksen,1
serve,1
iraqi,1
equating,1
heath,1
confused,1
fine,1
find,5
host,1
backward,1
selected,1
bowles,1
pleasant,1
occur,1
drove,1
seriously,1
fill,1
transforming,1
heart,1
arenas,1
task,1
horn,1
convenient,1
specialist,1
scientists,1
transit,1
progresses,1
true,1
leaning,1
tactics,1
valley,3
position,3
petty,1
glow,1
since,1
sentiment,1
technicians,1
nonmilitary,1
soul,1
abundance,3
dangerous,2
dispersal,1
appears,1
troubles,1
persevering,1
hour,1
leadership,1
alliances,3
troubled,1
insuring,1
heard,2
experienced,1
execution,1
falling,1
processes,2
sought,1
extraordinary,1
hearings,1
polled,1
complicate,1
guerrillas,1
pulling,3
helplessly,1
evident,1
writer,1
coming,1
credible,1
envelop,1
firm,1
contribution,1
annapolis,3
ignorant,1
fire,1
pentagon,1
fashioned,1
distinguish,1
howe,2
numbered,1
tiger,1
psychologically,1
everett,1
symptom,1
undertaken,1
disastrous,1
funeral,1
except,1
programs,1
inflicted,1
mctyeire,1
prominent,1
superiority,2
ironies,1
global,1
fist,1
dogmas,1
counselor,2
unless,2
unequaled,1
plants,1
excess,1
narrowest,1
perspective,1
operating,1
everest,1
ought,2
accordance,2
restrictive,1
people,3
surpluses,1
prognosis,1
broadest,1
mastered,1
democracy,2
peninsula,1
abandon,2
ranking,1
intolerable,1
adverse,1
operation,1
alarming,1
fletcher,1
obligations,3
reputation,1
inside,1
leaves,1
provincial,1
adjusting,1
adhesive,1
five,14
celebrate,2
admirable,1
retaliatory,2
hunger,2
announced,1
channels,2
youthful,1
outspent,3
campaign,2
conflict,1
abdication,1
que,2
insurrectionists,1
installed,1
reasons,1
scheduled,1
father,1
ladies:the,1
swept,1
quo,2
assistance,5
commerce,1
towers,1
denunciation,1
wants,1
wonder,4
every,2
mechanized,1
mansion,1
answered,1
entail,1
madness,1
again,5
stockpile,2
artificial,1
canaveral,2
outstripped,1
employ,1
request:,1
desirable,1
during,1
instill,1
degrees,2
reestablish,3
mccormack,1
consist,1
disadvantages,1
price,5
draining,1
defensive,4
games,1
dependent,2
crest,1
deplore,1
briefly,1
reduced,1
resilient,1
cherish,1
dislikes,1
agree,1
imagination,1
resistance,1
okinawa,1
fallible,1
welcomed,1
itself,3
enjoyment,1
anyone,1
betrayed,1
pride,1
distress,1
broadcast,1
regions,1
hoped,2
protector,1
requests,1
substitute,1
birmingham,1
uncertainly,1
cadet,2
moreover,1
causes,1
violate,2
hopes,1
collective,1
demonstrated,1
event,2
wherever,2
witnesses,1
establishes,1
witnessed,1
established,2
finger,1
agency,1
inhabit,1
unprepared,1
caused,1
agenda,1
planks,1
holocaust,2
damaged,2
cannot,1
hovered,1
seniority,1
span,2
first:,2
prefer,1
astronomical,1
appealed,1
minority,2
tight,1
space,3
hope:,1
chamber,1
struggles,1
depart,1
halted,1
doorways,1
demonstrates,1
bottom,1
commitment,4
published,2
sanford,1
fading,1
munificent,1
collision,2
powerplant,1
airlift,1
covered,1
publisher,1
cliches,4
annihilated,1
intervention,1
slogan,2
arthur,1
solving,1
accorded,1
mobilization,1
frequent,1
statements,1
outright,1
membership,1
network,1
alianza,1
holding,1
moments,2
public,1
forcefully,1
array,1
nominee,1
enslave,1
modernization,1
maine,1
monetary,2
constructed,1
conferring,2
stifle,2
charging,1
resources,5
heaviest,1
unheard,1
sisters,1
expensive,1
trade,1
performance,1
westward,2
ambassador,1
insisted,1
conferred,1
moneys,1
vague,1
disenthrall,1
civility,1
unrest,1
accuracy,1
building,1
setting,1
nationalist,1
quote,5
quota,1
nationalism,1
ran,2
internally,2
younger,1
withered,1
raw,1
adaptability,1
ray,1
destroyers,1
truman,3
gainsay,1
cultural,1
topple,2
defensebut,1
artful,1
warming,1
institute,1
endure,1
southern,2
desiring,1
essence,2
uncertainty,1
sentimental,1
robbed,1
dollar,5
blamed,2
budapest!,1
begrudge,1
omnipotent,1
cardona,1
departments,1
callins,1
oppression,1
forefront,1
unrelated,1
21/2,1
memoire,1
calling,1
qualities,3
tourists,1
berliner,1
congestion,1
register,1
fleet,1
otherwise),1
moved,1
demise,1
fourthly,1
agreeing,1
rea,1
red,1
transmission,1
act,1
shortage,2
awakening,1
helped,1
finish,1
swift,2
add,1
amend,1
conquests,1
unpopular,1
consent,1
helpless,1
ado,1
escaped,1
mutual,2
peacefully,1
cultures,2
therefore,2
exchange,1
washington,7
trust,1
universally,1
beachheads,1
soldiers,1
breeds,1
prevent,3
campaigner,1
commercially,1
transcends,1
disturbing,1
scope,1
irresponsible,1
nurtured,1
expectancy,1
morale,1
humiliation,1
outstanding:,1
incapable,1
recorder,1
furthest,2
judicious,1
label,1
corrupts,1
message,1
recorded,1
modify,1
truth,1
unknowing,1
moves,1
exempt,1
reservoir,1
collectively,1
age,4
shoulders,1
smaller,1
incantations,1
movie,1
ago,2
overlooked,1
faulty,1
rid,1
years,2
darkening,1
disappointment,1
reinforce,1
odds,1
altitudes,1
decline,1
strangely,1
rio,2
businesses,1
morass,1
mcnamara,1
disciplining,1
system,4
likelihood,2
spot,1
sterile,1
shrunk,1
nonaggression,1
mighty,1
aid,1
mobs,1
other,5
aim,4
minorities,1
confederate,1
uncle,1
retain,1
doubling,1
air,1
skilled,1
retail,2
defeat,1
spear,1
year),1
steadily,2
electronic,1
vacation,1
speak,2
regimentation,1
outcome,1
sacred,1
horrors,1
jews,1
nach,1
specialists,1
tribulation,1
meantime,1
prototype,1
grains,1
reversal,1
future,1
airframe,1
mississippi,9
movement,1
royal,1
signing,2
untrained,1
impressed,2
body,5
spur,1
commissions,1
implemented,1
lifeblood,1
complement,1
all,7
always,1
abhorrence,1
already,1
tying,1
informing,1
conducted,5
expense,1
maintaining,1
contemporary,1
territorial,1
postal,2
prayers,1
archimedes,1
equipped,1
interfering,1
curtis,1
accession,1
farthest,1
contracts,1
simpler,1
weakness,1
rejoicing,1
and,45
ration,1
rot,1
commented,1
snowy,1
abroad,1
undermine,1
unsealed,1
unnecessary,1
any,5
suggested,1
earmark,1
communicated,1
ninth,1
consists,1
until,1
collapse,1
honorable,1
bicta,1
expanding,1
thought,1
concession,1
accurate,1
foods,1
figueres,1
paraphrase,1
treaties,1
gambling,1
lyndon,1
anywhere,1
maximize,1
enrichment,1
graciousness,2
naught,1
chiefs,1
english,1
pamphlets,1
hired,1
poverty,1
mckinley,1
resort,1
shelters,2
devoted,1
broke,1
spirits,1
testament,1
mount,1
000,4
yarnell,2
territories,1
grade,1
atomic,1
tyrants,1
calculations,1
choices,1
truer,1
succeeded,1
increased,2
northwest,1
inspiring,1
matching,1
increases,1
quarrels,1
pauley,1
automobile,2
uncharted,1
diversity,6
arc,2
fruits,2
pockets,1
varying,1
are,12
safeguarded,1
came,3
patience,1
grace,1
captive,1
where,1
broader,1
stirred,1
arm,1
broaden,1
vice,8
art,6
esteem,1
thoughtful,1
noticed,1
favors,1
delegates,1
suppress,1
abraham,2
call,1
speculative,2
calm,1
wilson,1
ownership,1
partners,3
choice:,1
ask,1
theories,1
intellectuals,1
relations,1
subjugation,2
through,2
becoming,2
engagement,1
strength,4
officer,1
reportedly,1
dusk,1
disregard,1
offices,1
towering,1
run,1
justified,1
enact,1
goals:first,1
bomb,1
imprisoned,1
spacecraft,3
view,4
protests,1
ours,3
all:,1
viet,1
affiliation,1
neighbors,1
out:,1
inflationary,1
yourself,2
unbalanced,2
results,1
newest,1
defiance,1
palace,2
capitalistic,1
mold,1
bold,1
admiral,1
camp,1
overlap,1
instability,1
name,2
spaces,1
yale,13
crow,1
neighborhood,1
justifies,1
stultifying,1
crop,1
benefits,1
truce,1
congressional,1
presided,1
mercenary,1
mood,1
absence,1
abolish,1
book,2
generating,2
negative,1
ally,1
defend,1
94th,1
overseers,1
diphtheria,1
sympathies,1
violator,1
introduce,1
newborn,1
bond,2
target,1
radically,1
discourse,2
momentum,1
thirdly,2
mouth,1
assuming,1
restricted,1
duty,1
commonsense,2
ardor,1
cape,2
leader,1
symbolize,1
appeasers,2
yard,1
dangers,1
republicans,7
usage,1
pledged,1
negotiable,2
transmitted,2
cart,1
amnesty,2
cast,1
anxious,1
stoppages,2
adlai,1
officials,1
broad,1
pledges,2
pressures,1
participating,1
reoriented,1
truly,2
greater,1
chickamauga,1
case,5
generation,2
admired,1
item,4
superintendent,1
viii,1
matches,1
longing,1
saving,1
moon,3
slide,1
failing,1
excessive,1
matched,1
jungle,1
displease,1
care,8
participation,1
assault,1
damage,1
fulfilled,1
pattern,1
exercise,1
disservice,1
office:,1
transfers,2
physics,2
seldom,1
protect,2
neutralizing,1
criticized,1
nato,1
reliance,1
more,9
born,1
display,1
usurpation,1
inaccurate,2
beings,1
wrangling,1
disorder,1
aggravate,1
accounts,1
broadly,2
harriman,1
tyranny,1
navy,1
persistently,1
imperiled,1
simple,2
choking,1
prudently,1
saluting,4
talent,1
percentage,1
scoff,1
misjudgments,1
described,1
speculation,3
negotiate,2
package,1
king,1
kind,6
timing,1
overburdened,1
consultations,2
both,2
most,4
moss,3
transfer,3
ultimatums,2
heartened,1
nerve,1
affection,1
diversion,1
unscrupulous,1
courteous,1
inseparable,2
affecting,1
inspiration,1
forbid,1
inglorious,1
causing,1
patient,1
reject,1
corridors,1
sad,1
traced,1
delaying,1
mentioned,1
profit,1
sam,1
safeguards,1
san,1
move,8
amount,3
assignment,1
sat,1
saw,1
say,1
also,1
enough,1
increase,1
spread,2
juarez,1
educated,1
said:,1
favor,2
heights,1
organizations,1
guests,1
latter,1
depression,1
simply,1
commandant,1
indirection,1
bad,1
boys,2
reflected,1
luncheon,1
guinea,1
assemblage,1
completing,2
ban,1
retrospect,1
dropouts,1
nazi,1
suffer,1
bar,1
draft,1
bay,1
violated,1
adjourn,1
hazardous,1
personal,3
angry,1
artery,1
haggle,1
underestimate,1
canceled,1
alamo,2
globe,7
january),1
delay,1
submitted,1
interdependent,1
clashes,1
applause,1
greatly,1
dean,1
strong,2
deal,2
scheme,1
standby,1
affect,2
athenian,1
deaf,1
facing,1
dead,1
buildup,6
proven,1
eyes,1
ministers,1
drain,1
sea,1
amuse,1
slogans,1
proved,2
see,8
inward,1
responsibility,2
be:,1
wheat,1
earners,1
dear,1
compared,1
completion,1
set,1
unabated,1
joined,1
fastest,1
procedure,2
integrate,1
practices,1
kits,1
battle,1
awesome,1
fighter,1
auspices,1
rives,1
earnest,2
bed,1
jobless,1
transferred,1
oecd,2
figures:,1
beauty,2
beg,1
boylston,1
stroll,1
labored,1
bet,1
shipping,1
useless,2
discharge,1
france,1
brainpower,1
polaris,1
zeal,2
financed,1
unstable,2
she,1
lessened,1
finances,1
resumed,1
debt,3
unaccompanied,2
little,1
deep,2
confined,1
unruly,1
robertson,1
forgive,1
regulatory,1
exhibits,1
capable,1
sic,1
deed,1
getting,1
salaries,7
supervision,1
await,2
unfair,1
sir,2
sit,1
conversion,1
over,3
ballot,1
brilliant,1
living,3
practical,1
six,4
sanguinary,2
breathing,1
smoldering,1
assuring,2
bound,1
falter,1
firsthand,2
obviously,1
football,1
stroke,1
retained,1
message:they,1
avoid,2
fresh,1
bid,1
comprehensive,1
retardation,1
big,1
select,1
frustrated,1
advanced,1
thankful,1
bin,2
supervising,1
recommendation,1
invoke,2
nations,11
improved,1
thanks,1
tasks:,1
striking,1
convinced,1
advances,1
steadfastness,1
model,1
beside,1
animals,1
tasks,2
reduce,1
sky,1
large,1
20th,1
grasped,1
satisfied,9
tomorrow,1
transactions,2
foolish,1
someday,2
foresight,1
gibraltar,1
operate,1
abroadi,1
exclusively,1
defy,2
doctrine,1
compromised,1
secondly,8
begin,1
paragraph,1
penalize,1
bankruptcy,1
handicapped,1
inquiry,1
clergy,1
hopefully,1
immigrant,1
tradition,2
table,2
resisted,1
salesmanship,1
nonaction,1
implementing,1
change,2
systematic,1
extremes,1
suspicions,2
punishment,1
corporate,1
instruction,1
discovery,1
pyle,1
coolidge,1
bombardment,1
facilities,2
improvements,1
theirs,1
negation,1
constant,1
trabajo,1
several,1
mislead,1
office,1
northern,1
downgrade,1
anger,1
posts,1
roger,1
stands,1
son,1
proceeds,1
contagious,1
perilous,1
summarily,1
reviewed,1
discretion,1
beget,1
thrown,1
comprises,1
permanently,1
colder,1
relevant,3
bob,1
bog,1
comprised,1
behind,2
infinitely,1
dozens,1
sparing,1
tenth,1
pyre,1
sentiments,1
mental,2
box,1
hostility,1
regularity,1
racial,2
ripped,1
1/2,1
1/4,1
prices,2
highly,1
unfortunate,1
chance,3
nature,1
wheel,1
blough,1
100,1
101,1
dormant,1
unauthorized,1
awards,1
internationalize,1
quarrel,1
pageantry,2
108,1
tempting,1
tools:,1
closest,1
saturn,3
coherent,1
lesson:,1
clandestine,2
buried,3
roosevelt:,1
stood,4
fighting,1
110,3
encouraged,1
eastward,2
scandal,1
geography,2
friend,1
paine,1
draws,1
mccone,1
drawn,1
societies,1
mushroom,1
slenderest,1
trends,1
calhoun,4
yankee,1
deny,2
closely,1
unrealistic,1
pleasure,2
miserable,1
interpreter,1
morning,1
glory,1
horse,1
121,1
secondary,1
pitzer,1
mission,1
requested,7
doctors,1
autumn,1
conditions,1
interpreted,1
lessons,1
sub,1
enhances,1
cooperate,1
overcome,1
sum,1
undisturbed,1
sun,1
extended,1
serving,1
current,1
134,1
secretary,1
democrat,1
gloom,1
managed,1
actively,1
plainly,2
sizeable,1
civilian,3
unreal,1
preferred,1
participants,1
offensive,1
storm,1
manager,1
makes,1
maker,1
enemies,1
threatened,1
sponsored,1
store,1
honoring,1
140,1
unconditional,2
depths,1
slipped,1
amis,1
story,1
but,3
dissent,1
symbol,1
sincerely,1
buy,1
wished,1
express,1
150,1
advocate,2
discourtesy,2
154,1
155,1
instantly,1
illiteracy,1
missile,1
scholarships,1
wishes,2
written,1
generate,2
passion,1
polemics,1
coordinate,1
greatness,1
chairmanship,1
astronomy,1
ocean,1
naval,3
desk,1
gallup,1
higher,1
doing,1
brazil,2
idea,1
prisoners,1
odegaard,2
175,1
backing,1
turnover,1
mortal,1
successful,3
normal,1
figure,2
gradual,1
deliberations,1
weaker,1
socialism,1
weaken,1
stone,1
functioning,1
credulity,1
drought,1
baffling,1
passing,1
streets,5
tested,1
immensely,2
christianity,1
potent,1
190,1
commencement,1
eglin,1
tripled,1
inches,1
seconds,1
retiring,1
shrinking,1
children,2
road,1
review,1
strategically,2
massachusetts,1
weather,2
wrath,1
shortrun,1
aligned,1
nobody,1
mailed,1
guide,2
efficiency,1
ethnic,1
goal,3
natural,4
arising,1
rightly,1
benefiting,1
second:,1
comprehension,1
answerable,1
unsolvable,1
motto,1
acquainted,1
substantially,1
sensitivity,1
totalitarianism,1
aggressor,1
racing,1
flag,1
sympathetic,1
seasonal,1
insignificant,2
james,1
range,3
rode,1
derive,1
alumni,1
undiminished,1
feature,1
screens,1
flat,1
recall,1
climax,1
irrational,1
generals,1
broadcasts,1
suggest,1
averted,1
lemay,1
token,1
cease,1
fanaticism,1
elements,1
spectator,1
submission,1
squalor,1
concerted,1
currencies,1
argument,1
utter,1
flattery,1
nassau,3
uniformity,1
begun,2
hopeful,1
tremendous,1
dozen,1
redevelop,1
escalate,1
condense,1
growing,2
deciding,1
enlargement,1
twelfth,1
tenure,1
hallmark,1
centuries,1
tap,1
taylor,1
alarmed,1
appropriations,1
indirect,1
sharpened,1
goes,1
tax,4
towards,1
posed,1
ranks,1
chances,2
serviceman,1
safe,1
flung,1
destined,1
presidential,1
departure,1
potentially,1
spearpoint,1
sail,2
instances,1
flee,1
graham,1
distinct,1
fled,1
tune,1
aware,1
can,2
alarm,1
wells,1
said,5
privately,1
carried,2
satisfy,1
idle,1
february,1
hail,1
technically,1
really,2
gridiron,1
carries,1
response,1
counterparts,2
responsive,1
delegation,2
category,1
