calvinCoolidge,Occurences
projects,8
functions,5
year,9
building,8
without,5
youth,4
record,5
farm,7
sovereignty,5
because,8
cuba,5
agreement,7
banks,6
past,6
league,11
bill,7
*,6
economy,6
court,32
am,9
whose,5
cooperative,8
islands,9
plans,5
peace,13
consideration,7
enlightened,5
greatly,8
much,9
statute,7
boston,6
independent,4
result,5
same,7
national,7
commission,4
after,12
policy,5
humanity,4
committee,7
set,8
business,8
possible,8
union,4
right,5
police,5
s,5
meet,9
river,5
under,14
citizens,7
adopted,10
represent,7
expenditure,7
republic,5
ohio,6
good,6
hold,4
wish,6
chinese,8
act,13
wise,6
agricultural,13
others,9
needs,7
making,7
need,10
agreements,10
enormous,5
consent,6
never,5
vision,5
immediate,5
treasury,8
success,6
authority,5
claims,6
acres,5
western,5
washington,69
hardly,5
debt,16
necessity,8
party,9
carrying,6
duties,8
little,10
however,8
occasion,5
private,8
production,7
united,5
young,12
importance,5
session,10
additional,7
provided,7
states,7
burden,6
miles,8
wisdom,7
society,12
rate,7
prosperity,4
end,7
company,6
passed,6
lines,7
human,4
over,8
practical,6
nitrogen,7
realized,7
improvement,10
better,10
special,6
china,6
encouragement,5
service,23
well,5
farmer,15
age,4
president,7
very,5
career,6
education,7
congress,8
american,7
nations,6
welfare,7
hope,4
years,11
america,6
moral,5
navigation,6
russia,5
property,4
action,7
per,7
french,13
order,11
cooperation,9
wage,10
period,6
large,7
being,7
propose,5
ever,4
system,7
afford,7
field,7
even,4
larger,5
fathers,5
brought,10
save,5
protection,8
air,7
local,7
products,7
government,26
world,13
too,5
morality,4
rights,5
assertion,5
crime,5
man,8
ability,6
question,7
spirit,5
future,4
able,6
report,8
mississippi,4
powers,7
capital,7
constant,7
almost,4
cent,7
subject,9
cotton,8
political,8
british,12
upon,10
while,8
high,7
revenue,9
members,5
me,7
west,6
bureau,6
colonies,7
international,12
always,5
new,4
citizen,5
took,5
law,9
already,4
estate,7
shall,4
establishment,6
real,5
institutions,6
army,11
condition,11
principles,5
coal,6
position,4
virginia,11
present,15
taxation,7
became,5
veterans,7
constitution,4
best,4
effective,5
considerable,7
men,7
leadership,5
land,6
construction,10
department,12
direction,4
declared,5
nature,6
chief,9
rates,8
control,10
any,11
application,7
due,8
spiritual,6
until,7
reason,4
thought,6
nation,7
maintain,4
supply,7
granted,7
bank,7
character,8
liberty,6
state,5
old,9
want,6
countries,12
recognize,5
flood,9
benefit,8
labor,6
000,9
must,13
except,10
conditions,5
religious,6
conference,12
increased,8
probably,6
recommend,6
industry,8
dollars,5
believe,8
moment,6
current,8
found,5
unless,4
defense,7
does,11
george,7
where,8
tariff,12
free,6
equality,7
popular,6
legislation,12
ought,9
necessary,4
surplus,7
accordance,7
declaration,25
religion,13
such,8
marketing,6
increasing,11
progress,8
relations,7
through,10
country,15
principle,7
commercial,6
administration,7
obligations,8
source,5
secure,8
independence,6
research,6
domestic,5
irrigation,5
whenever,6
continue,5
tile,9
military,16
results,4
those,13
us,8
budget,8
given,9
last,5
might,14
measure,7
especially,10
forces,7
campaign,8
support,5
full,5
needed,9
nearly,7
lord,5
impossible,7
effort,4
commerce,11
assistance,6
life,8
agriculture,5
interest,11
themselves,4
memorial,5
every,4
early,5
cases,6
war,16
yet,8
genius,6
money,8
paid,11
duty,8
finance,7
truths,5
taxes,8
competition,8
whole,13
during,7
program,10
three,8
revolution,10
beyond,4
problem,7
far,11
plan,7
greater,6
between,10
case,7
struggle,10
give,8
still,11
efficiency,6
laws,10
method,8
work,7
roads,6
railways,6
provide,8
among,5
expenditures,13
determined,5
force,7
continental,8
adams,8
south,7
enterprise,5
methods,8
north,6
foreign,8
ways,7
federal,14
course,6
power,14
protect,7
place,9
means,7
desire,7
great,9
help,6
soldier,6
permanent,8
interests,7
economic,14
board,8
small,5
before,7
navy,10
adequate,8
own,9
sound,9
experience,6
constantly,5
commander,11
should,8
only,7
justice,6
funds,5
england,7
development,8
statesman,5
imports,10
appropriations,8
king,8
created,7
tax,5
history,6
done,5
both,10
most,8
important,11
purposes,7
judges,11
seems,8
here,8
purpose,11
faith,6
principal,8
general,6
public,5
relief,8
affairs,8
greatest,7
costs,6
amount,8
cost,11
resources,6
also,5
increase,8
command,8
favor,4
various,7
investigation,9
further,16
reduction,7
