ronaldReagan,Occurences
plane,13
german,5
crusade,6
half,6
year,6
allowed,6
bring,7
barry,7
palestinians,8
without,6
music,5
farm,7
because,10
missiles,18
goldwater,7
”,6
cuba,6
energy,13
agreement,8
sundance,6
going,7
past,6
bill,7
opportunity,6
vietnam,20
economy,11
community,7
am,6
whose,5
warren,3
airport,16
1,7
atlantic,6
3,8
stop,5
chemical,6
6,5
israeli,10
peace,32
7,7
intermediate,9
sdi,18
much,6
arab,12
strong,7
abuse,6
ahead,6
dollar,10
sailor,6
multinational,14
same,5
systems,6
civil,6
assembly,6
national,7
commission,6
after,9
agreed,6
policy,7
committee,7
d,7
business,6
jobs,7
words,7
staff,9
right,6
union,8
m,10
abm,7
soviet,15
n,11
americans,5
s,17
t,12
answer,6
meet,9
u,13
afghanistan,7
thank,7
days,6
80s,5
berliner,7
communism,5
under,7
god,17
citizens,7
evidence,8
girls,6
got,6
good,4
dr,10
autonomy,6
act,5
attacks,4
leave,6
won,6
airliner,9
needy,6
others,6
making,7
pat,5
need,4
el,26
pay,5
agreements,12
planes,6
beirut,8
never,8
take,8
spending,6
western,7
party,9
child,5
income,6
trust,11
private,6
united,25
young,20
regional,7
germany,5
back,8
peaceful,7
states,10
society,5
rate,8
democratic,12
end,6
hard,5
nuclear,7
airline,6
human,27
just,9
colonel,6
live,5
over,8
historic,5
living,6
pilot,6
nancy,9
negotiations,11
gorbachev,10
home,10
better,8
special,6
truth,6
marines,30
well,4
farmer,7
pledge,6
family,7
president,6
very,14
big,6
education,6
called,5
congress,6
told,11
geneva,13
charter,8
poland,7
qadhafi,11
ago,6
american,8
nations,30
hope,14
welfare,7
years,10
blacks,11
america,9
moral,5
heroes,5
four,5
palestinian,11
property,6
join,5
reduce,6
ii,7
period,6
nothing,7
understand,5
being,16
forth,8
nicaragua,33
reform,9
ever,4
system,6
million,11
even,9
schools,5
meetings,6
aid,7
begin,6
weapons,11
women,5
become,9
don,8
brought,8
city,23
against,6
guerrilla,8
air,6
inflation,7
courage,5
local,9
eight,6
government,10
world,27
known,5
too,14
morality,5
rights,24
speak,8
crime,5
share,5
man,17
together,8
cathedral,6
drugs,12
forward,7
discussed,5
change,8
spirit,7
torch,11
ballistic,7
opportunities,6
century,8
future,8
report,9
ll,9
tonight,6
cliffs,9
honor,10
several,12
political,13
feel,5
british,5
office,7
upon,5
while,7
high,7
me,8
west,7
bipartisan,11
international,9
tower,9
always,8
new,13
terror,7
pilots,6
months,5
mr,16
already,6
grenada,28
shall,8
winston,5
real,5
roots,10
less,8
christmas,21
heart,5
deter,8
army,20
carter,7
gaza,7
dream,7
obligation,4
true,9
arms,7
franklin,5
evil,7
basic,5
problems,8
since,7
parents,7
constitution,7
code,7
salvador,26
bush,7
policies,5
cause,7
dreams,6
best,5
times,4
today,11
leadership,10
men,34
luther,7
land,5
egypt,8
social,7
rates,6
control,9
families,5
korean,11
any,12
conventional,6
guerrillas,12
earth,6
martin,7
threat,6
strategy,6
wall,10
amendment,5
strategic,9
notre,8
nation,14
japan,5
democracies,6
bank,7
freeze,10
massacre,6
let,9
state,7
meeting,5
proposal,6
based,6
old,6
want,9
opponents,10
night,3
countries,8
something,5
000,5
mission,7
re,7
letter,7
must,14
programs,10
allies,8
20,7
continent,5
religious,9
conservative,8
cut,22
increased,9
conference,7
another,6
dollars,18
believe,7
giving,5
facts,8
seek,7
marine,24
secretary,18
defense,11
attack,5
taken,6
came,6
george,11
where,11
civilian,6
free,7
workers,7
cuts,16
legislation,5
ss,10
offensive,7
think,9
middle,18
disarmament,9
black,4
declaration,6
democracy,16
consensus,5
such,13
rangers,5
ask,8
progress,11
relations,7
polish,29
story,6
through,7
country,8
abortion,6
strength,5
excellence,6
administration,5
suffering,5
domestic,6
conservatives,8
ours,6
neighbors,7
continue,9
things,11
military,24
us,9
those,16
budget,17
given,5
last,8
deficits,7
develop,9
ve,6
camp,9
measure,6
soviets,13
once,7
honduras,6
forces,9
know,6
region,10
vital,12
support,8
higher,6
conflict,13
next,6
nearly,5
rule,5
effort,7
summit,9
house,5
life,8
shot,5
central,28
interest,7
stronger,7
conflicts,9
memorial,5
every,7
convention,6
pain,5
learned,6
yes,5
again,6
war,20
yet,5
money,7
fund,6
ballyporeen,10
israel,9
dame,8
reach,6
fought,6
taxes,6
program,20
fair,7
revolution,11
beyond,5
three,6
put,7
rockne,6
caribbean,8
children,11
far,7
golden,6
greater,6
plan,8
between,12
generation,7
give,8
still,12
lives,14
work,8
iran,5
philosophy,6
elections,9
toward,8
shuttle,6
1980,7
unemployment,7
force,24
nsc,7
stubborn,6
enterprise,5
brezhnev,7
differences,6
irish,12
range,13
ourselves,6
foreign,6
across,8
freedom,17
federal,7
lebanon,19
lebanese,7
course,6
solidarity,8
place,8
power,6
europe,23
nato,6
berlin,33
means,6
aggression,6
great,9
agenda,6
help,7
regulations,6
cannot,6
self,7
interests,5
economic,6
board,15
alliance,14
before,10
own,18
tell,8
leaders,5
space,7
drug,16
major,6
only,16
should,7
few,8
individual,6
king,18
kind,9
tax,27
history,7
done,5
illegal,5
both,7
produced,8
most,9
important,6
keep,14
job,7
here,12
game,8
death,5
values,9
why,12
faith,5
recovery,11
percent,8
belsen,5
terrorist,7
general,19
security,13
east,18
billion,10
talks,7
challenger,6
david,9
win,6
didn,11
rest,5
process,11
built,9
confidence,7
saw,8
iceland,13
say,6
also,14
increase,9
trade,7
someone,6
build,8
treaty,10
growth,6
reduction,5
