georgeWBush,Occurences
temporary,16
civility,4
half,7
year,6
leading,5
safer,7
bring,4
without,5
advance,6
path,6
appreciate,6
because,26
missiles,6
prison,5
energy,8
employers,7
happen,8
sure,11
agreement,10
going,8
pass,9
banks,5
past,11
),13
bill,8
opportunity,8
personal,8
require,8
economy,6
al,6
community,7
am,6
chemical,7
science,10
peace,13
inspectors,6
competitive,8
endowment,4
much,5
treatment,4
deal,8
strong,6
providing,5
homeland,11
elect,8
example,7
embryonic,14
same,5
embryos,11
responsibility,6
systems,5
(laughter,6
national,14
term,7
after,7
policy,10
rebuild,7
set,6
keeping,7
jobs,11
words,9
medicine,6
right,9
m,6
soviet,5
n,13
americans,11
destroyed,5
s,14
t,5
meet,5
u,13
afghanistan,7
thank,7
days,5
information,7
under,7
god,4
citizens,8
11th,4
evidence,6
commanders,6
sometimes,8
emergency,7
promise,5
got,17
good,5
act,5
attacks,4
legal,8
others,5
peoples,5
area,5
making,7
need,9
enforcement,7
pay,6
retreat,6
take,8
never,8
spending,5
shi,6
materials,7
success,5
folks,5
child,8
income,5
trust,17
young,6
united,8
taxpayers,4
back,7
training,5
peaceful,5
states,8
society,7
democratic,10
prosperity,7
end,5
hard,8
passed,4
nuclear,10
lines,6
human,7
just,5
live,5
over,6
kuwait,7
historic,6
citizenship,9
victory,5
agencies,6
home,7
better,7
qaida,14
china,4
well,6
comprehensive,10
president,8
taking,5
congress,5
helping,6
ago,6
american,10
nations,5
hope,6
investors,5
years,6
moral,6
america,22
supplies,5
four,6
)and,6
join,7
businesses,5
fear,5
africa,7
issue,9
large,7
thousands,5
tough,4
propose,9
intelligence,8
reform,8
system,8
million,4
acted,6
schools,6
even,5
biological,5
weapons,16
women,13
don,28
city,11
against,6
cell,14
bankruptcy,11
local,7
courage,5
world,17
government,11
known,5
too,6
rights,5
coalition,5
rotc,8
decisions,13
stand,9
together,8
violence,6
)i,8
immigration,16
question,12
drugs,8
change,8
health,14
ethical,10
produce,5
agents,10
future,6
able,6
mississippi,8
return,6
ll,5
tonight,12
auto,17
capital,5
honor,4
political,11
iraqi,20
while,5
high,7
son,4
members,7
opponent,8
me,10
west,16
international,6
different,5
credit,4
border,41
always,6
new,6
terror,10
baghdad,15
law,6
read,9
cities,6
already,7
surge,6
difficult,5
affected,8
army,7
institutions,8
markets,20
forget,5
scientists,13
orleans,11
principles,6
evil,4
behind,6
arizona,9
borders,6
financial,28
terrorists,13
cause,6
best,6
around,8
today,6
men,6
working,6
threats,6
department,5
met,6
fight,6
initiative,5
social,18
families,6
any,8
qaeda,6
threat,7
strategy,9
nation,5
fighting,8
danger,4
acts,6
supply,6
democracies,7
securities,6
worked,7
companies,14
bank,6
liberty,9
let,5
state,5
worker,7
societies,9
11,5
based,6
deny,6
neighborhoods,6
want,5
hurricane,7
countries,5
demand,5
000,11
re,10
saddam,8
must,5
choices,9
allies,8
actions,6
powell,5
conservative,6
cut,4
seniors,6
another,6
industry,8
enemy,11
global,13
believe,13
seen,7
secretary,5
defense,5
attack,3
came,5
george,6
where,6
free,6
workers,16
destruction,5
legislation,5
immigrants,11
offensive,6
think,13
(applause,30
middle,10
necessary,5
empower,11
enemies,6
democracy,7
ask,9
progress,7
thing,11
operation,6
story,10
insurance,14
through,7
country,10
medical,5
administration,6
developing,8
secure,8
research,27
mother,5
school,6
continue,5
houses,6
homes,5
military,5
aids,7
wishes,6
five,8
us,14
those,6
budget,7
given,5
ensure,6
last,5
ve,6
longer,6
forces,5
parties,5
know,5
fema,5
region,14
support,5
benefits,13
next,7
doing,7
mass,7
show,6
rule,5
resolutions,11
effort,5
house,5
life,6
disaster,6
common,5
defend,7
gulf,12
every,17
successful,8
patrol,17
coverage,8
regime,33
yes,12
war,10
yet,9
insurgents,5
ronald,5
cells,15
money,7
fund,7
duty,6
medicare,8
stem,22
achievement,6
fought,6
taxes,6
governments,8
program,6
troops,15
three,7
problem,10
children,7
officials,8
savings,7
plan,6
struggle,7
between,5
give,6
still,6
goal,8
laws,12
lives,5
work,13
iran,6
iraq,47
elections,5
coast,11
toward,5
sectarian,9
care,6
requires,6
hussein,8
guard,8
foreign,6
lot,15
across,5
freedom,12
1991,7
federal,8
course,10
protect,5
power,6
academy,5
automakers,10
funding,8
great,8
lead,10
help,13
evacuees,8
prescription,6
fellow,6
accounts,7
economic,16
small,6
tyranny,5
before,6
own,6
leaders,5
hopeful,9
used,6
retirement,12
drug,10
growing,6
assets,4
hiv,6
only,6
should,10
justice,5
few,5
potential,11
group,5
iraqis,10
marshall,12
crisis,16
extremists,9
loans,9
tax,10
history,7
disarm,6
illegal,13
corps,6
both,7
important,5
most,8
market,17
undocumented,7
camps,8
council,17
keep,6
safe,6
job,7
send,7
here,5
reagan,7
why,14
faith,7
recovery,6
restructure,5
point,16
terrorist,7
general,5
security,7
east,9
september,5
marriage,9
regimes,6
relief,16
didn,10
saw,6
groups,9
also,11
say,13
instead,5
trade,6
build,7
growth,6
account,6
