woodrowWilson,Occurences
acutely,1
half,1
belligerent,1
unavailable,1
hall,4
naturalized,2
pretend,1
guards,1
drunk,1
imperfect,1
pick,1
ten,1
sake,1
energy,4
competent,1
investment,1
),1
require,1
avoidance,1
governorsnow,1
standards,2
1,1
3,2
4,1
5,1
6,1
7,2
squared,1
rounded,1
protective,1
hang,1
role,1
fearless,1
napoleonic,1
roll,1
heartedly,1
turn,1
result,1
gold,1
opposition,1
same,1
selfish,2
commission,7
after,2
citizens:i,1
rational,1
connect,1
hand,3
resume,1
a,31
ordered,1
d,1
posture,1
i,16
neighbor,1
blood,2
violating,1
m,2
the,91
straight,2
p,1
entering,1
sale,1
r,1
s,6
t,1
u,2
v,1
exciting,1
x,1
obvious,1
information,2
november,1
resolve,1
thy,1
good,1
empty,1
suffered,1
besides,1
serious,1
business),1
tip,1
disperse,1
thereunder,2
owes,1
quickening,1
unchecked,1
extirpate,1
gone,1
sane,1
owed,1
aside,1
enjoined,3
harm,1
disturbed,1
provided,2
effecting,1
embody,1
muster,1
motive,1
provides,2
hard,3
multiply,1
effectiveness,1
conducive,1
saps,1
quarters,1
antagonisms,1
perilously,1
room,1
better,2
allegations,2
permit,1
permissible,1
suitable,1
taking,1
pupils,1
illustrates,1
fountain,1
bereaved,1
voters,1
impeach,1
immortal,1
signatures,1
conjecture,1
gained,1
gentlemen:no,1
block,1
hate,1
hath,1
oursocial,1
flow,1
order,1
protecting,1
propose,1
privateers,1
reform,3
illustrated,1
presses,1
malevolent,1
ensue,1
homage,1
women,7
woman,1
unreconciled,1
anda,1
save,1
protection,3
stagger,1
combatants,1
greattask,1
frankly,1
ton,2
belligerents,3
too,7
honesty,1
orderly,3
have,21
energetic,1
avail,1
implications,1
famous,2
question,4
additions,2
reorganized,1
whaleboat,1
spirit,1
picture,1
trusts,1
ofit,1
regard,1
rose,1
powerof,1
thousand,9
com,1
con,1
abilities,1
andtheir,1
peacemaker,1
representative,1
circumstances,10
including,1
nationnow,1
constitutes,1
plenty,1
markets,6
anew,1
obligation,1
bandits,1
violation,3
try,1
constituted,1
patriotic,2
became,2
effective,1
times,1
congress:the,1
congress:in,1
debtor,1
congress:it,1
direction,1
ammunition,4
whence,1
cry,1
humors,1
horizons,1
activities,1
stable,3
clamor,1
harness,1
impatience,1
directing,2
respond,1
incident,1
fullness,1
concert,1
pity,1
theirown,1
concern,1
unoccupied,1
rectify,1
beautiful,1
worked,1
eventual,1
refrain,1
state,1
strut,1
machinist,2
defined,1
element,1
areintimate,1
appointments,1
probable,1
opposite,1
superintended,1
restraint,2
watchful,1
clouded,1
245,1
offering,1
creating,2
restrained,1
creditbest,1
monitors,1
sweeping,1
cur,1
cut,1
probably,4
jurisdiction,2
constitutional,2
manly,2
dread,1
battery,1
weighed,1
two,1
moment,1
instinctive,1
257,1
mettle,1
desired,1
calmly,1
attack,1
reported,1
distribute,1
attach,1
prevented,1
creation,1
immigrants,1
inclination,1
think,1
burdens),1
participate,1
occurred,1
desires,1
anxiously,1
forbidden,1
replaced,1
services,2
team,1
forfeited,1
marketing,2
mistress,1
lockout,1
unmanly,1
speech,1
enslaved,1
thing,2
privileges,3
litigant,1
undertone,1
domestic,4
initiate,1
278,1
deception,1
paying,1
perfectibility,2
fellows,1
roughness,1
stability,1
budget,4
actual,1
eastern,1
ultimate,1
prosecute,1
jacket,1
enlisted,4
surprising,1
privileged,1
suited,1
289,1
woodrow,1
shops,1
thelevers,1
assume,1
ofgovernment,1
memory,1
farmers,2
house,1
indefinite,1
disaster,3
construed,1
unjust,1
opposing,1
start,2
earliest,2
stumbled,1
fallen,2
comradeship,1
tenders,1
conveniences,1
short,1
mihiel,1
finance,1
relenting,1
measured,1
unsold,1
regulate,1
obstacles,1
ninety,3
trains,1
required,3
measures,1
teutonic,1
rectifications,1
enter,2
attain,1
savings,1
restoration,2
definiteness,1
sessions,1
convincing,1
destroy,1
noncombatants,1
deemed,1
priority,1
respectfully,1
railways,1
statesmen,1
coast,2
reckoned,1
tonic,1
istime,1
farms:,1
bright,1
overstated,1
planned,1
anti,1
unknown,1
hazards,1
assure,1
holdings,1
gracious,1
blown,1
performed,1
precarious,1
adversary,1
everygreat,1
endorsement,1
compact,1
outlaw,1
friendly,1
readdress,1
possession,1
tell,1
outlay,1
shores,1
squarely,1
outlined,1
shown,1
audible,1
forcibly,1
pointing,1
majesty,1
day,1
keeps,1
accustomed,1
womanhood,1
trumpets,1
statesman,1
island,2
created,6
unremunerated,1
water,1
corps,3
formal,1
fervor,1
interlocked,1
creates,2
entertain,1
antagonists,2
concentrating,1
critical,1
sakes,1
elsewhere,1
this:,1
guarded,1
tend,1
exceedingly,1
equitable,1
concealments,1
restraints,1
editors,1
introduction,1
annals,1
22nd,1
revenge,1
built,1
subscribe,1
ratifying,1
concentration,1
entertained,1
heavily,1
third,2
confession,1
build,2
equitably,1
wireless,1
further,3
demands,1
dearest,1
resent,1
areas,1
exemption,1
parliament,1
noncommissioned,1
unthinkable,1
railway,1
announcement,1
servitude,1
prejudices,1
carefully,1
going,6
banks,1
committees,1
terminals,1
partisanship,1
beginnings,1
distinctively,1
finer,1
bodied,1
attitude,1
treatment,1
average,1
this:is,1
influential,1
bodies,1
ardors,1
equivalents,1
firstalike,1
investments,1
choosing,1
feats,1
waited,1
citations,1
distinctive,1
weighty,1
unlike,1
wednesday,1
term,1
rigid,1
exempting,1
business,21
serviceableness,1
transported,1
right,6
possible,2
partly,1
indestructible,1
constrained,1
inscribed,1
stage,1
taught,1
returning,2
complicated,1
maximum,2
borrow,1
under,7
desert,1
did,2
quarter,1
proposing,3
die,2
bulgaria,1
quantities,1
$1,1
divisions,1
fears,1
impudent,1
$6,2
later,1
$9,1
fruition,1
midst,1
forgotten,1
evils,1
possibly,1
impair,1
emancipation,5
inconceivable,2
seasons,1
parcel,1
renewing,1
directness,1
test,4
finally,1
remained,1
merchantman,1
enforcement,1
thereafter,1
conviction,2
publicly,1
misleading,1
acceptance,2
embraced,1
final,2
excursions,1
expiration,1
deserving,1
distract,1
occasion,1
bred,1
loan,3
virtual,1
overwhelmed,1
back,4
training,1
expectation,1
resisting,1
heeded,1
states,5
duration,1
pound,2
load,1
company,1
applaud,2
billions,3
relax,1
length,1
concerns,1
grand,1
grant,1
showing,1
dearer,1
qualified,1
armies,2
helping,1
reared,1
construct,1
attempt,1
rivalry,1
balance,3
revealed,1
injected,1
lock,2
resorted,1
latin,1
coteries,1
neighbors!,1
weakening,1
lying,1
exceeded,1
framing,1
made,10
upa,1
conciliation,1
statue,1
being,2
safeguarding,1
menace,1
timidly,1
hoping,1
merchantmen,1
warned,1
status,1
trading,1
(h,1
nobility,1
(i,1
familiarity,1
stamp,1
operated,1
scattered,2
silencer,1
government,10
known,2
exemptions,1
oracles,1
condemnation,1
accumulate,1
crime,1
stand,3
surround,1
knows,2
characterized,1
forward,3
lacks,1
thatwe,1
cultivation,1
precinct,1
keenest,1
307,1
selfishly,1
mail,3
use,1
subject,1
main,1
nursing,1
eightyfive,1
arrangement,2
revenue,1
sufficiency,2
monopoly,1
concentrated,1
negotiation,1
continuous,1
pretense,1
lungs,1
credit,3
alter,1
combine,1
cries,1
waste,3
partof,1
bearing,1
understandings,1
establishment,1
dry,1
poisoned,1
deposits,1
storehouse,2
antidote,1
disconcert,1
blindly,1
uncommon,1
fellowcountryman,1
reckless,1
threats,1
suppressed,1
make,1
fulfil,1
included,1
sobriety,1
assisting,1
attempting,1
toilsome,1
opposed,1
rebuke,1
questioned,1
rapidly,1
admittance,1
stake,1
witness,2
fortify,1
due,1
conform,1
properties,1
orthe,1
inform,1
avowed,1
commit,1
wilfully,1
friendships,1
cure,1
servantand,1
curb,1
observed,1
justicein,1
presidency,1
happier,1
bank,1
closertogether,1
wellbeing,1
meaning,2
oppressed,2
drawing,2
expended,1
interpretations,1
released,2
august,1
15,1
allied,1
benefit,1
labor,9
365,1
highest,1
unique,1
sober,1
allies,1
male,2
seizure,1
shelter,1
postponement,1
examine,1
industry,4
long,3
remember,1
1st,1
shamefully,1
diversityand,1
relationship,1
workers,1
30,2
31,1
expression,1
many,2
exploiting,1
stay,1
controlled,1
dedicate,1
thatno,1
extensive,1
2d,1
repelling,1
backwardness,1
increasing,1
beginners,1
progress,2
respected,1
seeks,1
devote,1
treat,1
agent,1
militia,2
wholly,2
odious,1
directorates,1
numbers,1
rapid,1
seven,1
expressing,1
devoting,1
tread,1
imperil,1
sever,1
abrogate,1
admitted,1
apportioned,1
complaints,1
invited,1
wont,1
look,1
crushed,1
modification,1
duress,1
grounds,1
forcedthemselves,1
disrupt,1
purchasers,1
areor,1
knock,1
needed,1
lord,1
mass,2
jurisprudence,1
speed,1
admit,1
common,3
interest,2
themselves,4
entertains,1
78,5
winning,1
apply,1
steamer,1
politician,1
separated,2
6060,1
foreseen,1
landing,2
eagerly,1
formula,2
step,1
comrades,1
tribute,1
reassembling,1
mark,1
base,1
foreshadowing,1
stem,1
indefeasible,1
subordinate,1
loss,1
incentive,1
impediments,1
premises,2
lost,3
preliminary,2
controlling,1
worn,1
work,3
exceptional,2
lose,1
cattle,1
providence,1
convince,1
deputize,1
irritating,1
registration,19
word,2
theory,1
stated,2
love,1
extension,2
unanswered,2
foundation,1
secret,1
unwise,1
across,1
partnerships,1
identity,1
eat,1
verify,1
misconceptions,1
europe,3
vicissitudes,1
prevailed,1
reward,1
simplest,1
ebb,1
temperateness,1
gathering,1
empires,4
opinion,1
insisting,2
soldier,1
regulations,8
devotion,2
exists,1
majorities,1
stir,1
andconsent,1
existence,1
world:,1
unqualified,1
(its,1
desolate,1
mayo,2
unsettled,1
paymaster,4
furnaces,1
revision,1
waterways,1
preparing,1
provision,1
thrust,1
seems,1
honored,1
battlefields,1
platform,4
enmity,1
spend,1
fairness,1
grave,1
advantage,1
spent,4
instead,1
shipments,1
definable,1
stolen,1
slightest,1
exception,1
temporary,1
hands,2
year,2
sufficiently,1
allowed,2
staying,1
ignoring,1
branch,1
cultivates,1
awaiting,1
vii,1
empire,1
understanding,2
absent,1
liberals,1
near,1
handicaps,1
remedial,1
inviting,1
economy,1
inspired,1
community,1
planning,1
minnesota,1
stop,1
heartfelt,1
unused,2
convictions,1
prudence,1
appropriate,1
usefulness,1
battery!,1
least,2
interprets,1
immediately,1
subsequently,1
bynever,1
submarine,4
boldness,1
fulfilment,1
agreed,1
recommended:first,1
learn,1
excepting,1
representing,1
areone,1
intrusion,1
were),1
subdivisions,2
addressing,1
instructions,2
notes,2
evidence,2
errand,1
amity,1
official,1
fling,1
suspense,1
spring,1
assessment,1
generated,1
leave,1
imperfectly,1
faint,1
peoples,1
minister,1
need,1
vexed,1
vetoed,1
often,2
newspapers,1
obtaining,1
tests,7
traditions,1
errant,1
loose,1
hardly,1
lasting,2
useful,1
sanctions,1
tokeep,1
private,2
complained,1
unwarranted,1
finely,1
gates,1
accomplish,1
constituent,1
end,3
lines,1
mexicans,1
trenches,1
fails,1
forty,1
vow,1
cipher,2
special,1
charted,1
contempt,1
horizon,1
undertaking,1
calmness,1
achieved,1
progressive,1
andthe,1
pronounce,1
shallmake,1
tries,1
occupation,1
education,1
called,2
slacken,1
springs,1
nationalities,2
liberate,1
investors,1
fullest,1
newly,1
tried,3
burdensome,1
deepest,1
narrow,1
proceedings,1
shape,1
programmes,1
seventy,1
momentous,1
allegiance,1
forth,1
thoroughness,1
seventh,1
pertinent,1
403,1
graves,2
weapons,1
prussia,1
done:,1
asked,1
rights,7
julys,1
administer,1
share,1
thoroughly,2
chairman,1
boasted,1
sharp,1
ofthe,4
strongest,1
ofrestoration,1
displeasure,1
cent,2
indemnity,1
transfusion,1
autonomous,1
mexican,4
trial,1
perception,1
furlough,1
undertake,1
finest,1
etc,2
438,1
boaster,1
entrance,2
belgium,1
subjected,1
below,1
substitutes,1
remedies,1
intimately,1
shall,1
articulate,1
instrumentalityof,1
interpreta,1
individually,1
graciously,1
shame,1
financial,1
promulgated,1
running,1
righteousness,1
exalt,1
spies,3
credits,2
harder,2
render,1
republics,4
declared,1
endeavor,1
rates,1
relieve,1
armored,1
transport,1
plots,1
misinformed,1
borrowing,2
forms,2
summon,1
victories,1
achievements,1
maintain,2
undeveloped,1
establishing,2
companies,4
represented,1
chemicals,1
conclusive,1
yes!,1
remain,2
expected,1
voices,1
sustenance,1
countries,1
eye,2
argues,1
himself,1
wanted,1
continent,1
shines,1
disturbance,1
feels,1
another,2
guarantee,5
enemy,1
nobly,1
hindered,1
unreservedly,1
gray,1
ingredients,1
centres,1
triumph,1
discovering,1
ness,1
defray,1
liberation,1
structures,1
fortunate,1
such,1
exacting,1
countenance,1
dwelt,1
penalties,1
presently,1
navigable,2
administration,1
developing,2
dwell,1
remains,1
arriving,1
features,1
incomplete,1
ofwrong,1
openly,1
white,1
radicalism,1
clothe,1
seeming,1
might,2
transcontinental,1
sharing,1
expressions,1
improving,1
servants,1
solemnity,1
embarrassing,1
sued,1
patriotism,3
fields,2
next,1
submit,2
classes,1
wouldbe,1
summit,1
parleys,3
conclusion,1
central,1
impose,1
heralds,1
supporting,1
postponed,1
news,2
refreshed,1
race,1
effectively,1
was,14
hives,1
war,2
uncomplaining,1
futures,1
way,1
realization,2
habitof,1
antitrust,1
worthily,1
summons,1
urban,1
hurled,1
attempted,2
play,2
disciplined,2
andsweep,1
fought,1
quickly,3
foes,1
taxes,4
decide,1
imperialistic,1
guarantor,1
pleases,1
insurrection,1
issues,4
priorities,2
doubly,1
instruments,1
far,1
taxed,1
behoof,1
issued,1
plan,1
unitedin,1
embattled,1
double,1
instituted,1
ruthlessness,1
rendering,2
davis,1
lowest,1
shuttles,1
readyto,1
completely,1
suit,1
rested,1
study,1
portion,1
differences,1
youngest,1
gain,2
burned,1
conquering,1
receiving,1
arabic,1
financing,1
tragic,1
older,2
berlin,1
relieved,1
quaint,1
pirates,1
grip,1
wet,1
sided,1
continuously,1
great,4
entrusted,1
happened,1
wanton,2
proceeded,1
thenceforth,1
pleased,1
sides,1
behold,1
economic,1
grim,1
stuff,1
arrest,4
distinction,1
fed,1
retrace,1
section,1
retirement,1
subservient,1
malignant,1
precedence,1
originated,1
rumor,1
looks,2
ownwisdom,1
provoke,1
presented,2
omitting,1
few,2
enrich,1
highways,1
strain,1
heirs,1
hangs,1
sunk,2
opened,1
tranquil,1
plea,1
inner,1
strait,1
produced,1
personally,1
outside,1
turkish,3
effect,2
humblest,1
elementary,1
produces,1
producer,2
topic,1
darkest,1
perceive,1
sugar,3
embarrass,1
sums,3
who,5
politics,1
stigma,1
game,1
citizensof,1
manifesting,1
unexpected,2
tampico,4
contribute,1
faith,1
why,2
died,1
denies,1
candidate,1
looms,1
intelligible,1
whichwe,2
win,1
lawyer,1
granaries,1
wit,1
colleges,1
availed,1
recommended,1
barriers,1
matters,1
various,1
administrative,1
posterity,1
attention,2
fulfillment,1
visit,1
reduction,1
denied,1
extent,1
greeting,1
arteries,1
appointing,1
fit,1
familiarly,1
fix,1
honest,1
rank,1
assumption,1
outlet,1
congress:a,1
addition,1
doubts,1
sure,2
grow,1
congress:i,1
aggressions,1
excited,1
supremacy,1
locality,1
ordinarily,1
proceeding,1
am,4
an,1
unsullied,1
former,1
panic,1
extend,1
as,10
at,3
interpretation,1
inspectors,1
intermediate,1
looking,1
doubti,1
formed,1
hurt,2
be,7
prove,1
admire,2
enterpriscs,1
intimacy,1
thenew,1
systems,1
sudden,1
by,2
popularity,1
plainest,1
latterlylooked,1
abandonment,2
foot,1
charge,1
outstanding,1
keeping,1
quicken,2
familiar,1
co,1
breathe,1
gaps,1
food,1
partner,1
mentors,1
freely,1
naive,1
observers,1
font,1
expenditure,1
commanders,3
progressives,1
language,1
do,2
observe,1
painfully,1
dr,1
unsatisfied,1
accomplished,2
attacks,1
won,1
rare,1
garment,1
novices,1
preceded,1
criticism,2
gases,1
which,13
needs,2
efficiencyof,1
rebuking,1
quorum,1
profound,2
importantreforms,1
never,7
usurp,1
piece,2
amending,1
foe,1
unmistakable,1
for,6
content,1
plow,1
relinquished,1
isthmus,2
perhaps,1
rate,1
skill,1
prophecy,1
prosperity,1
representatives:i,1
contrary,1
contend,1
covers,1
congress:eight,1
recalled,1
thence,1
go,1
tochoose,1
conserve,1
justly,1
form,1
500,1
instrumentalities,2
huertista,2
fort,1
renew,1
he,2
forestry,1
oureconomic,1
withdraw,1
hi,1
feather,1
placed,1
poland,1
welfare,1
divine,1
parliaments,1
memorable,2
authorization,1
relationships,1
intricate,1
else,1
four,3
andfactories,1
513,1
contemplate,1
514,1
easily,2
itemized,1
if,5
manipulation,1
ii,1
likely,1
unbroken,1
advisory,1
in,29
maturity,1
audacity,1
is,16
impartiality,1
it,29
fry,2
disputes,2
iv,1
announce,1
somebody,3
ix,1
supplement,1
gave,1
alteration,1
become,2
$10,3
accrue,1
$15,1
clamorously,1
freest,1
majestic,1
$18,1
inflation,1
disposal,2
settlement,1
cutover,1
standforth,1
535,1
irreproachable,1
sending,1
interspaces,1
irreparable,2
ability,1
belief,2
delight,1
vassal,1
$20,2
immigration,1
slackened,1
$24,1
knew,4
suggestion,1
$26,1
clearing,2
places,1
disposition,1
542,1
troublesome,1
equals,1
conscious,1
accomplishment,1
ll,1
impeded,1
pursuant,1
political,1
jeopard,1
while,1
enterprises,3
contentment,1
second,1
inelastic,1
that,31
faster,1
than,1
sufficient,1
me,3
limit,2
locked,1
tolerance,1
profited,1
contest,1
precedents,1
3rd,2
mr,2
fertilizers,1
turmoil,1
possessed,1
formsthe,1
feeling,2
my,1
expansion,1
license,1
fiscal,5
halts,1
gaze,1
dream,1
noble,2
postpone,1
heat,1
no,3
immortality,1
chambers,1
careful,1
seal,1
storage,5
veritable,1
570,1
illusion,2
head,1
elapsed,1
misunderstanding,1
of,66
imported,1
reserve,4
peradventure,1
hear,1
occupied,2
on,2
slights,1
or,23
embark,1
tendencies,1
disbanded,1
guardians,1
intelligent,4
ineffectually,1
disavow,1
easier,2
vitalizing,1
communicating,1
dardanelles,1
knit,1
sitting,1
theirdisguises,1
increasingly,1
indications,1
$76,1
nation,2
readily,2
splendid,1
adaptation,1
registered,4
convenience,1
downfall,1
determination,1
discipline,1
596,1
extremely,1
proclamation,3
inevitably,1
adversaries,2
rebirth,1
modelfor,1
hundreds,1
recent,1
they,5
inevitable,4
consciousness,1
them,2
then,4
huertistas,1
seat,1
seas,1
re,1
concepts,1
wander,1
adopt,1
attorney,3
guardianship,1
oppose,1
bridge,2
obtained,1
singular,2
$93,1
strengthening,1
mistrust,1
seed,1
executed,1
seek,3
plottings,1
seen,1
eighteenth,1
seem,1
covenant,2
forester,1
origins,1
so,8
apart,1
gentlemen:i,1
calendar,2
st,1
necessary,3
decision,1
righteous,1
squadrons,1
singly,1
rectified,1
abominable,1
souls,1
analyzed,1
started,1
thierry,1
heed,2
single,2
closed,1
consequent,1
to,50
censorship,2
vindicated,2
commercial,3
joint,1
separate,1
reasonable,1
generations,1
thoughtless,1
sighted,1
rules,2
ruler,1
revolted,1
anation,1
military,1
up,3
us,12
waters,1
usual,1
purchaser,1
this,8
reasonably,1
anarchy,1
greatestthings,1
vi,1
purchased,1
sees,1
failure,3
know,2
dyestuffs,1
suggesting,1
workingmen,1
changed,1
changes,2
privacy,1
we,8
prophets,1
summoned,1
examination,1
creations,1
unfitted,1
disposed,1
emphasize,1
conditionsof,1
slight,1
previous,1
hawaii,1
securing,1
reading,1
argue,1
ceremonious,1
xi,1
compensation,2
deeper,1
monopolies,2
localities,1
held,1
courts,1
fruitful,1
april,1
beyond,1
troops,1
restricts,1
forthwith,1
scant,1
terms,1
confidences,1
deeply,1
proof,1
surrounding,2
phase,1
contract,1
conclude,1
elections,2
susceptible,1
antecedents,1
befriend,1
provisions,3
insight,1
workingman,1
combinations,1
fabric,1
revolutionary,1
undersea,2
mistakenly,1
unemployment,2
praying,2
force,4
compromisedeeply,1
ascertaining,1
precautions,1
south,2
north,1
tools,1
gen,1
safety:first,1
ger,1
get,1
continues,1
course,1
power,2
mediation,1
precious,1
yielding,1
sell,1
continued,3
sojourning,2
suspect,1
abide,1
indiscriminately,1
help,1
histrionic,1
ended,1
self,3
treasure!,1
dress,1
addresses,1
devotionit,1
obliged,1
sound,1
translate,1
striven,1
healing,2
create,1
xii,1
criminal,1
tariffs,1
proud,1
uplifted,1
incapacity,1
xiv,1
creatures,1
unexampled,1
judged,1
sent,3
addressed,1
purposes,3
treasured,1
send,1
thereupon,1
expenses,1
here,2
necessities,1
concrete,3
purpose,8
regret,1
scale,1
security,1
challenged,1
organize,1
station,1
citizens:we,1
factory,3
costs,1
stating,1
confidently,1
inactivity,1
locomotives,1
follow,1
revenues,1
intent,1
factors,1
treaty,3
intend,1
german,2
satisfactorily,1
numerous,1
recognized,1
exclusions,1
without,11
youth,2
involuntary,1
recruiting,1
sovereignty,3
authorize,1
subtly,1
audience,1
thus,2
possess,1
devise,1
ghostly,1
democratization,1
much,3
entitled,1
poise,1
rejecting,1
anybody,2
masters,1
mastery,1
purposeor,1
currents,2
disrepair,1
maelstrom,1
resolved,1
committed,2
hardships,1
committee,2
stings,1
namely,1
union,5
omissions,1
indisputably,1
subtle,1
veins,1
americanism,1
indisputable,1
returned,1
god,1
adopted,1
novel,1
prominence,1
standard,1
reports,1
correct,1
completeness,1
sworn,1
got,2
grosser,1
dominate,1
imitate,1
rearrange,1
possessions,1
injustices,1
ambition,1
aspirations,1
enlarge,1
area,1
shipment,1
european,3
zeal!,1
contributes,1
lack,1
governmental,1
neglected,1
success,1
authority,2
remarked,1
605,4
cleared,1
shocking,1
young,1
regional,1
facilitation,1
gasoline,1
eloquence,1
inexhaustible,1
standardized,1
unhindered,1
reputed,1
prudenceto,1
sustaining,1
departed,1
daunts,1
unpardonable,1
negotiations,1
evolution,1
armistice,2
laborers,1
complaint,1
battlefield,1
theirefforts,1
named,5
injustice,2
offense,1
indifference,1
foreigners,1
considered,1
channel,1
disarrangements,1
delivered,1
hamper,1
favorable,1
entire,1
changing,1
approach,1
unconscionable,1
631,1
decisive,1
write,1
wage,1
shipyards,1
arid,3
passengers,1
andsocial,1
loyalty,2
understand,3
heaven,1
intelligence,1
vigorously,1
unhappy,1
enrolment,1
million,4
arrogance,1
strongly,2
644,3
analyze,1
manifested,1
shadows,1
despair,1
champion,1
parcels,1
larger,1
gun,1
wait,2
hundred,1
restrict,1
instant,1
native,1
entente,1
privateand,1
hitherto,1
laid,1
consequence,1
availing,1
particularly,1
contending,1
dominant,1
discussed,3
opportunities,3
inconsistent,1
pacific,1
names,1
entity,1
tide,2
armaments,1
possibilities,1
tarnowski,1
almost,2
equally,1
opportunitysweep,1
sustained,1
suits,1
associate,1
scrupulous,1
stricken,1
earlier,1
whether,6
dislocating,1
beneath,1
liability,1
4th,1
basis,1
affected,1
consciousnessof,1
army,2
inveterate,1
arms,1
virginia,3
governor,2
unite,1
replied,1
busi,1
policies,2
manifestly,2
units,1
indulge,1
unity,2
sacrificed,1
694,1
sorely,1
pursue,2
ties,1
catastrophe,1
extra,1
land,1
identic,1
sacrifices,1
elevation,1
imposing,1
countryside,1
performing,1
againstfortuitous,1
doubtful,1
apologies,4
conduct,1
livelihood,1
objectives,2
extending,1
walk,1
marred,1
witnessing,1
discussion,1
advertising,1
incidental,1
arrangements,1
thinks,1
welcome,1
events,1
oughtto,1
discussing,1
mankind,2
chaos,1
nationare,1
abundant,1
want,1
herewith,1
uncover,1
critically,1
induce,1
difference,1
must,1
circle,1
memorandum,1
populations,1
grazing,1
was:,1
reside,3
crops,1
chase,1
colors,1
accident,1
incompatible,1
found,1
defense,2
currency,2
canal,3
arts,1
limits,1
unaltered,1
ideals,2
disarmament,1
intimate,1
simplification,2
profiteering,1
entirely,1
disclose,1
marts,1
instigation,1
tragedy,1
ghosts,1
powerless,1
undetermined,1
perusal,1
antagonize,1
contrived,1
preface,1
till,1
attend,1
antagonism,2
waged,1
goods,1
voting,1
had,2
secure,2
guided,1
reposes,1
guides,2
late,1
proclaimed,1
locomotive,1
things,2
tile,1
immense,1
passages,1
has,10
reposed,1
unlock,1
last,1
definite,4
adapt,1
weight,1
measure,1
wars,1
evacuated,2
exports,6
impossible,1
effort,1
settling,1
submarines,1
exercising,1
weapon,1
forbade,1
ends,1
denying,1
steady,1
vote,1
early,1
commissioners,1
disease,1
yet,3
lowering,1
intruded,1
reserving,1
alike,3
wages,1
andhumanize,1
inasmuch,1
disobedience,1
lessly,1
laud,1
time,5
applications,2
bulwarks,1
happy,1
sickness,2
governments,1
her,2
authorized,3
deprive,1
torpedo,1
having,3
laws,3
russian,7
lesson,1
supreme,1
philosophy,1
sentimentalizingit,1
passenger,2
enemy),1
fearlessly,1
worship,1
conductors,1
consecrated,1
merits,3
falseness,1
confirmed,1
alien,2
sanitation,1
ways,1
cutsus,1
grasping,1
efficient,1
chair,1
consistent,2
reverse,1
giantmachinery,1
subsidies,3
garden,1
governed,1
small,3
gallant,2
before,8
punctilio,1
aviation,1
him,4
hailing,1
his,4
emphasis,1
beat,2
bear,1
thatcan,1
awaited,1
repeatedly,1
resist,2
history,4
instinctively,1
grossly,1
stimulate,2
26th,2
rehearsed,1
square,1
careless,1
camps,1
obligedto,1
interference,2
hopelessly,1
point,1
knightly,1
uttermost,2
toall,1
diverted,1
agitators,1
hospital,3
hasteto,1
fronts,1
deserve,1
restore,2
hereafter,1
alternative,1
responsibilitywhich,1
crowded,1
mean,1
approve,1
reproaches,1
asunder,1
suggestions,1
determining,1
inwrought,1
settlements,1
been,9
cordiality,1
harvested,1
advance,1
foregoing,1
strict,1
you,24
safely,1
lavishly,1
limitations,1
preference,1
opportunity,1
active,2
court,1
lacked,1
deals,1
dealt,2
councils,1
natives,2
obstruction,1
nationthe,1
shiver,1
cited,1
hot,1
unsafe,1
abuses,1
characteristic,1
interior,1
thereto,1
how,5
neutrals,1
blare,1
subjects,1
overcoming,1
assemble,1
march,2
repel,1
advantages,1
meet,1
regarded,1
answer,1
calls,1
restored,3
thrive,1
encroachments,1
spokesmen,1
passions,1
dispatch,1
putting,1
sometimes,1
questions,11
promise,1
beif,1
aggregating,1
reckoning,3
reply,1
ignored,1
dolphin,1
perpetrated,1
enactment,1
afterthought,1
count,1
poignantly,1
pathways,2
othersundone,1
vision,2
thereof,4
blame,1
abet,1
confusion,1
carrying,2
affording,1
beginning,1
waiting,1
partisans,1
question:,1
exposed,1
notice,4
entailed,1
asia,2
tangible,1
scrutinized,1
although,1
approximately,1
encouragement,1
decades,2
fortunes,3
president,4
contracting,1
erred,1
therein,1
dropped,1
america,7
superficial,1
bend,1
action,4
manifold,1
stunted,1
oration,1
gauge,1
fired,1
suspected,1
unafraid,1
altered,1
760,1
accompanied,1
fires,1
afford,1
reached,1
asks,1
men!,1
impression,1
transcendedthe,1
comprehended,1
acting,1
mules,1
enforcing,1
dealings,1
deliver,2
products,1
eight,2
outlaws,1
shielded,1
periods,1
guaranty,1
could,2
topics,1
strike,1
5th,1
marks,1
factories:,1
defining,1
withhold,2
presumptuous,1
trusted,2
affixed,1
able,1
nothingwill,1
forged,1
concerned,1
conscience,1
accommodating,1
british,1
thoughtsas,1
outlays,1
solution,1
international,2
citizen,1
cities,1
sooner,1
difficult,1
steps,1
friends,1
corporations,2
forget,3
principles,2
surtax,2
tardily,1
present,3
curtail,1
problems,4
arrested,3
strife,1
belong,2
borders,1
best,2
movements,1
assuredly,2
advise,1
rooted,1
magnitude,1
regulating,1
genuine,2
excitements,1
certainly,1
spokesman,1
pretended,1
stern,1
compound,1
principle:,1
concerning,1
regulation,2
intensely,1
sternlyand,1
mere,1
accommodation,5
opinions,1
humancost,1
profess,1
manhoods,1
feared,1
corroded,1
cover,1
congratulating,1
statesmanship,1
covet,1
hawaiian,1
based,2
largeand,1
herein,5
pliancy,1
something,3
intention,1
pointed,2
thereby,1
impulse,1
concur,1
nevertheless,1
fact,2
fundamental,4
unmindful,1
pieces,1
bases,1
particulars,1
free,8
equality,1
dictation,1
particular:,1
rebellion,1
reaction,2
valor,2
thorough,2
actually,3
face,2
congratulation,1
alsace,1
cessation,1
afraid,1
stagnation,2
weare,1
invite,1
coordinated,2
calculation,1
habitual,1
instinct,1
lyman,1
unregulated,1
independence,2
coordination,1
niggardly,1
afforded,1
whenever,1
deliberating,1
awkward,1
molding,1
ruin,1
commands,1
prolonging,2
impatient,1
please,1
finding,1
aswe,1
judging,1
vital,2
salvage,2
rule,1
condemn,3
canvass,1
resentment,1
decrees,1
unregarded,1
coordinating,2
certainty,1
commend,1
indeed,3
things!the,1
deficiency,5
professed,1
rightexalted,1
removal,1
comment,1
venerable,1
transcend,1
saywhat,1
railroads,5
volunteered,1
spoiliation,1
guns,1
sturdy,2
comparatively,1
equalize,1
professing,1
fair,1
bestir,1
preparation,1
fain,1
compatible,1
politic,1
safety,1
enable,1
slavery,1
provisional,1
arise,1
dressed,1
facilitating,1
doors,1
fail,1
steel,1
hillsides,1
triumphs,1
isolated,1
iii,1
immemorial,1
privilege,1
foreign,8
fall,1
blaze,1
meager,1
boldly,1
proscribed,1
undergo,1
abstract,1
excel,1
appearance,1
liquid,1
wings,1
hereby,5
forgot,1
runs,1
first,1
perfect,1
clearly,1
from,17
interlockings,1
finished,2
rejection,2
lustre,1
manufacture,1
speaker,1
fame,1
repair,2
aforesaid,1
death,1
advice,1
according,1
factories,1
error,1
bestow,1
stead,1
despotism,1
differential,1
attendant,1
operations,1
paper,1
winds,1
liberality,1
value,1
concealed,1
listening,2
fortune,1
dynasties,1
stages,1
growth,1
weave,1
objects,1
imperishable,1
shaken,2
impunity,1
resolution,1
countenanced,1
properly,2
poor,1
unanimous,1
farm,1
gratified,1
definitions,2
ashamed,1
unlikely,1
virtually,1
adapted,1
persons,2
charges,1
800,1
municipal,2
intelligently,3
charged,2
firmly,1
providing,1
weeks,1
fate,1
hasten,1
steadying,1
insistence,1
prowess,1
maneuver,1
kindled,1
retire,1
intoour,1
close,1
linked,1
signified!,1
embarrassment,1
fast,1
overt,1
invasion,1
precedent,1
falsehoods,1
citizens,1
persuasive,1
nine,1
arrayed,1
concurrence,1
asserting,1
isn,1
rural,1
mutuality,1
concord,2
fortunately,1
interpreters,1
acid,1
agricultural,1
post,1
blush,1
utterances,1
discouragement,1
hurtful,1
businesslike,1
its,2
constructive,2
remedy,1
nullify,1
respect,2
recuperation,1
port,1
843,1
adjustment,1
hesitate,1
income,1
joining,1
united,4
production,1
directors,2
searching,1
choose,1
fleets,1
treachery,1
peaceful,1
miles,1
undo,1
previously,1
industrially,1
strikes,1
disinterestedness,1
democratic,7
bills,1
malevolence,1
citizenship,1
improvement,1
steadfast,1
marines,2
enterprising,1
pledge,1
weshall,1
pushed,1
number,1
obedience,1
casual,1
property,1
centers,2
utterance,1
shorter,1
nothing,1
slackens,1
6th,1
handle,1
isolation,2
repaired,1
urged,1
masses,2
happily,1
forward!,1
cannotsecurely,1
urges,1
mortgages,1
generously,1
city,1
forthis,1
confident,1
fairer,1
local,2
courage,1
891,1
extravagant,1
yield,1
promptly,1
assertion,1
ordinance,1
incidentally,1
rests,2
filled,1
satisfaction,1
heartening,1
removed,1
powerful,2
knowingly,1
stimulated,1
unlocked,1
points,1
absorbed,1
elapse,1
modified,1
presume,1
maintained,1
uncensored,1
pregnant,1
border,1
read,1
touch,2
real,1
bealtered,1
unit,1
mobilize,1
archipelago,1
coupled,1
shattered,1
adherents,1
facilitate,2
andabuses,1
failureand,1
headlong,1
today,1
construction,1
predict,1
highpurpose,1
saying,1
universal,1
recuperative,1
fifteen,1
radical,1
deliberately,1
looked,1
mills,1
contingent,2
germany!,1
wrongs,3
formulated,1
transcendent,1
application,1
productive,2
irresistibly,1
thebeginning,1
formally,1
ferment,1
comprehend,1
reason,1
intimation,1
ship,1
acts,1
exalted,1
annual,2
exclusive,1
using,1
reconciled,1
completed,1
demand,1
shortening,1
turkey,1
proofs,1
gently,1
completes,1
autocracy,1
frequently,1
handed,1
acquire,1
worth,1
fertile,1
notion,1
deeming,1
releasing,2
openness,1
taken,3
takes,1
popular,1
broken,1
lacking,1
broker,1
fitted,1
accurs,1
ordnance,1
armed,1
huerta,1
centered,1
occasional,1
individuals,1
indiscreet,1
repeated,1
debate,2
sussex,1
either,2
unrestricted,1
preach,1
recollection,1
helpful,2
machinations,1
those,5
estimates,2
courses,1
motives,1
sanguine,1
lifted,1
significant,1
damageits,1
worse,1
arbitration,3
catalogue,1
prosecuted,1
difficulty,1
longer,3
debase,1
everywhere,3
senate,1
gladly,1
colleagues,1
parties,1
selling,1
worst,1
plainness,1
leaving,1
forbearance,1
unlawful,2
planted,1
attract,1
show,1
disappear,1
peremptorily,1
recession,1
shot,1
vigilance,1
crowding,1
street,1
arrive,1
feverish,1
hence,1
seamen,1
trainmen,1
infringed,1
unto,1
learned,1
equipoises,1
substance,1
estimated,1
vagueness,1
suddenly,1
receipts,5
compensated,1
earnestness,1
guidance,2
nervous,1
heedlessnesshave,1
delicate,1
poured,1
rent,1
proficiency,1
vocational,2
largely,1
awakened,1
lexington,1
severely,2
designate,2
stiffly,1
waits,1
calculable,1
eighteen,1
epic,1
unification,1
rely,1
bounds,2
$104,1
vindicate,1
purely,1
perfectlyadapted,1
guard,2
evades,1
settle,2
holdscapital,1
madam,2
pressing,1
freedom,1
criminals,1
stress,1
consulted,1
fraudany,1
mexico,12
unsuspecting,1
noisily,1
shut,1
conspiracies,1
mature,1
amicable,1
bonds,1
minded,1
influence,1
cloud,1
1776,3
responsibilities,1
battleships,8
housewife,1
england,1
corrupted,1
crisis,1
forgiven,1
temporarily,1
exigent,1
important,1
nominating,1
daily,1
correction,2
omit,1
$134,1
limitation,2
footing,2
adjective,1
federalist,1
billion,1
naturalization,1
compliment,1
sheet,1
correcting,1
rest,2
comply,1
original,1
adherence,1
theirlives,1
discontinued,2
calmcounsel,1
gets,1
differ,1
handsof,1
afternoon,1
totry,1
twelvemonth,1
interruption,1
investigation,3
front,1
offer,1
diplomatic,1
complex,1
snuffed,1
healthful,1
918,1
afterwards,1
mates,1
adequately,2
neutralization,1
narrowly,1
accurately,1
astonishing,2
ours),1
namedme,1
plans,1
plant,1
disrepute,1
readiness,1
contemned,1
intractable,1
civic,1
sixth,1
servant,1
offered,1
shipowners,1
civil,2
subsequent,1
national,9
indicate,1
principalities,1
sixty,1
contain,1
incorrect,1
words,3
founded,2
benefited,1
entered,1
tendine,1
dissatisfaction,1
difficulties,1
andbuilt,1
somewhat,2
validity,2
rooms,1
precede,1
excused,1
developed,1
nearest,1
detention,1
monopolized,1
950,1
951,1
smallness,1
contact,2
disadvantage,1
detachment,1
champions,1
ineffectual:,1
inadequately,1
assurance:,1
anxiety,1
exploited,2
adjust,1
whenthe,1
parts,3
western,1
helps,2
vigorous,1
mediator,1
party,19
duties,2
however,1
invidious,1
laggards,1
distrusted,1
sources,1
trained,2
relates,1
theyears,1
liquidated,1
packing,1
salute,1
wronged,1
signs,1
related,1
candid,1
indignantly,1
views,1
directed,3
assurances,2
countrymen:i,1
unacceptable,1
historic,4
false,1
wreath,1
980,1
farmer,1
envelopes,1
prompt,1
torpedoed,1
expert,1
fulfill,1
provoking,1
mechanical,2
sick,1
counsels,1
candor,3
output,1
anapprehension,1
majority,1
join,1
costume,1
crown,1
sentence,3
faithfully,1
vain,1
ordinary,2
drink,1
largeness,1
verdict,1
impulses,1
breeding,1
recommending,1
brought,1
works,1
alive,1
proportion,1
pursuit,1
payments,2
emerged,1
thinking,1
ruthless,1
world,22
composed,1
prejudice,1
december,1
embarked,1
everything,1
urgent,1
guardian,1
programme,6
italy,1
side,1
break,2
usurped,1
willingness,1
comfort,1
century,1
report,1
rememberedit,1
powers,1
reminding,1
paused,1
debatable,2
cotton,2
outrage,1
expresses,1
high,2
changesin,1
publication,1
coercive,1
adequacy,1
levied,1
expressed,1
directly,1
different,1
administered,1
awaits,1
usurper,1
officially,1
level,1
adjusted,1
restrictions,2
roots,1
preserve,1
establish,1
proclaim,1
belongs,1
attached,1
dogmatize,1
errors,1
birthday,4
pursues,1
provincialism,1
predominant,1
scores,1
preservation,1
enjoys,1
total,1
pursued,1
loses,1
countrymen,1
loser,1
consumer,1
initiative,2
social,2
interesting,1
cross,1
raised,1
control,10
drill,1
lobby,3
provincials,1
earth,1
footinig,1
reconstruction,2
overthrow,1
backs,1
cunning,1
philippine,1
threatening,1
intercourse,1
commanding,1
facilitated,1
behalf,1
somewhere,1
supposing,1
injure,1
exert,1
composite,1
hinder,1
reunited,2
injury,1
vienna,1
exhibit,1
inadequate,1
4067,1
4068,1
4069,3
unmodified,1
remaining,2
accept,2
yearning,1
overthrew,1
appreciated,1
lords,1
clergymen,1
affront,1
surrendered,1
access,1
primitive,1
redeemed,1
apprehension,1
sims,1
accomplishment!,1
palermo,1
4070,3
uppermostin,1
harsher,1
audit,1
key,1
conferences,1
silent,1
stopped,2
afield,1
saviors,1
cloak,1
appoint,1
stones,1
vast,2
fourth,1
conspicuously,1
declare,2
guiding,1
available,1
confine,1
recognizable,1
debtors,1
dynamic,1
unusual,1
extreme,1
1812,1
sink,1
degree,2
brest,2
inquiries,1
especially,1
once,1
sine,1
recklessness,1
demonstrate,1
counties,3
insists,1
assessed,1
figures,3
records,1
pending,1
infantry,1
docket,1
exterminating,1
ameliorated,1
throughout,7
assent,2
charting,2
virtue,1
hotbed,1
compulsion,3
strokes,1
types,1
corrupt,1
contravention,1
speedily,2
initiating,1
specially,1
compromise,1
expedite,1
backed,1
reach,1
broadened,1
foreground,1
unjustly,2
squandered,1
rulers,3
justify,1
sight,1
standpatism,1
between,1
exhibited,1
inclusive,1
resourcesof,1
thrills,1
banker,1
deprived,1
jeopardy,1
seventeen,1
expenditures,1
following,1
provoked,1
wear,1
staves,1
weal,1
shallsearch,1
overseas,3
weak,1
impress,1
distressed,1
seeing,2
unaccommodated,1
assert,1
1871,1
unhesitating,1
ofpurpose,1
demobilized,1
place,1
lawless,2
regular,2
$222,1
objection,2
informed,1
sits,1
beckoning,1
dispute,1
observation,2
aggression,1
offenders,1
lead,2
expect,2
tangled,1
assess,1
gentlemen,2
passage,1
adequate,1
undivided,2
leaders,4
routes,1
assets,2
divert,1
plain,5
only,5
should,1
justice,9
refrained,1
officers,8
individual,2
loans,1
comprehends,1
accepted,1
dislodging,1
excitement,1
regards,1
continents,1
disloyalty,1
person,8
testimony,1
retaliation,1
parenthetically,1
enforce,1
arsenal,1
consciences,1
week,1
acknowledged,1
unthreatened,2
preaching,1
unselfishness,1
overemphasize,1
paris,2
gunboats,3
ready,6
studies,1
greatest,1
manufacturers,1
immunities,1
limited,1
studied,3
fearful,1
played,1
divest,1
accrued,1
manufactories,1
explosive,1
prepare,1
spoke,1
withdraws,1
fifty,1
readjustments,1
unhampered,1
withdrawn,1
discourage,1
owners,2
smacks,1
asserts,1
approved,1
would,4
reproach,1
warrant,1
unfeeling,1
devoutly,1
incomes,1
successfully,1
solid,1
reserves,1
yourselves,1
cooperative,1
diplomacy,2
size,1
applies,1
stringency,1
left,2
temper,1
reserved,1
liquidation!and,1
rejoice,1
statute,2
object,1
accessible,1
particularity,1
infinite,1
suffice,1
notable,1
unparalleled,1
balanced,1
miner,1
example,4
minds,1
things:,1
feeding,1
quiet,1
stewards,2
policy,13
rebuild,1
address,1
abbreviation,1
consisting,1
destroyed,1
throw,1
stature,1
fifth,1
thank,1
razed,1
accumulated,1
reimburse,1
violent,2
inaccessible,1
unreasonably,1
foodstuffs,1
provocation,1
reconsideration,1
bondage,1
implement,1
export,1
others,1
justifiable,1
making,5
sagacious,1
fashions,1
check,1
beset,1
8th,1
mines,1
supposed,1
conjectural,1
entangling,2
applied,1
indispensable,1
buildingup,1
society,1
nowhere,1
anticipation,1
lend,1
purged,1
balkans,1
housatonic,2
approval,1
indispensably,1
inequities,1
realized,1
expose,1
concentrate,1
avow,1
explosion,1
hercules,1
translation,1
well,1
realizes,1
handling,1
personnel,1
ambitions,1
outlook,1
affirmatively,1
observance,1
severally,1
gains,1
fellowmen,1
experiment,1
loved,1
docks,1
implication,2
fierce,1
reservation,1
cordial,1
cooperation,2
consigned,1
went,1
considering,1
distant,1
custody,1
cooperating,1
bringing,1
schools,2
prohibited,1
orders,2
managers,1
conserved,1
follows:whenever,1
matter,1
aero,1
walls,1
rails,1
neutrality,1
discourages,1
reminder,1
automobiles,1
lover,1
loves,1
discouraged,1
cheap,1
produce,2
reminded,1
perfected,1
industries,3
undoubtedly,1
unreasonable,1
unratified,1
residuum,1
communities,3
extravagance,1
capital,1
hostile,2
fuel,4
pleas,1
purposing,1
translated,1
upon,1
explosives,1
employee,1
pray,1
employed,1
platforms,1
bulwark,1
lag,1
ambitious,1
incontrovertible,1
biggest,1
function,1
west,1
raise,1
quite,1
employer,1
hated,1
employes,1
traffic,1
frontiers,1
law,6
comparison,1
lay,1
lest,1
differs,1
crave,1
less,3
successive,1
adventure,1
institutions,1
condition,1
were,10
ceremony,1
improve,1
desirous,1
taxation,1
inspirations,1
troop,1
similarly,1
expedients,1
declaration:,1
generous,3
constitutionally,1
soberness,1
possibility,1
bettering,1
distinguished,1
opening,1
heartstrings,1
declarations,3
industrial,5
spoken,1
equilibrium,1
maintenance,1
lieutenant,1
expedition,1
led,1
absorb,1
supply,1
rivalries,1
wherein,3
integrity,1
liable,1
destroys,1
let,7
cargo,1
press,1
philippines,1
subordinated,1
neighborhoods,1
night,4
courtesy,1
polity,3
each,1
tutelage,1
rendered,2
items,1
thirty,3
workman,1
perfectly,1
bankers,5
ardent,1
dominates,1
document,1
1919,2
dollars,1
untoward,1
proving,1
builded,1
promote,3
does,1
punishments,1
1918,1
1917,3
1916,3
1915,1
1914,1
1913,1
situation,2
1912,1
legislation,1
modifying,1
fraught,1
refused,1
perplexed,1
withdrawal,1
producers,2
1921,1
1920,2
homily,1
quit,1
economical,1
polish,2
vitalize,1
demanded,1
fashion,1
insurance,2
surely,1
principle,8
medical,2
cunningly,1
lie,1
source,1
childrenupon,1
unable,2
separation,1
vitality,1
fortheir,1
filipino,1
bias,1
homes,3
weakened,1
acquired,1
historians,1
tension,1
involves,1
judgments,5
doubt,2
develop,4
employing,1
involved,3
dominated,1
district,7
fixed,3
whereof,1
full,2
destiny,1
governmentsderive,1
away,1
cards,1
aspects,1
unmolested,1
painful,1
enhance,1
convention,1
harvest,1
fealty,1
suspicion,1
refusal,1
purchase,1
cooled,1
enlarged,1
equal,2
fund,2
moderation,1
paid,1
spared,1
theway,1
contemplating,1
punitive,1
three,2
remembered,1
payable,1
unselfish,1
suppression,1
season,2
fountains,1
payment,1
lonely,1
pale,1
deputy,1
threw,1
roads,1
piled,1
provide,1
bids,1
consultation,1
primary,1
inhumanity,1
clarified,1
enterprise,9
saluted,2
panama,3
wholesale,1
aided,1
low,1
merely,2
contradiction,1
meant,3
wealth,1
means,1
initial,1
impracticable,1
verythoughtfully,1
redress,1
fellow,1
$350,1
interests,8
door,1
commanded,1
quick,1
alliance,2
husband,1
experience,1
unselfishpurpose,1
commander,3
wasteful,1
zone,3
controversies,1
inappropriate,1
checked,2
affair,1
prescribing,1
necessitate,1
combination,1
obtain,1
coasts,1
minutes,1
particularize,1
sacrifice,2
particular,2
done,4
illegal,1
pause,1
economies,1
congratulate,1
ample,1
crudest,1
residents,1
ease,1
stageand,1
part,2
jealousy,1
workmen,1
expediency,1
perpetrate,1
expediting,1
east,1
unrestrained,1
relief,1
thither,1
statues,1
xiii,1
aristocrat,1
seeking,2
tides,1
ears,1
gratitude,1
earn,1
interfere,1
reclamation,3
insusceptible,1
regulated,1
fiery,1
whetting,1
compassion,1
conducting,2
attaching,1
asylum,2
allay,1
path,1
bind,1
startled,1
cannotforget,1
record,7
prevention,1
accepting,1
preventing,1
pass,1
mile,1
past,3
bill,4
easy,1
whose,3
scandals,1
smiled,1
domain,5
omitted,1
assigned,1
reverting,1
willful,1
relative,1
quartermaster,1
ungrudged,1
touched,1
profoundly,1
existed,1
adoption,2
philadelphia,1
thrives,1
mine,1
mind,1
grateful,1
reverence,1
involve,1
unwillingness,1
outrun,1
9th,1
inheres,1
phrases,1
london,1
added,3
emergency,4
down,1
recommendations,3
affaires,1
brings,1
habit,1
safeguardingof,1
adding,1
legal,5
signal,1
seated,1
alterations,1
agreements,2
varied,1
intriguing,1
interfered,1
upwards,2
regarding,1
month,1
occasions,1
trustees,1
acres,4
impossibility,1
bidden,1
dispensed,1
compatriots,1
rather,1
requesting,1
importance,1
worthy,1
title,1
corrective,1
miss,1
hemisphere,1
human,3
continuation,1
custom,1
energetically,1
blessed,1
permission,1
considerations,1
inconveniences,1
interpret,1
faction,1
arduous,1
universe,1
engendered,1
recoup,1
articles,1
append,1
stirnulation,1
brothers,1
deplorable,1
congress:since,1
division,1
navigation,1
impaired,1
supplies,1
mimic,1
whereas,1
usually,1
proudly,1
fear,3
signed,1
sense,1
classification,1
removing,1
printed,1
field,6
served,3
messages,1
opens,1
legitimate,1
realities,2
cosmopolitan,1
whereby,1
senators,1
coached,1
upset,2
serves,1
centrifugal,1
grievances,1
cleanse,1
mention,2
grudge,1
man,3
leisure,1
twenty,3
mar,1
contemplated,1
may,1
supplied,1
advocates,2
multiform,1
reforms,3
prostrate,1
obscured,1
authorizing,1
vividly,1
statutes,1
contemplates,2
feet,1
sprung,1
defending,1
recognition,2
me!,1
feel,2
fifths,1
residence,1
terrible,1
ideal,2
imperatively,1
equipment,1
heedless,1
ideas,2
interrupted,2
pressure,1
resourcefulness,3
becomes,1
literacy,1
feed,3
martial,2
directions,2
background,1
lists,1
lengthens,1
handsome,1
constitution,2
harvests,2
conceive,1
incursion,1
breath,1
men,1
louis,1
justification,1
physical,2
met,2
wicked,1
exactly,1
constituting,1
structure,2
surveyed,1
circulation,1
lightened,1
lodge,1
mercy,1
depend,2
about,4
danger,1
granted,4
patch,1
character,4
above,1
stick,1
disappearing,1
moderate,1
resident,1
height,1
myself,2
beaten,1
wonderful,1
received,1
surveyor,1
substantial,1
pitilessly,1
flood,1
quality,3
avoided,1
andforth,1
certificates,2
afresh,1
consistently,1
sincere,1
invested,1
prolific,1
shared,1
outset,1
timeand,1
vigor,1
association,1
eliminate,1
believe,1
fell,1
into,2
overtaxed,1
benign,1
supports,1
impudently,1
blunders,1
destruction,1
liquidation,1
stiff,1
cumulating,1
prosper,1
rudiments,1
though,2
associates,1
renewal,1
ottoman,1
appeal,2
swamp,1
transportation,2
balkan,3
everyday,1
clearness,1
appear,1
definitely,2
associated,1
holds,1
experts,1
open,3
forced,1
suffering,1
ascertainment,1
concentrationand,1
ascertainable,1
associating,1
gettysburg,1
uneasiness,1
felt,1
bears,1
conquest,1
sections,5
effected,1
assurance,1
fortnight,1
paths,2
forces,3
charmed,1
proposals,1
secured,1
allow,1
consciously,1
proper,1
poisonous,1
18th,2
bitter,1
peculiarly,3
stocks,2
rampant,1
urgency,1
organic,2
unaffected,1
evacuation,1
recently,1
staked,1
disclosing,1
incredible,3
exempted,1
sherman,1
renewed,1
money,1
riches,1
forever,1
ireland,1
achievement,1
claimed,1
whole,4
revolution,5
relation,1
ordination,1
obstacle,1
attempts,1
profits,1
still,5
relating,1
enriched,1
linking,1
constitute,1
toward,1
books,1
knowing,1
legitimacy,1
among,1
aliberated,1
continental,2
internal,1
signature,1
republican,4
enjoy,1
ourselves,6
throwing,1
naturally,1
believes,1
writing,1
peace:,1
federal,1
affronts,1
believed,1
academy,1
include,1
reckonings,1
sting,1
haste,1
monroe,1
destructive,1
altogether,1
hasty,1
ages,3
provident,2
voice,3
injuries,1
prepared,1
craft,1
compunction,1
amendments,1
manysided,1
perfecting,1
negligent,2
evade,1
legislated,1
uncertainties,2
expecting,1
discover,1
midday,1
imply,3
offset,1
excite,1
failed,1
exigencies,1
appointed,2
invaded,1
catered,1
luxuries,1
commonplace,1
prescribed,3
notifies,2
makeshift,1
destinies,1
prescribes,1
notified,1
selfishness,2
controversy,1
ultimately,1
command,1
compulsory,1
swarm,2
monthsof,1
quietness,1
revised,1
perfection,1
prevailing,1
desperate,1
saved,1
leading,1
(which,1
politically,1
urge,1
cruiser,3
unjustifiable,1
aswell,1
because,5
moving,2
agreement,1
dealing,2
agreeable,1
merchant,1
contains,1
marches,1
selection,3
conception,3
science,2
levers,1
happening,1
returns,1
aboard,1
detail,1
beware,1
forest,1
debated,1
occupations,1
interstate,1
eloquent,1
refuse,1
elevated,1
prohibition,1
hereunto,1
sweep,1
preferences,1
failures,1
andof,2
decreased,1
superlative,1
debates,1
emerge,1
exemplify,1
virile,1
anniversary,1
thirtieth,2
deliverance,1
misrepresenting,1
republic,3
unhesitatingly,1
historical,1
repetition,1
fitness,1
discrimination,1
tyrannies,1
artillery,2
surrender,1
safefor,1
obligatory,1
cruel,1
originally,1
intentions,1
jail,1
gather,1
insist,1
volume,1
energies,1
transact,1
materials,1
accoutrements,1
andin,2
outsiders,1
discriminating,1
cynical,1
candidly,1
technical,1
breakdown,1
indebtedness,2
stretch,1
spirited,2
rico,1
responsible,1
selecting,1
mistake,1
capitalist,1
beendeeply,1
toil,1
rich,1
agencies,1
chiefly,1
praise,4
exceedingbounty,1
significance,2
arises,1
visited,1
arisen,1
attacked,4
family,1
deliberate,1
referred,1
midshipmen,1
atmosphere,1
told,1
release,1
abiding,1
purify,1
marketable,1
toll,1
dispassionate,1
moral,1
rehabilitation,1
rancor,1
judge,1
sullied,1
similar,1
partnership,3
aliens,2
nay,1
foundations,3
thousands,1
shipbuilder,1
driven,2
incomparablygreat,1
indicated,1
against,3
pouring,1
holiday,1
remind,3
manufacturer,1
crude,1
withstand,1
indubitable,1
tomy,1
does:,1
encourage,1
holders,1
charters,1
punished,2
deficit,4
linger,1
stores,1
cession,1
cumulative,1
comprehending,1
concessions,1
stored,1
urgently,1
manifests,1
logic,2
forgetful,1
honor,2
perhapsno,1
losses,1
bureau,1
net,1
cable,2
conceptions,1
new,21
took,1
elaboration,1
dignify,1
more:,1
intervals,1
unimpaired,1
continuance,1
scales,1
heated,1
inconvenience,1
torn,1
mandate,1
items:,1
dispelled,1
reaching,1
respective,1
around,1
influences,3
define,1
dictate,1
stimulation,1
indefensible,1
manifest,1
employment,1
specific,1
obtains,1
workable,1
risks,1
engage,1
telegraphic,1
territory,3
amendment,1
developments,1
shift,2
impairing,1
birthright,1
bargain,1
securities,1
alaskan,1
decided,1
untended,1
despatch,1
fully,1
eliminated,1
intrigues,1
uninterrupted,1
disinterested,1
liberated,1
confound,1
hampering,1
slow,1
formulating,1
supplying,2
exchanged,1
dissipate,1
palpably,1
complexity,1
maybe,1
regrets,1
recommend,4
leniency,1
permitted,1
times:,1
disabled,1
expectations,1
protested,1
oftentimes,2
poison,1
quicksand,1
wilful,1
palpable,2
stayed,2
lincoln,1
absolute,1
understood,3
supported,1
resulted,1
chargeable,1
documents,2
culminating,1
underlay,1
neithercounsel,1
boast,1
housed,1
victoriano,1
sinister,1
houses,1
actualequality,1
marshaled,1
sovereign,1
attractive,1
imagine,1
town,1
boats,2
engineering,2
denizens,2
whatever,3
decrease,1
destroying,1
pawns,1
ignorance,1
rallies,1
designs,2
blind,1
color,1
hidden,1
graduates,1
nearly,1
simplicity,1
non,1
vested,1
nor,2
not,20
now,3
statement,1
lived,1
faintly,1
unsophisticated,1
thoughts,2
election,1
battled,1
necessaries,2
sailings,1
what,4
detailed,1
refer,1
pitiful,2
timely,1
risk,1
battles,2
rise,1
flame,1
excludes,1
twentyone,1
unquestioned,1
when,6
withheld,1
modest,1
excluded,1
conflagration,1
crush,1
endured,1
andto,1
loaned,1
struggling,1
catch,1
citadel,1
treason,1
practicable,1
give,1
counsel,2
lives,1
depends,2
dissolution,1
limiting,1
explicit,1
ships,1
determined,3
farms,1
utilize,1
pulpits,1
prevail,2
inhabited,1
ladies,1
burdens,2
implicit,1
explicitly,2
purity,2
sentences,2
direct,4
districts,1
flags,1
highroads,1
enabled,1
dissected,1
modern,1
befitting,1
ofservice,1
conserving,1
wrong,2
organization,1
crystallization,1
hampered,1
heads,1
certain,2
board,1
heretofore,1
eleventh,1
used,1
constantly,2
notification,1
overflow,1
threaten,1
citizenry,1
rhetoric,1
otherwise,1
marked,1
recital,2
intrigue,1
visible,1
tangle,1
borne,1
handicap,1
nearer,2
survival,1
market,3
keen,2
effects,1
association:i,1
indifferent,1
keep,3
citizens:,1
conventions,3
solemn,1
dictatorial,1
unworthy,1
forecasts,1
weigh,1
determines,2
imprisonment,2
deserves,1
necessarily,1
relaxed,1
alone,1
strive,1
along,1
emancipated,1
designed,1
reichstag,2
breach,1
handful,1
munitions,1
stimulus,1
systematize,1
adhering,1
shine,1
surpass,1
contained,1
aloof,1
fruitless:we,1
uses,1
propels,1
approached,1
necessitiesof,2
hearten,1
arbitrate,1
bring,3
annexations,1
hearted,1
equity,1
colonial,1
warfare,1
pitiless,1
neglect,3
employers,1
promoting,1
veil,1
urging,1
unlooked,1
league,1
furnishes,1
engineers,1
armenia,2
turning,1
peace,12
consideration,1
competitive,1
brother,1
frank,1
lawfully,1
permanency,1
reluctance,1
recourse,1
communications,1
search,2
whom,2
relinquish,1
sharpshooter,2
permanence,1
scarcely,1
havebeen,3
humanity,1
thepart,1
mounted,1
lasted,2
scorning,1
empowered,1
essential,2
clarify,1
oppressively,1
commissioned,1
generosity,1
accounted,1
warning,2
exclude,1
celebrating,1
commissioner,2
utmost,2
fractional,1
restlessness,1
fourteen,1
temptation,1
manhood,1
carry,1
arose,1
necessity,1
recreant,1
compelling,1
origin,1
pursuits,2
mistakes,1
mistaken,1
burden,1
precaution,1
sanction,1
trouble,1
class,1
attended,2
counter,1
kept,1
management,3
publish,1
counted,1
assign,1
promotion,1
presents,2
stiffened,1
very,3
decade,2
practice,1
congress,3
custodians,1
delayed,1
legislative,1
agony,1
bitterness,1
vessel,2
french,1
ungrudging,1
encouraging,2
issue,1
elastically,1
lower,1
vera,1
dictated,1
resulting,2
malign,1
imperilled,1
conservation,1
traditional,2
dictates,2
acted,1
untiring,2
continuing,1
wider,1
semblance,1
promptness,1
turned,1
solicitude,1
mediate,1
hungarian,1
this:i,1
strings,1
peril,1
dependence,1
veto,1
sadly,1
seemed,1
theirrights,1
draw,1
ofa,1
wandering,1
instrumentality,1
off,1
revolving,1
generally,1
unclouded,1
complete,1
transaction,1
domination,2
infringements,1
prodigal,1
marshal,1
relentless,1
claim,1
widespread,1
antique,1
months,1
enmities,1
confronted,1
chosen,1
expand,1
hateful,1
coal,1
survey,2
termed,1
tablets,1
athwart,1
draughts,1
code,1
swayed,1
passionate,1
hammer,1
abundantly,1
keys,1
considerable,2
oil,3
productivity,1
dreamed,1
proposition,1
sympathy,3
fight,2
brief,1
recover,1
determine,1
ores,1
considerably,1
voluntarily,1
montenegro,1
regiments,2
confer,1
drew,1
wrought,2
equip,3
lands,2
spiritual,1
crumbling,1
exercised,1
$600,1
wholesome,1
amounting,1
expedient,1
promised,2
speaking,1
province,1
exercises,1
disbursements,2
engines,1
accruing,1
promises,7
devasted,1
breaking,1
proposal,1
old,5
settled,1
opponents,1
instrumentin,1
bestowal,1
ancient,1
twelve,4
on:,1
austria,2
device,1
checking,1
conference,3
activity,2
opportunitiesof,1
variety,1
disturb,2
george,1
aiding,2
daunted,1
one,4
cents,3
connected,1
pull,1
crowned,1
dealer,1
acquaint,1
peacock,1
elastic,1
assist,1
threatens,1
materially,1
attained,4
acquiescence,1
country,3
excellence,1
willing,1
haphazard,1
innumerable,1
sincerity,1
excellency,2
trivial,1
thefires,1
details,1
satisfactory,1
instrumentof,1
aids,1
futility,1
serbia,2
patriotically,1
conscientious,1
treated,2
smiling,1
ensure,1
vouchsafed,1
suppose,1
obscure,1
elements:,1
solve,1
senate:on,1
$650,1
andfamiliar,1
support,2
deceive,1
drop,1
inoperative,1
destination,1
cold,2
resolutions,1
learning,1
pure,2
misconception,1
life,5
expects,1
establishments,1
lies,1
cases,1
wide,3
fiercely,1
mandates,1
premature,1
succeed,1
borrowings,1
location,1
$670,1
forego,1
proportions,1
unconsciously,1
covenanted,1
profitably,1
aptitudes,1
competition,3
none,1
displays,1
trammels,1
problem,1
closing,2
connection,1
presence,1
undertaking!,1
abandoned,1
watercourses,1
convoy,1
method,2
ominous,1
conjectured,1
streams,1
profitable,1
come,8
push,1
exist,2
freshly,1
examples,2
columbia,5
constitutions,1
lift,1
resourceful,1
misdemeanor,2
conceived,1
mending,1
sensibly,1
conscription,1
distribution,2
our,3
matures,1
out,1
capacity,1
cope,1
lightthat,1
consuming,1
dark,1
(the,1
precise,1
evidences,2
undertheir,1
dare,1
cool,1
desirability,1
puts,1
amazed,1
disciples,1
liners,1
firmness,1
unified,2
matured,1
lastly,1
chorus,1
owe,2
minimum,1
shallnot,1
perished,1
vindication,1
date,1
own,25
successes,1
partisan,1
publishers,1
consequences,1
politicsand,1
congress:once,1
development,1
maxim,1
like,4
asserted,1
resource,1
spiritually,1
branches,1
prestige,1
ending,1
efforts,1
proposed,2
council,1
maladministration,1
repression,2
ground,1
embassy,1
note,1
everybody,1
line,2
penalty,1
hearty,1
recovery,3
conveyed,1
undertakings,1
intends,1
purifiedof,1
hearts,1
affairs,7
cost,1
aims,1
refreshment,1
stories,1
will,3
confidence,3
dictator,1
groups,3
arbitrary,1
unskilled,1
oath,1
assured,1
challenge,1
dignity,1
functions,2
govern,2
your,4
explanation,1
these,1
begins,1
yearnings,1
contributions,1
together!,1
framed,1
graduation,1
victor,1
wasted,1
tragical,1
prison,1
sister,1
exporters,2
entanglement,1
dedication,1
neutral,2
day!,1
analysis,2
day:,1
righted,1
included:,1
historically,1
enlightened,1
thoughtfully,1
revived,2
humble,1
commodity,2
flight,1
independent,1
carriage,2
acquitted,1
ahead,1
achieve,1
senate:,1
tribunal,1
covenants,6
arrived,1
economically,1
insidious,1
slothful,1
borrowed,1
forests,1
faced,1
americans,2
component,1
impartial,1
overwhelm,1
blue,1
speaks,1
concludes,1
unprecedented,1
days,1
combined,1
disguise,1
faces,1
imperial,1
recruits,1
liberal,3
discuss,1
undone,1
acceptable,1
renders,1
harmony,1
specifications,1
wish,1
deadly,1
belonging,1
incredulity,1
wise,1
amounts,1
exceed,3
patronage,1
pan,1
hanker,1
pat,1
monarchs,1
invitation,1
pay,1
revival,1
enormous,1
especial,1
list,1
strange,1
rivals,1
candidates,1
wire,1
spending,2
darkened,1
circumstance,3
sinking,1
treasury,1
revise,1
claims,1
vanquished,1
paramount,1
preserving,1
permitting,1
child,1
adjourns,1
legislature,2
withholding,2
germany,4
divided,1
instrument,1
remove,2
wisdom,1
fatal,1
starvation,1
compiled,1
producing,1
confinement,1
secrecy,1
interrogation,1
depredations,1
treasure,1
live,2
responded,2
ventured,1
harbors,1
wits,2
victory,2
audacious,1
perform,1
uniforms,1
with,10
amended,1
impairs,1
service,4
there,5
victors,1
hopeless,1
invisible,1
american,3
americas,4
affords,1
russia,4
per,2
ceased,1
follows:all,1
period,1
proceed,1
offenses,1
impertinent,1
birth,2
confirmation,1
slowly,1
jointly,1
recurrence,1
ever,1
assisted,1
loving,2
even,2
restriction,2
equities,1
americaa,1
meetings,1
assumed,1
engaged,1
kinds,2
sbordinated,1
injured,1
restricting,1
peep,1
adverting,1
imperative,1
violence,2
piecemeal,1
swamps,1
attributed,1
desolation,1
competitions,1
apprehended,1
ungrudgingly,1
thoroughgoing,1
ceases,1
verge,1
requiring,1
ineffectual,1
attributes,1
prohibit,1
imposed,1
chide,1
appropriated,1
versailles,1
manner,1
foresee,1
pig,1
it!this,1
imposes,1
judgment,2
penitentiaries,1
members,1
stock,3
guarantees,1
terror,1
everyone,1
heroic,1
strengthened,1
guaranteed,1
indiscriminate,1
senator,1
simplified,1
evil,3
rising,1
locate,1
afoot,1
cause,1
represents,1
intended,1
explanations,2
working,2
redeem,2
conformity,1
department,2
subsidized,1
outlasts,1
liberties,1
chief,1
aircraft,2
accord,1
contributing,1
systematized,1
despite,2
followed,1
merchandise,1
renunciation,1
reunion,1
interested,1
triumphant,1
ply,1
formerly,1
vessels,2
action:,1
apparatus,1
astrayand,1
liberty,2
meeting,2
apprentice,1
landed,1
portions,2
confidential,1
displayed,1
inefficiency,1
wickedness,1
began,2
violations,1
waits:it,1
recognize,3
warehouse,1
compounded,1
foresaw,1
reality,1
processof,1
demonstration,1
actions,1
safeguard,1
diligent,1
fateful,1
dispersed,1
giving,1
scrutiny,1
facts,1
marine,1
hungary,1
inalienable,1
gettysburg!,1
freer,1
excuse,1
orkney,1
tariff,7
reorganization,2
escape,1
enlist,1
gives,1
retention,1
colombia,1
latest,1
$753,1
receive,1
surplus,1
guaranteeing,3
consulting,1
decadent,1
correspondence,1
declaration,3
shaping,1
standing,4
yacht,1
unspeakable,1
reconsiderations,1
onlyjustice,1
amuck,1
representatives,1
feelings,1
friendship,2
placing,1
disappointed,1
incite,1
continue,2
inexcusable,1
clerical,1
realize,1
offers,1
given,2
$774,1
pre,1
freed,1
guilty,2
pry,1
statutory,2
receipt,1
playing,1
maritime,1
employees,1
wishedto,1
rotating,1
pursuance,1
asking,1
hampers,1
surroundings,2
anything,2
agriculture,1
heavens,1
prudent,1
studiously,1
overcame,1
assembled,1
notwithstanding,2
windows,1
aggrandizement,1
potomac,1
genius,1
unquestionably,1
dominion,1
striving,2
assassination,1
circles,1
program,2
them:,1
put,1
struggle,2
grows,1
reassuring,1
conclusions,1
heritage,1
impertinence,1
unquestionable,1
light,2
apparently,1
unfounded,1
traitorously,1
indomitable,1
infection,1
methods,1
questioning,1
formulate,1
ornament,1
replenishment,1
consenting,1
barred,1
theme,1
grown,2
appropriation,1
predatory,1
henceforth,1
serviceability,1
desire,2
unintelligible,1
supplanted,1
touching,1
originative,1
unfortunately,1
disgrace,1
barren,1
january,2
permanent,3
foster,1
organized,2
summarize,1
choice,1
travel,1
facility,1
civilization,1
defeated,1
replace,1
appointment,2
listen,1
major,1
answering,1
vindictive,1
interrupt,1
feasible,1
funds,1
consider,1
eighty,1
prescribe,1
gravest,1
group,1
whither,1
imports,3
gross,1
employe,1
workshop,1
sailors,2
distrust,2
absolutely,1
deserted,1
sustain,1
thrusting,1
arbitrarily,1
request,3
substitution,1
composure,1
their,2
fuller,1
thirteen,1
banking,2
general,1
nominees,4
september,2
uphold,1
process,1
requirements,2
clear,1
eighth,1
encounter,1
clean,1
centripetal,1
duplication,1
forhimself,1
governing,1
marking,1
reelected,1
neither,3
fulfilling,1
glad,2
account,1
uneasy,1
sometime,1
undoubted,1
innocent,2
safer,1
debased,1
diligence,1
primaries,1
sinews,1
trip,1
said:look,1
lloyd,1
knowledge,1
soft,1
happen,1
loyal,1
july,1
venture,1
population,3
atlantic,1
route,1
enthusiasm,1
islands,3
trying,1
millions,2
wisely,1
comes,1
unwilling,1
soil,1
originating,1
beens,1
farming,1
drains,1
committing,1
democrats,3
june,1
series,1
embodying,1
represent,1
compete,1
covetousness,1
hold,1
fabricated,1
designated,4
prior,1
forbid!,1
talk,1
serviceable,1
landmark,1
train,1
dedicated,1
overburden,1
commonly,1
rapidity,1
ashore,1
creep,1
clangor,1
blithely,1
fide,1
scholar,1
granting,2
take,1
accompany,1
comity,1
immediate,3
origination,2
serviceably,1
relatively,1
boasting,1
theyare,1
some,4
purchasing,1
session,2
additional,2
themore,1
structively,1
passed,1
just,5
respects,1
sold,1
been!,1
pounded,1
holy,1
restraining,1
remembering,1
affects,1
lifts,1
strictly,1
tracks,1
home,2
existing,1
lodgment,1
print,1
proclamationwhereas,1
material,1
owned,1
peculiar,1
iron,2
curtailment,1
hope,1
distempers,1
soon,1
executive,2
austrohungarian,1
sons,1
assertions,1
heartless,1
classified,1
protest,1
loading,1
selfsacrifice,1
operative,1
vacant,1
heavy,1
underground,1
cancelled,1
impede,1
machinery,2
britain,1
newtonian,1
mailand,1
conquered,1
exploits,1
banded,1
file,1
insular,1
incidents,1
affirmative,2
creed,1
together,1
actuated,1
imperialists,1
within,4
health,1
gathered,1
heats,1
orders:in,1
agents,4
corrected,1
mediterranean,1
prospect,2
machine,1
efficiently,1
evening,1
nowhereelse,1
return,2
instance,1
practically,1
serve,2
accredited,1
seats,1
intercepted,1
inviolate,1
confused,1
fine,1
find,1
therefrom,1
host,2
backward,1
cables,3
pleasant,1
occur,1
drove,1
definitive,1
sort,3
seriously,1
fill,1
experiences,1
heart,1
contagion,1
task,1
convenient,1
true,1
position,1
since,3
sentiment,2
patent,1
soul,1
abundance,1
lusitania,2
dangerous,2
certificate,1
appears,1
effectually,1
hour,4
leadership,2
alliances,1
troubled,1
magazines,1
insuring,1
singularly,1
signalling,1
heard,1
experienced,1
execution,6
falling,1
discontented,1
processes,1
prospectof,1
sought,5
discredit,1
heaps,1
underlie,1
extraordinary,3
evident,1
tracts,1
merchants,1
coming,1
ruthlessly,1
armament,1
disturbances,1
believers,2
indemnities,1
firm,1
contribution,1
conveyance,1
annapolis,1
ignorant,1
fire,1
supplementing,1
fashioned,1
distinguish,1
numbered,1
enthusiastic,2
undertaken,1
disastrous,2
except,1
programs,1
prominent,2
intolerably,1
increments,1
outline,1
unless,1
plants,1
operating,1
ought,6
accordance,2
people,24
democracy,2
peninsula,1
celebrations,1
intolerable,1
operation,1
placesunreclaimed,1
obligations,1
reputation,1
inside,1
preponderating,1
leaves,1
restrain,1
adjusting,1
provincial,3
crews,1
five,1
beforehand,1
celebrate,2
admirable,1
lorraine,1
announced,4
squad,1
channels,1
campaign,1
systematically,1
qua,1
austro,1
conflict,2
seethe,1
reasons,1
rough,1
traders,1
america:,1
father,1
swept,1
purge,1
admirably,1
commerce,6
assistance,2
readjustment,1
towers,1
multiplied,1
declaring,1
schedules,2
wants,1
definition,1
wonder,1
every,1
summary,1
again,8
taxpayer,1
ratified,1
artificial,1
kinsmen,1
employ,1
coerce,1
desirable,1
during,1
embodies,1
degrees,1
consist,1
maturities,1
price,2
defensive,1
opportune,1
dependent,1
deplore,1
passionately,1
briefly,1
reduced,1
cherish,1
agree,2
resistance,1
welcomed,2
itself,2
nursery,1
anyone,2
pride,1
betrayed,1
embodied,1
favorite,1
distress,1
civilized,1
regions,1
hoped,1
damages,3
birds,2
substitute,3
uniform,1
moreover,1
causes,2
violate,3
hopes,1
collective,1
event,1
demonstrated,1
wherever,2
witnessed,1
established,2
sympathize,1
agency,1
railroad,2
multitude,1
unprepared,1
caused,1
prostrated,1
litovsk,2
cannot,1
threading,1
ferryboats,1
dawned,1
lawyers,1
masterly,1
prefer,2
statement:,1
struggled,1
outpouring,1
minority,2
reference,1
navies,2
publicity,1
assessing,1
depart,1
bottom,1
misled,1
representatives:it,1
accidents,2
fostered,1
travelers,1
autocratic,3
arbiter,1
errands,1
countrymen:the,1
intervention,1
publicist,1
accorded,3
thrilling,1
mobilization,2
accommodated,1
friendliness,1
statements,1
membership,2
superintend,1
making:,1
jealous,1
holding,1
moments,1
public,1
array,1
provocations,1
monetary,1
debauched,1
resources,6
municipalities,1
transports,1
trade,10
performance,1
ambassador,3
insisted,1
conferred,1
contentment!,1
quickened,1
moneys,1
unrest,1
building,1
tolls,1
setting,1
quote,1
alaska,1
quota,1
scorn,1
sorts,1
ran,1
bellowing,1
younger,2
raw,2
destroyers,7
authorities,1
hurried,1
nationality,2
placement,1
endure,1
helpfulness,1
uncertainty,2
sentimental,1
robbed,1
dollar,1
rolling,1
treatise,2
aspect,1
departments,1
indulgence,1
reconciliation,1
oppression,1
desperation,1
calling,1
qualities,1
frankness,3
shallow,1
scout,7
congestion,2
register,2
fleet,8
systemwhich,1
moved,1
act,11
helped,2
morrow,2
gifts,1
add,1
consent,1
helpless,1
toourselves,1
mutual,1
peacefully,1
therefore,2
exchange,1
washington,8
groans,1
trust,3
universally,1
soldiers,2
morals,1
schemers,1
prevent,3
disturbing,1
happiness,1
sorry,1
irresponsible,1
scope,1
nurtured,1
humiliation,1
provisions:section,1
incapable,1
message,2
irritation,1
truth,1
strikingly,1
exempt,1
collectively,1
age,4
smaller,1
ago,2
overlooked,1
years,1
decline,1
businesses,1
guise,1
system,2
erected,2
likelihood,1
reestablishment,2
spot,1
mighty,1
presenting,1
aid,2
mobs,1
other,3
providentially,1
minorities,1
imprudent,1
portentous,1
retain,2
drastic,1
air,1
skilled,1
crew,1
defeat,1
accommodate,1
steadily,1
involved:,1
speak,3
shackles,1
sacred,1
outcome,2
tender,1
monopolizing,1
meantime,1
boat,6
grains,1
reversal,2
impresses,1
future,8
royal,1
movement,3
reelecting,1
tolerable,1
body,2
amongst,4
brains,1
thoughtlessly,1
lifeblood,1
all,4
always,3
already,3
beenworthless,1
thefirm,1
tying,1
conspectus,1
toperform,1
conducted,1
adhere,1
expense,1
strangers,1
maintaining,1
territorial,4
singled,2
interfering,1
equipped,1
farthest,1
contracts,3
simpler,1
and,39
havenot,1
abroad,1
honorably,1
disposing,1
cruisers,14
unnecessary,1
any,2
reverses,1
duly,1
suggested,1
reliant,2
ninth,1
organizers,1
communicated,1
consists,1
until,2
honorable,1
collapse,1
dull,1
expanding,1
thought,1
concession,1
severed,1
prosecution,2
taste,1
treaties,1
anywhere,1
triumph!and,1
chiefs,1
english,1
poverty,1
resort,1
devoted,1
apt,1
perplexing,1
hosts,1
stuffs,1
spirits,1
males,2
000,2
citizensmeant,1
territories,5
choices,1
corruption,1
succeeded,1
increased,1
impotent,1
inspiring,1
fruits,1
pockets,1
are,7
safeguarded,1
patience,1
came,1
visions,3
where,4
broader,1
stirred,1
arm,1
retard,1
vice,1
art,1
enviable,1
thoughtful,1
administering,1
delegates,1
abraham,1
call,1
speculative,1
calm,1
wilson,1
ownership,1
partners,1
ask,1
theories,1
interminably,1
relations,3
subjugation,1
through,5
becoming,1
strength,1
(who,1
officer,1
disregard,1
offices,1
societyit,1
run,4
justified,1
enact,1
bomb,1
scrutinize,1
mother,1
view,1
ours,2
neighbors,2
yourself,1
results,1
accomplishing,1
vied,1
bold,1
admiral,2
dares,1
camp,1
agitation,1
volunteer,1
redemptions,1
name,1
spaces,1
neighborhood,1
crop,1
presided,1
abolish,1
absence,2
book,1
perplexity,1
negative,1
defend,1
crying,1
scruples,1
sympathies,1
resting,1
introduce,1
agitating,1
intimations,1
bona,1
radically,1
discourse,1
oust,1
assuming,1
duty,3
ardor,1
registrationsection,1
leader,1
yard,1
dangers,1
corruptions,1
discloses,1
subscribed,1
cast,1
anxious,1
officials,1
auditors,1
broad,1
congress:when,1
truly,1
greater,2
cash,1
elevate,1
case,2
generation,1
oppressive,1
admired,1
item,2
viii,1
undefeated,1
affections,1
matches,1
saving,1
cars,1
moon,1
flesh,1
care,1
participation,1
fulfilled,1
exercise,2
disservice,1
thejust,1
seldom,1
aptitude,1
protect,1
criticized,1
wastefulness,1
motivesin,1
more,4
heels,1
display,1
born,1
usurpation,1
distressing,1
beings,1
disorder,2
chastened,1
reluctantly,1
cruz,1
broadly,1
accounts,1
trodden,1
habits,1
tyranny,1
bidding,1
navy,1
simple,1
alleviate,1
nave,1
confusions,1
labors,2
connections,1
speculation,1
package,1
itis,1
kind,1
overburdened,1
animus,1
both,1
most,4
affection,1
ascertain,1
affecting,1
inspiration,2
forbid,1
wards,1
understands,1
rumania,1
patient,1
consummation,1
sad,1
mentioned,1
inseparably,1
prosecuting,1
profit,1
safeguards,1
move,1
amount,2
disclosed,1
assignment,1
sat,1
freemen,1
saw,3
earnestly,1
also,5
say,2
enough,1
increase,1
spread,1
favor,1
heights,1
organizations,1
guests,1
latter,1
treating,1
simply,1
bad,1
enlistment,1
gunboat,2
boys,1
facile,1
assemblage,1
awake,1
ban,2
retrospect,1
suffer,1
bar,2
pershing,1
draft,2
bay,1
suzerainty,1
violated,1
personal,1
violates,1
delay,1
submitted,3
globe,1
chemical,3
applause,2
greatly,1
hesitation,1
victorious,1
deal,1
strong,3
miscellaneous,1
scheme,1
hesitating,1
affect,1
scarcity,1
vantage,1
facing,1
dead,1
stillbeen,1
eyes,1
ministers,1
cleansing,1
sea,3
proves,1
drain,1
proved,2
see,7
responsibility,3
effectual,1
embodiment,1
dear,1
omission,1
compared,1
completion,1
set,6
unabated,1
joined,1
column,2
procedure,1
sample,1
practices,1
battle,1
admiration,1
unwillingto,1
earnest,1
jealousies,1
practiced,1
beauty,1
beg,1
shipping,1
advocacy,1
discharge,1
france,1
laborer,1
suspicious,1
complain,1
zeal,1
financed,3
she,1
lessened,1
resumed,2
finances,1
debt,8
little,3
deep,1
humane,1
confined,1
deem,1
capable,1
unhappily,1
getting,1
lemon,1
appalling,1
jersey,1
supervision,1
await,2
unfair,2
pretensions,1
sit,1
over,1
ballot,1
practical,3
six,1
living,2
bound,1
obviously,1
retained,1
selves,1
avoid,1
observant,1
fresh,1
bid,1
uttered,3
comprehensive,1
astonish,1
manifestations,1
big,6
modes,1
select,1
thankful,1
advanced,1
recommendation,2
andmore,1
nations,7
unfolded,1
improved,2
striking,1
convinced,1
steadfastness,1
model,1
tasks,2
reduce,1
inquire,1
large,1
surface,1
satisfied,1
transactions,1
foolish,1
foresight,1
operate,1
exclusively,1
defy,1
doctrine,1
reconsider,1
begin,2
valleys,1
professions,1
inquiry,1
strove,1
hopefully,1
tradition,1
congregate,1
table,2
amidst,1
resisted,1
change,3
systematic,2
punishment,1
stupendous,1
corporate,2
unembarrassed,1
instruction,1
facilities,1
improvements,1
theirs,1
constant,1
several,5
office,2
alleviation,1
northern,1
posts,1
stands,2
hearthfire,1
contagious,1
discretion,2
aright,1
thrown,2
permanently,1
clerks,1
enacted,1
behind,1
infinitely,1
compulsions,1
tenth,1
sentiments,1
box,1
hostility,1
bow,1
racial,1
auxiliary,1
iturbide,2
prices,3
highly,1
ournational,1
chance,1
nature,2
hedged,1
clerk,4
100,1
105,1
quarrel,1
forging,1
essentially,1
explicitness,1
tempting,1
waitupon,1
inviolable,1
county,5
stood,1
pains,1
fighting,2
democracies,1
encouraged,1
friend,1
prussian,3
communed,1
drawn,3
societies,1
deny,1
closely,1
tissues,1
pleasure,1
glory,1
morning,1
horse,1
mission,1
cheques,1
conditions,7
sub,1
advisable,1
cooperate,1
armythe,1
undisturbed,1
sum,1
ports,2
extended,1
serving,1
porto,1
current,1
secretary,2
137,1
managed,1
actively,1
copper,1
plainly,2
preferred,1
storm,1
postponing,1
makes,1
enemies,1
threatened,1
disavowal,1
sanitary,1
beloved,1
141,1
145,1
gallon,1
handled,2
venturing,2
depths,2
contacts,1
story,3
but,17
dissent,2
detriment,1
sincerely,1
symbol,1
buy,1
wantonly,1
wished,1
unequal,1
express,1
instantly,1
hadnot,1
written,1
wishes,1
passion,2
fills,1
coordinate,2
greatness,1
astronomy,1
162,1
ranch,1
enhanced,1
ocean,1
naval,2
vitals,1
higher,1
doing,1
divinity,1
idea,1
unfolding,1
prisoners,1
170,1
175,1
uponthe,1
disorganized,1
successful,1
normal,1
figure,1
brutal,1
deliberations,1
weaker,1
182,1
passports,1
weaken,1
ofgroups,1
zest,1
periodical,1
penitentiary,1
streets,1
tested,1
unseaworthy,1
immensely,1
middlemen,1
retiring,1
children,3
road,2
god!,1
review,1
devolving,1
nobody,1
guide,1
mailed,1
efficiency,1
goal,1
natural,1
arising,1
drank,1
comprehension,1
tranquillity,1
motto,1
substantially,1
flag,2
sympathetic,1
freight,1
james,1
derive,2
feature,1
climax,1
counseland,1
suggest,1
naphtha,1
litigants,1
elements,1
submission,1
concerted,3
argument,1
increasinginfluence,1
utter,1
begun,1
hopeful,2
annoyances,1
growing,1
utterly,1
seething,1
twelfth,1
enlargement,1
seemsthat,1
conspicuous,1
tenure,1
appropriations,2
goes,2
ugly,1
tax,1
towards,2
lovers,1
reparation,1
broach,1
quickens,1
ranks,1
chances,1
safe,1
destined,1
departure,1
presidential,1
herself,2
covering,1
instances,2
stout,1
distinct,1
aware,1
can,2
projected,1
drama,1
car,1
floating,5
limitless,1
appraisal,1
said,2
privately,1
carried,2
illustrious,1
motion,1
satisfy,2
idle,1
february,3
fault,1
distracted,1
weaddressed,1
really,1
carrier,1
beckon,1
carries,1
response,1
responsive,1
oblivious,1
independently,1
delegation,1
