harryTruman,Occurences
communist,15
german,14
reason,7
nation,5
japan,7
fighting,9
liberty,5
strengthen,5
because,8
state,7
energy,5
knowledge,5
employers,8
agreement,8
going,6
want,8
bill,62
countries,7
am,9
labor,21
000,7
turkey,16
peace,5
atomic,9
must,13
allies,5
much,6
conference,19
housing,9
overcome,5
enemy,6
believe,7
abuses,6
seek,8
sea,8
remember,6
greece,35
responsibility,5
defense,5
attack,13
civil,11
free,14
workers,9
agreed,13
situation,6
humanity,4
legislation,9
policy,13
think,6
unions,11
decision,7
black,8
union,6
right,5
soviet,10
democracy,9
such,5
americans,6
s,5
t,7
communism,13
under,5
relations,9
god,4
citizens,5
country,8
bomb,8
good,19
dominate,4
chinese,7
japanese,4
white,10
won,6
reparations,14
things,8
military,8
us,11
those,8
peoples,9
need,4
conquest,7
zones,8
never,7
take,5
korea,32
once,9
naval,6
forces,7
authority,6
know,9
western,9
wars,5
party,16
conflict,7
united,21
production,5
young,7
germany,20
back,9
effort,5
assistance,14
house,18
life,6
states,16
hartley,12
prevent,6
accomplish,8
common,6
democratic,6
germans,7
passed,9
every,5
human,5
just,5
vote,7
live,5
over,5
greek,17
convention,8
thoughts,7
bargaining,5
asia,9
victory,10
roosevelt,8
war,6
socialism,9
management,11
service,7
president,24
very,4
congress,7
told,5
republicans,33
poland,17
governments,10
american,5
nations,17
program,7
hope,7
entire,5
three,8
years,6
america,10
russia,7
far,9
work,7
toward,6
force,11
aid,9
don,12
against,14
republican,7
air,8
foreign,8
world,12
government,6
aided,5
freedom,7
rights,18
man,4
power,7
berlin,25
europe,13
aggression,17
great,9
help,6
future,9
80th,9
cannot,8
economic,10
ll,7
before,7
navy,9
own,11
political,5
office,12
upon,5
only,6
should,6
me,6
justice,6
funds,6
international,5
new,8
law,6
shall,12
history,7
done,10
communists,9
most,7
council,8
principles,5
coal,7
try,8
job,7
here,8
financial,9
faith,5
best,9
taft,11
platform,15
general,9
security,7
men,8
working,9
greatest,7
social,6
resources,6
also,7
say,10
any,16
