georgeHWBush,Occurences
cancel,1
half,2
hall,2
clinton,10
pretend,1
guards,1
mcclure,1
pick,1
ten,1
sake,2
energy,2
!,4
spreading,1
investment,1
),1
require,1
click,1
compassionate,1
standards,1
owa],1
1,2
2,2
3,1
4,1
5,2
6,1
7,1
8,1
9,1
=,1
strategicmust,1
czechoslovakia,1
ferdinand,1
telling,1
role,1
roll,1
concede,1
turn,1
perseverance,1
result,1
gold,1
opposition,1
same,3
mustit,1
procedures,1
commission,1
after,1
legalization,1
hand,2
rescind,1
resume,1
a,132
ordered,1
b,1
c,1
d,7
g,1
spiral,1
i,234
j,2
m,21
neighbor,1
blood,3
poem:,1
n,12
o,2
the,1
p,2
straight,1
entering,2
halt,1
sale,1
s,53
t,45
u,1
exciting,1
sunset,1
bubbling,1
x,1
obvious,1
information,1
dogged,1
resolve,1
thy,1
good,10
deploy,1
somalia,1
serious,1
predicted,2
!the,2
delivering,1
somalis,2
pillaged,1
fantasy,2
grandchildren,2
quayle,2
erode,1
unchecked,1
gone,1
sand,1
aside,1
familiar:,1
categorically,1
cia,1
scholars,1
reopening,1
harm,1
provided,1
protectionism,1
muster,1
verifiable,2
candidatepanamanianto,1
provider,1
earth:,1
provides,1
hard,1
dissident,1
effectiveness,1
roof,1
saps,1
quarters,1
multiple,1
congressmen,3
room,1
better,13
21st,1
permit,2
cancer,1
taking,3
breadth,1
bereaved,1
voters,1
immortal,1
hats,2
discharged,1
struck,2
hate,1
block,1
mckenzie,1
flow,1
order,4
reminds,1
protecting,1
hasn,1
indelible,1
timid,1
propose,1
reform,1
planningall,1
podium,1
coach,1
women,4
homesome,1
pink,1
woman,1
dumps,1
save,1
protection,1
pins,1
toe,1
mandatory,1
unforgettable,1
frankly,1
tom,1
top,1
too,5
orderly,1
have,55
shorts,1
kentucky,1
famous,1
question,7
drugs,4
willie,2
spirit,2
ross,7
hallowed,1
intellectual,1
picture,1
trusts,1
tortures,1
regard,1
ogden,1
rose,1
creeds,1
thousand,7
con,1
abilities,1
say:,1
representative,1
circumstances,1
troublemakers,1
including,1
baltic,1
patriot,1
supplants,1
plenty,1
christmas,1
cleaves,1
markets,2
200,1
obligation,1
requirements:iraq,1
try,2
became,1
vandenberg,1
effective,1
times,1
honecker,1
haze,1
muscle,1
says,4
timeless,1
direction,2
comments,1
empowers,1
resourceour,1
annette,1
probe,1
stable,1
activities,1
directing,1
respond,1
incident,1
caught,1
japan,1
tug,1
concert,1
defines,1
concern,2
beautiful,2
camps:,1
worked,3
refrain,1
perestroika:,1
palsy,1
state,4
worker,5
defined,1
environmental,3
speicher,2
eventsevents,1
restraint,1
aftermath,1
242,1
246,1
europeans,1
creating,1
restrained,1
reacted,1
sweeping,1
cup,1
wasting,1
cut,4
probably,1
constitutional,1
starve,2
dread,2
two,5
moment,4
tear,1
desired,1
worries,1
mettle,1
attack,1
worried,1
kitchen,1
prevented,2
creation,1
stench,1
think,41
participate,1
drills,1
occurred,1
accused,1
replaced,1
``hey,1
cadets,1
team,1
services,2
peacemaking,1
filling,1
speech,1
watch,1
thing,8
cabinet,1
privileges,1
lessening,1
initiate,1
domestic,5
holidays,1
punishing,1
paying,1
blows,1
starts,1
stability,1
budget,3
tech,1
actual,1
glass,1
eastern,1
ultimate,2
widely,1
harnessing,1
enlisted,1
misunderstand,1
technologies,1
suited,1
assume,1
halls,1
memory,2
concept,1
banish,1
farmers,1
boggling,1
house,2
indefinite,1
disaster,1
stark,1
monthbefore,1
hours,1
opposing,1
knoxville,1
start,3
shore,1
discordant,1
stars,1
bicker,1
lifestyle,1
fallen,2
hotels,1
recipient,1
short,1
commonwealth,1
othersacross,1
reducing,1
finance,1
rewarding,1
attitudes,1
truths,1
obstacles,1
militarily,1
imagined,1
trains,1
required,1
measures,6
specifically,1
humankind:,1
savings,2
enter,1
restoration,1
warmth,1
destroy,2
dates,1
hostage,1
priority,1
grouping,1
creative,2
railways,1
coast,4
reckoned,1
requires,2
truth:,1
submitting,1
bright,1
overstated,1
planned,1
unknown,1
anti,4
competence,1
frivolous,1
congressman,2
assure,2
consult,2
jackie,2
wallet,1
survive,1
celebrates,1
gulfs,1
blown,1
adversary,1
barely,1
hanging,1
outlines,1
compact,1
outlaw,1
friendly,1
tell,4
shores,1
manila,1
dan,1
board:,1
daughters,1
outlined,1
shows,1
shown,2
celebrated,2
pointing,1
majesty,1
day,3
keeps,1
raising,1
trumpets,1
created,2
kuwaitis,1
water,1
corps,2
stays,1
formal,1
creates,1
canadians,1
tens,1
critical,1
sakes,1
elsewhere,1
judiciary,1
this:my,1
this:,1
brimming,2
tend,1
equitable,1
regulars,1
dated,1
endowed,1
introduction,1
cynicism,1
built,1
heavily,1
colleague,1
third,1
build,2
further,1
demands,1
tolerate,2
dea,2
resent,1
presidents,1
exemption,1
areas,1
stunning,1
parliament,1
finds,1
interdependence,1
contradictions,1
abusing,1
cuba,1
going,30
carefully,1
banks,1
impact,1
paralysis,1
committees,1
forgottenour,1
partisanship,2
measuresto,1
finer,1
bodied,1
spendwilling,1
nascent,1
attitude,1
average,1
treatment,1
pluralism,1
choosing,1
investments,2
waited,5
ordercan,1
liberaltalking,1
airman,1
grasp,1
weighty,1
hotel,1
term,2
acquisition,1
rigid,1
business,3
withdrawing,1
ter],1
staff,1
right,13
possible,2
benefitfor,1
stage,1
taught,1
bickering,1
returning,1
incomparable,1
complicated,1
afghanistan,1
maximum,1
borrow,1
under,6
desert,1
did,7
quarter,1
proposing,1
coastguardsman,1
die,1
tolerant,1
battling,1
hollywood,2
repealed,1
$1,2
$2,1
divisions,1
$3,1
fears,1
$4,1
$5,1
later,2
margaret,1
forgotten,1
midst,1
highway,1
possibly,1
satellites,1
static,1
angeles,1
test,2
journey,1
finally,1
barton,4
enforcement,2
remained,1
conviction,1
publicly,1
acceptance,1
toughest,1
stockpiles,1
final,2
occasion,1
overwhelmed,1
back,10
training,1
states,6
load,1
ignore,2
company,1
thomas,1
applaud,1
rollcall,2
enforceable,1
trafficker,1
concerns,1
gorbachev,3
schedule,1
deterioration,2
overwhelming,1
baby,1
grant,1
showing,2
qualified,1
relic,1
helping,1
attempt,1
thick,1
balance,1
gramm,3
know:,1
astrodome,1
latin,1
dearly,1
kindness,1
researchers,1
made,5
being,4
menace,1
safeguarding,1
hoping,1
``ridiculed,1
qualifies,1
warned,1
dog,1
status,1
spawned,1
trading,1
nobility,1
don,24
thief,1
galvin,1
rrrfft,1
stamp,1
schwarzkopf,1
government,12
known,1
condemnation,1
coalition,1
accumulate,1
crime,2
stand,1
us:,1
knows,2
characterized,2
forward,4
reconsidering,1
bridge:,1
features:,1
lawsuits,3
midgetman,2
warlike,1
embargoes,1
incest,1
peacetime,1
usa,1
mail,1
subject,1
use,2
main,1
arrangement,1
revenue,1
weaknesses,1
negotiation,1
sayyou,1
works:,1
grain,2
credit,1
intensive,1
summoning,1
waste,3
motivated,1
bearing,1
establishment,1
includes,1
picking,1
compass,1
30s,2
veterans,1
graft,1
salvador,1
negotiating,2
angola,1
mentruman,1
uncommon,1
reckless,1
redouble,1
smoking,1
338,1
threats,2
transformed,1
make,11
included,2
hostilities,2
assisting,1
questioned,2
rapidly,1
stake,2
witness,1
include:,1
dug,1
threat,3
tamper,1
inform,1
dayour,1
avowed,1
overwhelms,1
commit,1
enacting,1
friendships,1
cure,1
curb,1
constraints,1
trees,1
presidency,1
hiding,1
rudman,1
bank,1
meaning,1
oppressed,1
reassure,1
band,1
10,1
12,1
14,1
august,1
15,2
singing,1
17,1
18,1
breached,1
19,1
allied,1
growth:,1
execute,1
benefit,1
labor,1
vastly,1
muammar,1
highest,1
unique,1
allies,4
20,1
21,1
22,1
switching,1
23,1
quietest,1
worlds,1
shelter,2
25,1
postponement,1
examine,1
28,1
industry,1
long,1
remember,1
1st,1
frightening,1
relationship,1
30,1
workers,1
cuts,3
35,1
36,2
expression,1
37,1
38,1
drilling,1
bendjedid,1
many,3
gordon,1
stay,1
controlled,2
2d,1
inspire,1
increasing,1
progress,1
40,1
respected,1
43,1
seeks,1
45,1
treat,1
abortion,2
starving,4
48,1
wholly,1
numbers,1
seven,2
arena,1
barr,1
darker,1
stationary,1
swiftly,1
50,1
admitted,2
surprise,1
murderer,1
addicts,2
bridges,1
look,8
crushed,1
troubling,1
grounds,1
korea,2
disrupt,1
scar,1
kingpins,1
murdered,1
sergeant,1
commits,1
60,1
64,1
65,1
free70,1
knock,1
needed,1
mass,2
lord,1
speed,1
admit,2
common,2
interest,2
michael:,1
themselves,1
70,1
twin,1
retrains,1
winning,1
democratically,2
apply,2
postwar,3
politician,1
mary,1
separated,1
bars,1
6f,1
landing,1
raped,1
disagree,1
yields,1
formula,2
step,1
mark,1
comrades,1
tribute,2
stem,1
base,2
87,1
89,1
trend,1
spotted,1
loss,1
caribbean,2
incentive,1
impediments,1
lost,2
repudiate,1
90,1
93,1
controlling,1
98,1
state],1
work,10
lose,2
convince,1
math,1
wore,1
word,2
love,1
extension,1
foundation,1
secret,1
cooperationfor,1
unwise,1
across,1
problemssome,1
mortgage,1
europe,1
reward,2
fundsan,1
uniquely,1
opinion,1
soldier,2
regulations,4
exists,1
devour,1
state!,1
insult,1
hospitals,1
freedoms,1
utopianism,1
exaggerate,2
spell,1
exploration,1
disappearance,1
visitors,1
preparing,1
combustion,1
provision,1
assaulted,1
honored,1
seems,4
moreof,1
eec,1
anywaythank,1
scientific,1
congratulations,1
winter,1
clouds,1
platform,1
jackson,1
successfuland,1
walking,1
spend,7
fairness,1
arsenals,1
grave,1
advantage,1
spent,1
telegram,1
instead,1
﻿thank,1
communist,2
watershed,1
animosities,1
temporary,1
hands,2
year,4
allowed,1
staying,1
branch,1
anguish,1
vii,1
awaiting,1
empire,2
understanding,1
liberals,2
silence,1
near,1
toughness,1
reassessing,1
victims,1
inviting,1
vietnam,1
kinds:,1
economy,2
inspired,1
community,5
docking,1
planning,1
staunch,1
stop,2
israeli,2
unused,1
prudence,1
mission:,1
appropriate,1
boston,3
instance:should,1
least,1
immediately,1
submarine,1
catastrophic,3
devastated,1
agreed,1
stagnant,1
learn,3
representing,1
withholds,1
thrashed,1
missions,2
severe,1
communism,2
lease,2
exploit,1
galvanized,1
addressing,1
evidence,4
clements,1
ethics,1
spring,1
assessment,1
leave,1
shouldered,1
peoples,2
spouses,1
predicated,1
intrusive,1
minister,1
need,1
vexed,1
often,1
newspapers,1
catastrophes,1
users,1
tests,1
canada,2
traditions,1
catalyst,1
sanctions,5
lasting,1
useful,1
private,4
10th,1
companion,1
narcotic,1
gates,2
precisely,1
accomplish,1
strand,1
engine,1
end,1
resolutionhave,1
lines,1
bullet,1
forty,1
vow,1
marcos,1
machineiraq,1
scud,1
carolina],1
people:,2
special,1
forum,3
horizon,1
contempt,1
environment,2
undertaking,1
kuwaiti,1
pulpit,1
achieved,1
progressive,1
nationswas,1
happens,2
kuwaita,1
loafer,1
unattended,1
discretionary,1
occupation,1
education,11
called,4
charter,2
turns,1
newly,2
aspire,1
tried,1
deepest,1
succeeding,1
brave,2
narrow,1
lingo,1
right:,1
shape,1
momentous,1
neil,1
allegiance,2
forth,1
nicaragua,1
clocks,1
africans,1
400,1
seventh,1
graves,3
weapons,4
cell,1
done:,1
asked,1
deployable,1
era,1
rights,1
share,5
ter]you,2
deployment,1
thoroughly,1
franklyand,1
television,1
2nd,1
chairman,2
sharp,2
40s,2
strongest,1
flies,2
shake,1
cent,1
deficitnot,1
mexican,1
naked,1
trial,2
furlough,2
finest,1
undertake,1
airwaves,1
untrusting,1
trafficking,1
subjected,1
homebuyers,2
woods,1
estate,4
shall,3
weren,2
careers,1
races,1
shame,1
supportive,1
unneeded,1
elderly,1
financial,1
dreams,1
running,1
chose,1
commensurate,1
harder,1
reinforces,1
republics,1
knowledgeablein,2
declared,1
refinanced,1
rates,2
abstraction,1
endeavor,1
requirement,1
pounding,2
rated,1
resolutely,1
grounders,1
emigrated,1
strategy,1
needle,1
forms,3
summon,1
maintain,1
belgian,1
establishing,1
expertise,1
$35$40,1
companies,1
safekeeping,1
differently,1
represented,1
dumbest,1
remain,1
expected,1
voices,2
countries,1
eye,1
himself,1
wanted,1
continent,1
sizing,1
feels,1
another,1
simultaneous,1
guarantee,1
enemy,2
nobly,1
gray,1
house!the,1
triumph,1
horror,1
defray,1
black,1
liberation,1
yet:,1
fortunate,1
questions:,1
consensus,1
such,2
describe,1
technological,1
grab,1
gnawing,1
penalties,2
florida,1
administration,5
widening,1
developing,1
remains,2
arriving,1
features,1
white,1
statehood,1
boutros,2
menacing,1
huge,1
thelot,1
superb,1
1stto,1
might,1
sharing,1
wonders,1
museum,1
eradicate,1
leads,1
sued,1
patriotism,3
clothing,1
fields,1
next,2
bigotry,1
import,1
submit,1
classes,1
hanoi,1
summit,1
conclusion,1
central,4
impose,1
samefull,1
supporting,1
memorial,1
factor,1
news,1
ensures,4
visas,1
refreshed,2
race,2
effectively,1
was,41
war,3
mitterrand,1
greet,1
futures,1
way,5
ensured,1
urban,1
israel,1
window,1
play,2
disciplined,1
elbe,1
fought,2
quickly,1
foes,1
taxes,3
underwrite,1
decide,1
issues,1
priorities,2
fan,1
posturing,1
instruments,1
confirming,1
far,3
greed,1
taxed,2
plan,1
italians,1
double,1
future:,1
fbi,1
lowest,1
comfortable,1
beefed,1
completely,1
suit,1
necktie,1
chocolate,1
study,1
bomber,1
differences,2
portion,1
totaling,1
gain,1
arabia,5
web,1
tragic,1
﻿mr,1
feeds,1
older,1
berlin,1
ozal,1
fda,1
explore,1
grit,1
wet,1
kremlin,1
climate,1
aisles,1
great,2
happened,2
staggering,1
``spending,1
pleased,1
sides,2
finalize,1
organizing,3
economic,3
personablehe,1
grim,1
dick,2
fed,1
distinction,1
disability,1
homegrown,1
rumor,1
looks,1
presented,1
few,1
enrich,1
strain,1
quoting,1
rain,1
lifeless,1
opened,1
takesto,1
plea,1
inner,1
exceptions,1
produced,1
sledgehammer,1
personally,1
outside,1
effect,1
hunk,1
darkest,1
who,15
option,1
raid,1
politics,1
game,1
unexpected,1
crucial,1
contribute,1
why,4
faith,1
died,1
founders,1
wic,1
candidate,2
cheney,1
david,2
win,3
lawyer,1
hearthis,1
didn,3
diminish,1
recommended,1
branik,1
barriers,1
matters,1
various,1
posterity,1
attention,2
decisionmaking,1
visit,1
fulfillment,1
denied,1
reduction,1
extent,1
escapade,1
parent,2
voted,2
losing,1
fix,1
honest,2
pension,1
addition,1
24th,1
dailiness,1
sure,1
grow,2
vote:,1
congress:i,1
shrink,1
proceeding,1
al,1
am,15
an,11
former,2
extend,1
proxy,1
blowing,1
as,29
at,13
citizens:thank,1
unanimously,1
ax,1
intermediate,1
looking,1
payroll,1
hurt,1
gerald,1
be,37
prove,1
takeover,2
cherished,1
rape,2
systems,3
militarism,1
fool,1
experimentation,1
by,12
aggie,4
abandonment,1
develops,1
foot,1
enabling,1
charge,1
outstanding,1
keeping,2
quicker,1
breathe,1
food,2
forget:,1
fly,2
withdrew,1
kilometer,1
votes,2
freely,1
acquisitions,1
de,1
congress:,1
commanders,1
congenial,1
do,58
ford,2
observe,1
dr,2
scars,1
accomplished,1
attacks,1
won,1
rare,1
justin,1
criticism,1
creativity,1
michel,1
which,2
needs,1
for:,1
el,1
em,8
congressa,1
favored,1
profound,1
never,6
marble,1
nosed,1
piece,1
individualthe,1
foe,1
elephant,1
fog,1
christening,1
tears,1
for,32
watching,1
twilight,1
attuned,1
perhaps,1
rate,1
alert,1
achievable,1
prosperity,3
divide,1
emissions,1
nationscountries,1
moreexpecting,1
somali,1
governors,1
go,16
gatt,1
dime,3
form,1
500,2
renew,1
fort,1
he,51
waiver,1
withdraw,2
placed,2
endara,2
forceful,1
geneva,1
poland,1
welfare,1
relationships,1
appeared,1
four,2
else,3
avenue:,1
contemplate,1
easily,1
if,10
ii,1
likely,1
commitments,1
fro,1
in,107
unleashing,1
is,1
it,95
aimed,1
place:,1
disputes,1
somebody,1
announce,1
certification,1
talked,4
placeone,1
gave,2
become,1
recovering,1
$10,1
$15,1
freest,1
majestic,1
inflation,1
disposal,1
sparkling,1
sending,1
ability,2
belief,1
continuum,1
$20,1
roaming,1
$22,1
proliferation,1
knew,2
$25,1
suggestion,1
$28,1
places,1
la,1
stabilize,1
conscious,1
fun,1
accomplishment,1
ll,8
$35,1
political,2
while,2
leaguers,1
second,1
that,136
faster,1
ma,1
than,2
sufficient,1
me,18
limit,1
locked,1
thaw,1
tolerance,1
$40,1
contest,1
blackness,1
asymmetrical,1
mr,9
turmoil,1
feeling,1
mx,2
my,25
plus,1
expansion,1
dream,1
fiscal,2
possesses,1
orleans,1
noble,1
dividedcan,1
totalitarian,1
$50,1
tireless,1
kendall,1
heat,2
no,6
legacy,1
student,1
ideology,1
terrorists,1
careful,2
counterproductive,1
head,2
dialog,1
of,145
imported,1
reserve,1
oh,1
somehow,1
hear,1
avenues,1
on,67
allocated,1
bricks,1
or,15
sports,1
multilateral,1
embark,1
families,1
occupies,1
bombings,1
easier,3
luxury,1
$70,2
sitting,2
increasingly,1
$76,1
nation,3
splendid,2
wrest,1
determination,1
deserveand,1
discipline,2
freeze,5
heck,1
inevitably,1
ripping,1
rebirth,1
adversaries,1
hundreds,1
$80,2
recent,2
they,29
suspension,2
gracie,1
inevitable,1
them,13
allowance,2
then,11
mitchell,1
insensible,1
seas,1
re,23
concepts,1
attorney,1
adopt,1
oppose,5
bridge,2
singular,1
discovered,1
strengthening,1
mistrust,1
executed,1
themto,1
seek,1
seen,4
seem,1
defying,1
poorest,1
friends:there,1
lecture,1
so,34
thatcher,1
apart,3
teenager,1
ss,1
calendar,1
st,1
decision,2
necessary,1
souls,1
started,2
heed,1
closer,1
single,1
scourge,1
closed,1
to,209
vindicated,1
visions:,1
purpose:,1
commercial,1
tv,1
joint,1
separate,1
reasonable,1
generations,2
sighted,1
rules,4
ruled,1
un,1
military,1
up,20
reluctant,1
us,11
waters,1
usual,1
untold,1
this,51
anarchy,1
ve,28
remarkable,1
sees,3
failure,1
forge,1
valiant,1
laboratories,1
know,10
hatreds,1
frightened,1
suggesting,1
changed,1
breakthrough,1
sarajevo,1
amphibious,1
changes,1
approving,1
we,119
confidence:,1
summoned,1
gap,1
gas,3
emphasize,1
slight,1
securing,2
teach,1
reading,1
compensation,1
deeper,1
talents,1
held,1
closeness,1
gcc,1
ya,1
fruitful,1
livesany,1
troops,3
beyond,1
terms,13
long:,1
deeply,1
proof,1
phase,1
teams,2
nails,1
contract,2
conclude,1
churches,1
elections,1
36hey,1
insight,1
provisions,1
fabric,1
unemployment,2
exact,1
praying,1
force,3
preschool,1
surrounded,1
south,2
north,1
forefathers,1
barbed,2
tools,2
boyden,1
virulent,1
cahoots,1
operators,1
get,9
continues,1
course,3
feldstein,1
power,3
rivers,1
nagging,1
yielding,1
precious,1
sell,1
continued,1
help,8
massive,1
depth,1
additionally,1
ended,1
conflictthose,1
self,3
prone,1
unyielding,1
dallas,1
courageously,1
sound,1
obliged,1
harbor,1
rebuilding,1
rebuttal,1
sales,2
translate,1
barrier,1
revitalize,1
brutalized,1
create,1
tariffs,1
tossing,1
proud,1
cost:,1
judged,2
sent,1
nightmare,1
addressed,1
disabilitiesthe,1
purposes,1
send,1
judges,1
expenses,1
here,6
concrete,1
contacted,1
purpose,1
challenges,1
rejected,1
regret,1
scale,1
kinder,1
security,5
challenged,1
organize,1
station,1
challenger,1
mulroney,1
costs,2
factory,1
implementation,1
smoke,1
follow,2
intent,1
revenues,3
factors,1
treats,1
subversion,1
treaty,1
skies,1
combination:,1
brady,1
intend,2
german,1
introduces,1
numerous,1
recognized,1
without,3
youth,1
civilians,1
introduced,1
authoritarianism:,1
slows,1
sovereignty,1
whatsoever,1
audience,12
thus,1
possess,1
volunteers,1
democratization,1
recognizes,1
inefficient,1
much,7
arab,1
chapter,1
12th,2
sights,1
anybody,1
languished,1
misery,2
worldour,1
resolved,1
committed,1
committee,1
sets,1
resolve:,1
union,2
aquino,1
subtle,1
adage,1
returned,1
god,2
yours,1
wrap,1
adopted,1
standard,1
reports,1
correct,1
sworn,1
got,16
institution,3
possessions,1
ambition,1
aspirations,2
mindful,1
contributed,1
area,1
individualsmen,1
congresssupport,1
european,1
fuels,1
internationally,1
clearer,1
campbell,1
lack,1
success,1
ingenuity,2
aren,1
authority,1
shocking,1
unclassified,1
young,5
regional,3
taxpayers,1
obsolete,1
competitiveness,1
suing,1
eloquence,1
marginal,1
homeowners,1
nowproud,1
illumination,1
enshrined,1
negotiations,1
evolution,1
halfway,1
organizationsso,1
zonesit,1
exhilaration,1
fishy,1
armistice,1
tattered,1
battlefield,2
wade,3
named,1
injustice,1
offense,1
foreigners,1
albania,1
focus,1
delivered,1
favorable,1
entire,1
changing,1
approach,1
decisive,1
[washington],1
tremors,1
thesis,1
palestinian,1
blackmailed,1
write,1
taxpayer:,1
wage,1
loyalty,1
unconventional,1
understand,4
dismiss,1
vanik,1
classroom,1
suspended,1
heaven,1
intelligence,1
vigorously,1
unhappy,1
million,2
arrogance,1
strongly,1
examples:,1
bulk,1
despair,1
communique,1
larger,1
gun,1
wait,1
hundred,1
magnificent,1
desks,1
guy,1
restrict,1
cleanups,1
remembers,1
costly,1
tempted,1
particularly,1
dominant,1
heading,1
worrying,1
discussed,1
pacific,1
opportunities,1
names,1
framework,1
prisons,1
tide,1
tonight,1
objective:,1
possibilities,1
predecessors,1
bacteria,1
almost,1
equally,1
thisall,1
sustained,1
defenseless,1
wake,1
earlier,1
rejoin,1
stewart,1
whether,1
cropped,1
counting,1
beneath,1
ritual,1
liability,1
4th,1
basin,1
basis,2
munich,1
resolute,1
dundee,1
army,1
carter,2
reconcile,1
arms,5
october,1
governor,11
virginia,1
basic,1
twist,1
procrastinate,1
unite,1
bush,3
policies,1
combat,1
units,1
appalled,1
unity,3
cosponsored,1
sacrificed,1
pursue,1
environmentalists,1
ties,1
busy,1
extra,1
convey,1
lips:,1
land,1
sacrifices,1
tied,1
countryside,1
performing,1
objectivea,1
foremost,1
apologies,1
conduct,1
objectives,1
wall,3
walk,1
extending,1
advertising,1
unleashed,1
grieve,3
arrangements,1
thinks,1
welcome,1
kotzebue,1
events,2
mankind,1
chaos,1
separately,1
want,35
kong,1
induce,1
deserts,1
kennedy,1
wane,1
difference,7
must,24
circle,1
powell,1
sophisticated,1
accident,1
marty,1
anyway,1
found,1
defense,6
currency,1
canal,1
limits,1
cruelty,1
ideals,1
war:,1
nearing,1
combining,1
profiteering,1
entirely,1
religion,1
style:,1
narcotics,2
tragedy,1
sentencesand,1
centuryyour,1
chart,1
attend,1
waged,1
nationals,1
goods,1
voting,1
had,7
anymore,2
secure,2
guided,1
wasn,1
guides,1
late,1
school,1
brutally,1
things,14
avenue,1
has,16
unlock,1
last,3
deficits,1
adapt,1
preserves,1
polluters,1
warn,1
warm,1
rightthe,1
checks,1
measure,1
outskirts,1
wars,1
swim,1
exports,2
impossible,1
effort,3
jewish,1
settling,1
yesterday,1
thing:,1
weapon,1
courageous,1
stronger,1
ends,2
intrudes,1
denying,1
guide:,1
vote,1
steady,1
early,2
century:,1
quieter,1
disease,1
yes,6
yet,1
lowering,1
wages,1
alike,1
clarity,1
infrastructure,2
costis,1
time,7
survivability,1
flourishing,1
happy,1
electoral,2
governments,2
her,1
authorized,1
hey,1
torpedo,1
okay,1
laws,1
having,1
stationed,1
russian,1
yerevan,1
lesson,1
supreme,1
vietnam:,1
vow:,1
philosophy,1
kansas,1
brunt,1
terrific,1
tiny,1
corporal,1
worship,1
lawn,1
throttle,1
pornographic,1
doubled,1
lazy,1
aggressively,1
merits,1
confirmed,1
alien,1
vowed,1
beaches,1
ways,1
strong:,1
staffs,1
tire,1
chain,1
minuteman,2
chair,2
consistent,1
reverse,1
``let,1
subsidies,1
lays,1
governed,1
small,1
gallant,1
hid,3
before,1
aviation,1
him,8
hit,2
his,19
playwright,1
beat,1
bear,1
grandfather,1
potential,1
again!,4
resist,1
discriminatory,1
straighten,1
shouting,1
history,3
instinctively,1
stimulate,1
square,1
twice,3
camps,1
overflight,1
yearone,1
values,8
hopelessly,1
point,5
wolves,1
wholein,1
sounds,1
banned,1
rediscovered,1
wildlife,1
deserve,1
fronts,1
restore,1
ter]now,1
alternative,1
morally,1
seasonal:,1
mean,2
approve,1
determining,1
drafted,1
been,7
beef,1
advance,1
mothers,2
appreciate,1
diverse,1
killer,1
strict,1
reflects,1
you,37
safely,1
limitations,1
delighted,2
conservativescan,1
opportunity,3
active,1
court,1
unalienable,1
deals,1
councils,1
administrationand,1
hob,1
firms,1
stems,1
sustainable,1
hot,1
interior,1
how,12
practicalnot,1
angolanow,1
assembly,5
bully,1
chin,1
endeavors,1
marco,1
overcoming,1
assemble,1
inaugural,2
march,1
pickets,1
dealers:,1
repel,1
meet,1
answer,8
calls,1
underscore,1
saints,1
700,1
restored,1
aging,1
abused,1
dispatch,1
putting,4
sometimes,5
questions,1
promise,1
recreational,1
enjoying,1
vulnerableinfants,1
magnificently,1
strauss,1
canvasses,1
listened,1
richard,1
coordinator,1
upstream,1
enactment,1
prerequisite,1
count,1
zones,1
``closed,1
vision,1
blame,1
saint:,1
faceand,1
carrying,2
beginning,1
waiting,1
ask:,1
question:,1
fewall,1
shameful,1
preordained,1
notice,1
grants,1
baltics,1
grandson,1
asia,1
killed,1
superpower,1
michael,1
although,2
encouragement,1
diplomas,1
decades,1
patriots,1
president,14
fortunes,1
envy,2
reaches,1
movement:,1
dropped,1
product6,1
america,2
750,1
action,5
guidelines,1
fired,1
bounty,1
mario,1
accompanied,1
fires,1
afford,1
asks,1
reached,1
biological,2
impression,1
acting,1
suburbs,2
shield,1
ably,1
diligently,1
perestroika,2
deliver,1
dealings,1
headed,1
eight,1
products,1
outlaws,1
barbecue,1
boomer,1
hoped:,1
stakewhat,1
directly:,1
could,3
bent,1
marks,2
defining,2
problem:,1
withhold,1
able,1
teddy,1
workplace,1
undeniable,1
forged,1
concerned,4
conscience,2
``investment,1
inheritance,1
british,1
radio,1
outlays,1
solution,2
opponent,5
accelerate,1
dramatically,3
international,1
regardless,1
citizen,1
cities,1
relaxing,1
difficult,1
winston,1
steps,1
friends,6
forget,1
strengths,1
principles,1
present,1
curtain,1
problems,2
wavered,1
arrested,1
belong,1
accommodations,1
borders,1
best,3
mess,1
75th,1
cochair,1
invulnerable,1
transform,1
competitor,1
idealistic,1
ameliorating,1
genuine,1
mesh,1
certainly,1
brutalization,1
master,1
principle:,1
regulation,1
conventional,5
intensely,1
tougher,1
mere,1
toughen,1
convenes,1
profess,1
shawn,1
cover,1
reflect,1
defenders,1
dissolved,2
xenophobic,1
symbolic,1
based,3
underdog,1
backdrop,1
something,4
intention,1
pointed,1
blackwell,1
panamanians,2
understandable,1
mogadishu,2
religious,1
nevertheless,1
fact,4
nationstried,1
grandparents,1
quote:,1
fundamental,3
bases,1
overdue,1
combinationphil,1
temperature,1
fred,2
free,2
equality,2
reaction,1
weary,1
valor,1
protections,1
airplanes,1
actually,1
evolve,1
face,1
rangers,1
afraid,3
showed,1
marvelous,1
bewe,1
triumph:,1
refugees,1
acheson,1
duplex,1
ice,1
independence,5
awkward,1
ruin,1
commands,1
vanilla,1
please,4
replacing,1
finding,2
elected,1
sand:,1
extends,1
vital,7
israelis,1
rewards,1
czar,1
rule,3
detect,1
condemn,1
smarter,1
superintendents,1
gulf,2
fahd,1
hurting,2
envisioned,1
decreed,1
refuge,1
dramatic,2
certainty,1
commend,1
indeed,1
sands,1
sandy,1
brightening,1
comment,1
baskin,1
humanitarian,1
volunteered,2
grange,1
hydro,1
guns,1
stop!and,1
confronting,1
erafreer,1
discussions,1
fair,1
stepping,1
preparation,1
elderlyto,1
compatible,1
enable,1
safety,1
slavery,1
liabilities,1
competing,1
dressed,1
toleration,1
hammers,1
statesand,1
legions,1
underneath,1
doors,1
fail,1
dropout,1
nineties,1
diesel,1
steel,1
steep,1
seize,1
church,2
grows:,1
isolated,1
iii,1
privilege,1
pictures,1
foreign,5
fall,1
decisively,2
boundless,1
erase,1
homework,1
nice,2
excel,1
culture,1
hereby,1
first,4
quotas,1
perfect,2
combating,1
rambunctious,1
fewer,1
clearly,1
exhausting,1
spite,1
theater,2
from,15
segregation,1
ill,1
finished,1
focal,1
speaker,1
death,2
steal,1
advice,2
manuel,1
according,1
stymie,1
factories,1
powder,1
differential,1
operations,1
paper,1
winds,1
discriminate,1
value,1
annex,2
contra,1
inf,1
listening,1
enforced,1
haunting,1
churchill,1
growth,1
unwanted,1
underscored,1
pope,1
person:,1
texas,4
resolution,1
properly,1
pass:,1
poor,1
graduate,2
unanimous,1
farm,2
grief,1
enduring,1
virtually,1
excellent,1
fairly,1
pool,2
moratorium,1
recalling,1
sorted,1
shortly,1
rhetorical,1
providing,1
weeks,1
pork,1
dollarsfor,1
founding,1
is:,1
primed,1
reenact,1
hadassah,1
retire,1
ira,1
aggressive,2
close,1
linked,1
dukakis,2
unleash,1
accelerated,1
it:,2
fast,1
turbulent,1
invasion,1
precedent,2
pops,1
aces,1
citizens,1
malaise,2
nine,1
unborn,1
arrayed,1
controls,1
isn,5
aloneand,1
rural,1
acclaim,1
fortunately,1
acid,1
post,1
agricultural,1
coping,1
mideast,1
educational,1
pose,1
its,1
82d,1
respect,1
retreat,2
bureaucracies,1
guys,1
adjustment,1
income,1
joining,1
raged,1
buyers,2
united,4
production,2
fearsfears,1
searching,1
choose,2
peaceful,1
850,1
strikes,1
pasta,1
democratic,2
bills,2
surveillance,1
colonel,1
identify,1
pour,1
improvement,1
meritocracy,1
steadfast,2
stewardship,2
pledge,2
progrowth,1
enjoyed,1
following:,1
college,1
aclu,4
boarder,1
mobilized,1
preemptive,1
number,1
punish,1
centers,1
cornered,1
rebut,1
massed,1
shorter,1
harder!the,2
nothing,1
testing,4
ahold,1
isolation,1
handle,1
tough,4
urged,1
catholic,1
silver,1
blessing,1
mortgages,1
fundamentals,1
fathers,1
city,1
confident,1
hard:,1
exclusion,1
slowdown,1
courage,2
local,2
aggies,1
decisions,2
cathedral,1
incidentally,1
rests,1
filled,1
satisfaction,1
vouchers,1
lashed,1
powerful,1
soonthere,1
atop,1
guarantors,1
infamous,1
precision,1
points,6
absorbed,1
suit!we,1
copies,1
mubarak,1
reap,1
pregnant,1
border,1
read,1
touch,1
clock,1
real,1
unit,1
sullivan,2
shattered,2
badly,1
humankind,2
diminished,1
today,2
construction,2
predict,1
saying,2
universal,2
ranting,1
radical,1
looked,1
warnings,1
pravda,1
skepticism,1
contingent,1
irresistible,1
wrongs,1
minute,1
application,2
milestone,1
productive,1
formally,2
reason,1
comforting,1
ship,1
acts,1
demonstrations,4
annual,1
initiatives,1
gentle,1
testify,1
goodness,1
shopping,1
using,1
deeds,1
containing,1
completed,1
shouldn,1
demand,1
rings,1
turkey,1
letter,3
alternatives,1
philosophical,2
unaccounted,1
anniversaries,1
innuendo,1
annually,1
housing,5
revolution:,1
predecessor,1
worth,1
initiative:,1
adkisson,1
openness,6
taken,1
dividend,1
takes,1
froze,1
broken,1
intolerance,1
reinforcing,1
similarities,1
armed,1
omittedtwo,1
cesspools,1
longed,1
tothe,1
grips,1
centered,1
individuals,1
promisesno,1
repeated,1
challenging,1
escalating,1
debate,1
aeronautics,1
vulnerable,1
either,1
helpful,1
those,11
worry,1
motives,1
lifted,1
telephone,1
significant,1
worse,1
longer,2
watched,1
everywhere,3
senate,1
coursei,1
parties,1
marrying,1
worst,1
leaving,1
``uh,1
prospects,1
show,1
cautious,1
disappear,1
shot,1
recession,1
vigilance,1
killings,1
street,1
arrive,1
plains,1
outrageous,1
hypo,1
inaction,1
learned,1
resolving,1
wrongwe,1
substance,1
grimy,1
suddenly,1
characternot,1
guidance,1
subjectsat,1
stranger,1
doomed,1
divideda,1
aborted,1
poured,1
jim,1
largely,1
importantand,1
designate,1
crises,2
mccarthy,1
waits,1
hollow,1
epic,2
28th,1
quickly:,1
bounds,1
purely,1
harry,1
guard,2
settle,2
unilateral,3
babies,1
seaman,1
pressing,1
freedom,1
criminals,1
bilateral,1
underpinning,1
raceknowledgeable,1
mobley,1
consulted,1
humiliates,1
nomination,3
mexico,1
kiddie,1
shut,1
landmines,1
luck,2
mature,1
administration],1
bonds,1
influence,1
georgia,1
responsibilities,3
stabilizing,1
totally,2
wrapped,1
ridden,1
crisis,4
marketplace,1
marshall,1
addiction,1
temporarily,1
crafted,1
administration:,1
difficultthis,1
adaa,1
misguided,1
important,1
persuasion,1
glimpse,1
daily,1
roper,1
job,6
galloway,1
daughter,1
largest,1
joe,1
sponsor,1
limitation,1
sidewalks,1
administrator,1
adjective,1
joy,1
billion,4
compliment,1
miracle,1
battalions,1
adds,2
rest,2
``heartbreak,1
administrations,2
comply,2
socking,1
kingdom,4
gets,5
differ,1
puppet,2
afternoon,2
$150,2
front,1
flights,1
plane,1
equivalent,1
hassan,1
momentary,1
projects,1
perpetual,1
offer,1
denver,1
diplomatic,1
complex,1
missiles,1
oklahoma,1
real:,1
accurately,1
plans,1
treatment:,1
plant,1
drive,1
jones,1
homeland,1
readiness,1
intractable,1
civic,1
sailor,1
isolate,3
offered,2
civil,3
underway,1
sequesterdeep,1
national,2
gauntlet,1
sixty,1
contain,1
jobs,2
inhaled,1
words,1
founded,1
medicine,1
entered,1
rhetoricalsteps,1
instructed,1
gifted,1
difficulties,2
decry,1
performs,1
rooms,1
joes,1
blunt:,1
developed,1
humorous,1
spiraling,1
contact,1
garbage,1
pulls,1
defenses,1
searched,1
simpson,1
parts,1
western,1
vigorous,1
helps,1
gladdened,1
party,2
tiananmen,1
duties,1
lucky,2
however,1
trained,1
sources,1
compel,1
salute,1
homeward,1
signs,1
related,1
recalculate,1
directed,1
unacceptable,2
historic,1
roosevelt,1
tyrant,1
stalwart,1
farmer,1
initiatives:,1
part:,1
fulfill,1
crowd,2
destabilizing,1
sick,1
candor,1
output,1
corner,1
bailey,1
majority,1
join,2
gears,1
faithfully,1
bikes,1
john,1
rearm,1
emerge:,1
tackling,1
brought,1
works,2
alive,2
proportion,1
signpost,1
payments,1
pursuit,2
flowering,1
emerged,1
thinking,2
ruthless,2
cycle,1
world,6
otherthe,1
forestland,1
misses,1
prejudice,1
december,1
embarked,1
urgent,2
everything,2
affordable,1
expansionism,2
side,2
break,1
missed,1
rescinding,1
willingness,1
dictatorship,2
comfort,1
century,6
traditionally,1
report,2
transitory,1
powers,1
pessimism,1
divisiveness,1
sign,1
work:,1
outrage,1
there:,1
high,1
falls,1
mortars,1
publication,1
expressed,1
different,4
directly,2
level,2
disruption,1
preserve,1
roots,1
establish,1
deter,1
belongs,1
attached,1
morocco,1
bunch,2
oregon,1
parents,1
birthday,1
forces:,1
setbacks,1
decent,1
enjoys,1
tasted,1
total,1
loses,1
fortunatea,1
consumers,1
savage,1
consumes,1
kay,1
initiative,4
plays,1
economist,1
social,6
sells,1
interesting,1
raised,2
cross,1
control,9
drill,1
earth,1
stumble,1
specialty,1
threatening,1
episode,1
decency,1
behalf,3
somewhere,1
objective,1
scene,1
hinder,1
strengthen,1
accomplishments,1
rayburn,1
injury,1
gradeswe,1
remaining,1
accept,2
yearning,1
affront,1
joanne,1
access,1
nations:,1
keg,1
finback,2
crisis:,1
key,1
situations,1
silk,1
stopped,2
silent,1
addicted,1
headway,1
launch,1
confirm,1
cloak,1
stones,1
fourth,1
vast,1
intervene,1
laughing,1
dislike,1
kgb,1
available,1
moslems,2
quest,1
claiming,1
undying,1
dynamic,1
unusual,1
sector,2
extreme,2
willbe,1
one:,1
dumping,1
degree,1
especially,1
once,3
altruism,1
hint,1
allocating,1
recklessness,1
counties,1
demonstrate,1
speeding,1
kid,2
pending,1
monument,2
infantry,1
missionwith,1
demagogued,1
throughout,1
conflicts,1
virtue,1
coverage,1
preclude,1
corrupt,1
reforming,1
worldall,1
technology,1
bounced,2
litigation,1
contravention,1
nights,1
initiating,1
ones,4
compromise,1
despots,1
reach,2
backed,1
lightly,1
squandered,1
backer,1
rulers,1
justify,1
sight,1
between,3
$200,2
overhead,1
deprived,1
expenditures,2
following,1
complacency,1
wear,1
16th,1
weak,1
overseas,1
waywell,1
announcing,3
seeing,1
blocked,2
uaethe,1
assert,1
place,3
$220,2
lawless,1
regular,2
coddle,1
sits,1
informed,1
dispute,2
bigger,1
tired,2
aggression,11
lead,2
fraction,1
expect,1
tangled,1
assess,1
parochial,1
gentlemen,1
$232,1
miracles,1
passage,1
adequate,1
leaders,5
abortions,1
routes,1
parks,1
assets,1
knocking,1
plain,1
sacked,1
should,9
only,4
justice,2
officers,1
individual,4
loans,2
accepted,1
lawlessness,1
lech,1
condemning,1
continents,1
blueprint,1
person,6
testimony,1
enforce,2
arsenal,2
week,1
bostonians,1
ready,1
studies,1
sparrow,1
greatest,1
unprovoked,2
else:,1
limited,1
studied,1
match,1
reads,1
hemispheric,1
played,1
mistaking,1
schooling,1
prepare,1
crusade,2
spoke,1
fifty,3
surgeon,1
unhampered,1
blitzkrieg,1
stalemate,1
stationing,1
approved,1
would,11
outcomes,1
customs,1
endorses,1
warrant,1
deadbeat,1
crusades,1
incomes,1
successfully,1
solid,2
reserves,3
endorsed,1
persian,1
cooperative,1
diplomacy,4
size,1
left,2
rejoice,2
statute,1
spends,1
loneliest,1
unparalleled,1
changessome,1
destroyer,1
balanced,2
elect,1
example,1
minds,2
balances,1
things:,1
spanning,1
stirring,1
quiet,1
policy,1
rebuild,1
address,2
beliefs,1
destroyed,1
police,2
throw,2
deploying,1
produced:,1
thank,2
fifth,1
theory:,1
exorbitant,1
surgery,1
violent,1
confront,3
provocation,1
repressionseem,1
speakers,1
implement,1
hardened,1
export,1
others,1
making,8
sectors,1
check,1
relatives,1
8th,1
hijacked,1
mines,1
beacon,1
pragmatic,2
supposed,1
advisedly,1
entangling,2
bursting,1
applied,1
detainees,1
indispensable,1
flown,1
society,1
expanded,1
arranged,1
nowhere,1
multiyear,1
kindest,1
purged,1
lend,1
malpractice,1
enhancing,1
pilot,1
ticket,1
magnet,1
stormed,1
well,7
realizes,1
welk,1
personnel,1
ambitions,1
biodegradable,1
ordera,1
gains,5
fearing,1
myth,1
loved,1
experiment,1
inventories,1
cooperation,3
went,1
distant,3
lawand,1
dictator:,1
bringing,1
schools,6
ter]in,1
crazy,1
southeast,1
deferred,1
successor,1
henchmen,1
emirateshave,1
matter,4
walls,1
conjunction,1
product,1
reminder,1
wept,1
walter,2
ballistic,1
produce,1
walks,1
reminded,1
industries,1
dictators,1
thanksgiving,1
unreasonable,1
communities,4
capital,5
hostile,2
fuel,2
marijuana,1
listen:,1
upon,1
pray,1
bulwark,1
crawl,1
biggest,2
ambitious,1
nightmares,1
function,1
raise,1
west,3
quite,1
tower,1
law,3
lay,1
crave,1
less,2
institutions,1
neediest,1
condition,1
were,9
ceremony,2
improve,1
worldthe,1
shining,1
taxation,1
airwaveslet,1
university,2
troop,1
intimidate,1
teaches,1
teacher,1
similarly,3
constitutionally,1
generous,1
ridiculing,1
possibility,1
economists,2
wounded,1
realizing,1
distinguished,1
opening,1
doctor,1
tapped,1
industrial,1
spoken,1
traveled,1
distinguishes,1
maintenance,1
plea:,1
lingered,1
authored,1
cluster,1
gotten,1
lieutenant,2
led,1
diplomats,1
supply,5
rivalries,1
unfailing,1
integrity,1
robbins,1
mountain,1
pact,1
liable,1
appreciative,1
let,13
dock,1
press,1
philippines,1
voluntarism,1
neighborhoods,3
clearthis,1
regretted,1
night,1
pace,1
each,1
untapped,1
``slippery,1
bravado,1
spenders,1
thirty,1
bankers,1
entertainment,1
collapsed,1
killing,1
dollars,1
prayed,1
promote,1
does,3
tasselled,1
begets,1
situation,1
legislation,1
moods,1
withdrawal,1
refuses,3
ignited,1
jungles,1
libya,1
timetable,1
producers,1
prayer,1
misrepresent,1
clan,1
polish,1
imperialism,1
fashion,1
demanded,1
insurance,2
surely,3
principle,1
medical,2
nixon,1
lid,1
importantly,1
lie,1
source,1
sidelines,1
unable,1
1930,1
uncontrolled,1
unblocking,1
separation,1
lit,1
vitality,1
fortheir,1
everhalf,1
homes,1
acquired,1
appeasement,1
tension,1
involves,1
labeled,1
doubt,2
merit,1
develop,1
harassment,1
namibia,1
1942,1
1941,1
1940,1
soviets,6
involved,2
dominated,1
mockery,1
aching,1
district,1
overall,1
fixed,1
page,1
1945,1
full,3
referendum,1
destiny,1
away,6
brandnew,2
impersonal,1
aspects,1
millennium,1
mice,1
specter,1
hutchison,1
puerto,1
atrocitiesand,1
painful,1
$300,2
enhance,1
convention,3
pain,1
waning,1
center,1
suspicion,1
cooled,1
purchase,3
titles,1
manage,1
equal,1
fund,3
paid,1
grandkids,1
three,2
bosnia,2
ordeal,1
remembered,1
sweden,1
whoever,1
1970,1
season,1
controversial,1
lonely,1
intransigent,1
tenant,1
hardware,1
players,1
ashcroft,1
1990,1
schwartzkopf,1
roads,1
piled,1
pennsylvania,1
1987,1
judicial,1
shuttle,1
1985,1
provide,1
allocate,1
1983,1
1981,1
1980,1
mean:,1
consultation,1
unfinanced,1
1989,2
primary,1
interdiction,3
enterprise,1
reliability,1
paperwork,2
teaching,1
phased,1
lot,6
panama,2
1997,1
los,1
computer,1
aided,1
lou,1
low,1
1993,1
angels,1
1991,1
solidarity,2
tumble,1
merely,1
better:,1
meant,1
wealth,1
means,1
funding,2
initial,1
fury,1
dole,1
clicked,1
[of,1
fellow,1
interests,3
door,1
quick,1
consequences:,1
alliance,1
noriega,5
recognizing,1
husband,1
experience,3
commander,1
wasteful,1
zone,1
renegade,1
controversies,1
combination,2
obtain,1
fixing,1
minutes,1
helsinki,2
sacrifice,1
prague,2
particular,1
done,2
illegal,1
pause,1
economies,1
congratulate,1
kurdish,1
overriding,1
cohesion,1
ease,2
woerner,1
certitude,1
mathematics,1
relied,1
mike,1
regents,1
part,3
conversations,1
east,1
blaming,1
technocrat,1
relief,1
elvis,1
affirmed,1
manpower,1
cooperated,1
economics,1
someone,2
gratitude,1
earn,1
interfere,1
mankindpeace,1
apartment,1
fitting,1
programsmicromanagement,1
annexation,1
reductions,1
evolved,1
mutually,1
compassion,1
eighties,2
path,2
crack,1
bind,1
record,6
chicago,1
prevention,1
bunker,1
pass,1
past,2
nineteen,1
mile,1
demoralization,1
milk,1
bill,5
easy,1
whose,1
senior,1
scandals,1
oceans,1
adult,1
relative,1
leaguehave,1
touched,2
thrived,1
accelerating,1
existed,1
dayespecially,1
adoption,2
handing,1
mine,1
mind,1
grateful,2
emergence,1
operational,1
involve,4
9th,1
touches,1
breathless,1
sabah,1
inch,2
paul,1
added,1
hopefulness,1
emergency,2
down,17
launching,1
recommendations,1
habit,1
brings,1
legal,3
fortitude,1
signal,1
buddies,1
seated,1
reviving,1
exhaust,1
varied,1
agreements,1
endorsed:,1
month,5
schwarzkopf:,1
occasions,1
tackle,1
democracyaffirm,1
needles,1
rather,1
importance,1
worthy,1
endless,1
papers,1
miss,1
incentives,3
hemisphere,1
nuclear,7
devastatingly,1
human,3
prince,1
kuwait,11
blessed,1
henry,1
blanket,1
recommends,1
withstood,1
pays,1
brothers,1
triumphed,1
exhausted,2
convert,1
charisma,1
relish,1
division,1
mosbacher,1
supplies,1
fascinates,1
usually,1
whereas,1
proudly,1
inspection,1
fear,4
adversity,2
agendas,1
ter]about,1
appreciation,1
signed,2
sense,2
field,1
served,1
legitimate,2
baseball,1
realities,1
senators,3
goodbye,1
skip,1
targets,2
mention,1
terrorized,1
about:,1
legally,1
wouldn,2
man,13
stifled,1
map,2
ennobles,1
may,1
advocates,1
ranknot,1
bless,1
reforms,1
addict,1
murders,1
vividly,1
authorizing,1
statutes,1
agonies,1
contemplates,1
feet,1
fees,1
defending,1
recognition,1
feel,1
ter]the,1
aisle,1
wright,1
convene,1
bipartisan,4
terrible,1
ideal,1
ideas,1
pressure,1
interrupted,1
becomes,1
literacy,1
feed,1
pessimists,1
directions,1
martial,1
background,1
homeand,1
rejoiced,1
oriented,1
millie,1
constitution,1
cocaine,1
blend,1
nationalized,1
breath,1
airborne,1
idea:,1
men,1
ghettos,2
repeat,1
louis,1
justification,1
physical,1
met,2
fouled,1
speeches,1
bush!the,2
exactly,1
structure,2
``elvis,1
mfn,2
``good,1
lightened,1
mercy,1
deceased,1
depend,1
about,28
danger,1
micromanagement,1
character,5
above,1
stick,1
height,1
goals,3
beaten,1
myself,2
invent,1
frozen,1
received,2
wonderful,1
substantial,1
``clinton,1
quality,4
booth,1
avoided,1
saddam,6
consistently,1
boost,1
sincere,1
shared,4
disabilitiesin,1
outset,1
vigor,1
eliminate,1
believe,9
arabian,1
fell,1
into,11
voyages,1
supports,2
mix,1
holes,1
destruction,2
crumbled,1
middle,2
prosper,1
though,1
renewal,3
strategies,1
appeal,2
heavenly,1
mondale,2
polio,1
everyday,1
transportation,1
bureaucracy,1
holds,1
experts,1
open,1
salvation,1
suffering,1
forced,2
reintroduce,1
invest,1
funded,1
california,1
abound,1
women:,1
solutions,1
felt,1
bears,1
conquest,1
withdrawals,1
advisers,1
tragically,1
sucked,1
forces,8
flying,1
proposals,1
allow,1
proper,1
polls,1
despicable,1
18th,1
gesture,1
tonight:,1
urgency,1
stalled,1
indicted,2
lakes,1
patrol,1
recently,1
tempts,1
hostages,2
incredible,1
flatly,1
renewed,1
stakes,1
money,4
healthy,1
forever,1
paychecks,1
euphoria,1
achievement,1
claimed,1
whole,5
fingers,1
revolution,2
movies,1
reliable,1
humor,1
attempts,1
profits,1
still,3
shotgun,2
toward,2
books,2
knowing,1
legitimacy,1
among,1
humiliating,1
americansall,1
internal,1
healthier,1
republican,3
defended,1
enjoy,1
ourselves,1
specified,1
throwing,1
flexibility,2
believes,1
believer,1
federal,11
believed,1
include,3
swallow,1
nurture,1
sends,1
ceilings,1
mrs,1
cutting,2
unarmed,1
ages,1
voice,1
regrettably,1
prepared,2
divorces,1
few:,1
``george,1
budding,1
legislated,1
fascism,1
uncertainties,1
thisin,1
iraqis,1
failed,1
sounding,1
literate,1
ter]but,1
invaded,1
deployed,1
retraining,1
warhead,1
youngsters,1
expedited,1
talks,1
margraves,1
distances,1
summers,1
ultimately,1
kennancrafted,1
jack,1
command,1
designed:,1
saved,1
leading,1
againit,1
urge,1
slab,1
cuellar,1
famine,1
because,11
educate,1
moving,4
seventies,1
eckhardt,1
plumbers,1
agreement,3
dealing,3
mayor,1
contains,1
selection,1
permits,2
guess,1
boris,1
science,1
restaurants,1
happening,1
returns,1
detail,1
eloquent,1
sleep,1
optimistic,1
hungry,2
blindfolded,1
banishing,1
behavior,5
intimidated,1
minimize,1
preferences,1
failures,1
pushing,1
plundered,1
debates,1
emerge,2
sweet,1
ago:,1
slap,1
anniversary,1
incorporates,1
eager,1
republic,2
historical,1
couldn,1
discrimination,2
artillery,1
doesn,4
poised,1
cruel,1
wrote,1
capping,1
intentions,1
jail,1
gather,1
insist,1
risen,1
preeminent,1
discriminating,1
shevardnadze,2
rises,1
cynical,1
supportand,1
baggage,1
technical,1
enslavement,1
pendleton,1
rico,1
havoc,1
responsible,1
backthink,1
mistake,1
capabilities,1
bargaining,1
initiativesfor,1
toil,1
rich,4
rick,1
agencies,1
praise,1
glasnost,2
sweat,1
attacked,1
family,2
deliberate,1
career,1
told,1
manitoba,1
release,1
rolled,1
crosses,1
moral,1
judge,3
similar,1
partnership,2
olympics,1
extradite,1
thousands,1
driver,1
titanic,1
driven,1
against,5
creators,1
materialist,1
parole,1
representations,1
holiday,1
remind,1
encourage,1
modernizing,2
indicates,1
deficit,2
uphill,1
neighborsneighbors,1
stores,1
eisenhower,4
200th,1
slip,1
anchor,2
firing,1
uruguay,1
francisco,1
honor,5
languishing,1
pages,1
yeltsin,1
thrifts,1
cable,1
``just,1
new,2
took,6
baghdad,2
positions,3
tool,1
more:,1
underestimated,1
tons,3
continuance,1
bestowed,1
franklin,1
mercilessly,1
mandate,2
medic,1
reaching,1
media,1
tort,1
around,6
joyous,1
everglades,1
define,1
tore,1
talented,1
dictate,1
haven,2
stepped,1
imaginings,1
havel,2
egypt,1
buffalo,1
prelude,1
employment,1
specific,2
korean,1
steppes,1
warheads,3
workable,1
risks,1
engage,1
risky,1
territory,1
persuading,1
amendment,1
deserve:,1
ring,2
birthright,1
nih,1
bargain,1
cheese,2
professional,1
alaskan,1
decided,1
ingrained,1
nationgenerous,1
tumbling,1
shoulder,2
cheers,1
fully,7
eliminated,1
imminent,1
pettiness,1
liberated,1
khadaffi,1
slow,1
formulating,1
supplying,1
prouder,2
heartiest,1
$500,2
complexity,1
undisputed,1
maybe,3
regrets,1
students,1
permitted,3
disabled,1
mechanism,1
poison,1
ghetto,1
tour,1
lincoln,2
stayed,1
absolute,1
understood,1
perry,1
supported,2
intercontinental,1
solved,1
boast,1
research,3
houses,1
sovereign,1
imagine,1
attractive,1
town,1
whack,1
girl,1
mentally,1
whatever,2
decrease,1
destroying,1
lanka,1
wartime,1
involving,1
continentfor,1
crocodile,1
blind,2
hidden,1
nearly,1
house!,2
simplicity,1
non,2
magnify,1
nor,1
not,34
intentionsthat,1
now,21
tempered,1
statement,1
thought:,1
lived,1
delivery,1
thoughts,1
election,1
breaks,1
continuity,1
ronald,1
what,23
detailed,1
battles,1
risk,2
rise,1
colin,1
erich,1
criteria,2
when,28
contested,1
merritt,1
modest,1
struggling,1
catch,1
promising,1
give,4
idealism,1
lives,1
endures,1
depends,2
redirected,1
talksconventional,1
dissolution,1
limiting,1
probed,1
ships,2
kean,1
determined,1
farms,1
idealist,1
prevail,1
ladies,1
burdens,1
gimmicks,1
something:,1
condoms,1
direct,1
futile,1
inelegant,1
destructiona,1
enabled,1
hardship,1
modern,1
enables,1
wrong,5
organization,1
heads,1
awork,1
certain,3
board,1
levels,1
[south,1
pursuing,1
spelled,1
cycles,1
used,4
constantly,1
earned,2
mustard,1
threaten,4
awoke,1
futurein,1
insufficiently,1
keyboards,1
tsongas,1
borne,1
recurring,1
dependable,1
solely,1
market,5
roving,1
effects,1
indifferent,1
keep,8
citizens:,1
cruise,1
bargain:,1
solemn,1
reagan,4
deserves,2
walesa,1
alone,1
rearing,1
strive,1
words:,1
along,2
designed,1
selective,1
handful,1
critics,1
contained,1
aloof,1
turrets,1
uses,1
disproportionate,1
diminishing,1
bring,3
assures,1
promoted,1
warfare,1
promotes,1
grandchild,1
neglect,1
departing,1
promoting,1
employers,1
revolutionize,1
league,1
armenia,1
saudi,5
thirds,2
neighborclaim,1
turning,1
peace,6
consideration,1
competitive,2
frank,2
endlessly,1
insured,1
ordering,1
kemp,1
multinational,1
rescued,1
search,1
laundering,1
whom,1
inhumane,1
relinquish,1
humanity,1
innovation,1
blurring,1
peacekeeping,1
alternate,1
third:,1
fueled,1
essential,1
sanctity,2
mistake:,1
recommendations:i,1
tailored,1
ditch,1
endive,1
thunder,1
manageable,1
generosity,2
ceaselessly,1
japanese,1
warning,1
celebrating,1
commissioner,1
deduct,1
image,1
confrontation,1
countervailing,1
celebration,1
temptation,1
carry,1
burst,1
arose,1
frame,1
aggressionand,1
compelling,1
clash,1
mistakes,2
perez,1
burden,3
overture,1
gdansk,1
brightest,1
teachers,2
oak,1
mosaic,1
trouble,1
class,1
planeload,1
mayors,1
counter,1
kept,1
management,2
counted,1
significantly,1
straightforward,1
very,19
decade,2
practice,1
congress,4
weaponry,1
delayed,1
55th,1
legislative,1
bitterness,1
perks,1
french,1
khalid,1
burns,1
encouraging,1
dispatched,1
issue,1
literally,2
lower,3
innocents,1
index,2
odd,2
radiating,1
conservation,2
traditional,1
acted,1
dumpers,1
untiring,1
continuing,2
of:,1
turned,1
r&da,1
eventually,1
library,5
dependence,4
peril,1
roamed,1
barbara,2
camera,1
modernize,1
veto,1
sadly,1
seemed,1
slums,1
vaclav,2
despot,1
draw,1
off,4
sponsoredfingerprints,1
disabilities,1
exploring,1
seriousness,1
complete,2
kathy,1
burke,1
rationally,1
buttressed,1
edge,1
marshal,1
claim,1
credibility,1
perot,5
(approx,1
toxic,1
months,1
lance,1
follows,1
1990sone,1
confronted,1
chosen,1
daniel,1
expand,2
savers,1
coal,1
devastating,1
columbus,1
codify,1
hammer,1
displace,1
passionate,1
keys,1
devastation,1
oil,14
productivity,1
dreamed,1
proposition,1
fight,6
brief,1
allows,1
pretty,1
determine,1
homeless,2
carla,1
drew,1
wrought,1
lands,1
spiritual,1
crumbling,1
puritan,1
remarks,1
disqualified,1
strategic,3
retool,1
promised,1
invasionhis,1
speaking,2
exercises,1
estimate,1
universalism,1
muslims,1
promises,1
capitaleverything,1
breaking,1
proposal,2
spoils,1
settled,1
old,2
opponents,2
lowered,2
diseases,1
ancient,2
consolidated,2
javier,1
starting,1
device,1
checking,1
conservative,1
activity,1
variety,1
tanks,1
george,1
thompson,1
caution,1
unemployed,1
one,21
incurred,1
connected,1
pull,1
gridlock,2
complementing,1
subway,1
dealer,1
buying,1
assist,1
threatens,1
country,12
exporting,1
aide,1
excellence,1
willing,1
blessings,1
midstream,2
briefing,3
amazing,1
aids,10
details,1
satisfactory,1
serbia,1
treated,1
bush!,4
ensure,1
chancellor,1
extract,1
procurement,1
towns,1
solve,1
region,3
support,7
locating,1
consoling,1
shaped,1
boskin,1
yoke,1
destination,1
learning,2
cold,3
resolutions,1
pure,1
life,8
honey,1
mcgovern,1
lies,3
mandated,1
spells,1
cases,1
wide,1
regime,2
brighter,1
biblical,1
trivia,1
mandates,1
lied,1
succeed,1
dryers,1
interrogated,1
location,1
proportions,1
revel,1
woven,1
competition,2
none,2
problem,4
closing,1
years:,1
voluntary,1
presence,1
seized,1
inescapably,1
wife,2
come,6
push,1
innovative,1
exist,1
examples,1
instrumental,1
vetoing,2
lift,1
resourceful,1
sexual,1
cerebral,1
hormones,1
brezhnev,1
repressive,1
distribution,1
our,23
out,27
capacity,3
cope,1
dart,1
elaborated,1
educationanother,1
darn,1
dark,4
sensible,2
cool,1
illegality,1
cornerstones,1
example:,1
puts,1
emaciated,1
liners,1
unified,1
chorus,1
owe,1
minimum,1
magic,1
date,1
reveal,1
isolationism,1
data,1
rightful,1
corn,1
own,1
drum,1
drug,2
norm,1
realistic,2
successes,1
partisan,1
consequences,1
simmer,1
blow,1
climbing,1
convulsed,1
development,1
like,14
resource,1
asserted,1
proposes,1
branches,1
activism,1
ending,1
core,1
efforts,2
proposed,1
council,4
fraud,2
hills,1
dazzling,1
ground,4
embassy,1
note,1
everybody,5
you:,3
penalty,3
line,1
sentencing,1
link,1
recovery,2
``invest,1
fiscally,1
intends,1
hearts,1
regimes,4
fester,1
affairs,3
cost,3
stories,1
aims,1
confronts,1
will,20
confidence,4
dictator,3
certifiably,1
groups,1
loopholes,1
oath,1
compliance,1
york,1
assured,1
challenge,1
dignity,1
wild,1
slowed,1
wastes,1
chips,1
functions,1
govern,1
your,3
palestinians,1
explanation,1
these,20
begins,1
protected,1
graduation,1
seewhat,1
investing,1
prison,2
coup,1
baker,2
analysis,1
rewrite,1
lion,1
dissension,1
graduating,1
seizing,1
suggestionsto,1
dawn,1
wing,1
bombers,3
humble,1
folly,1
independent,1
achieve,1
ahead,1
concluded,1
yellow,1
talking,11
economically,1
fervent,1
headline,1
cooperatively,1
faced,1
neighborviolated,1
soviet,5
billionthat,1
wipe,1
americans,2
hollows,2
lips,1
speaks,1
unprecedented,1
days,4
echoed,1
governs,1
combined,1
faces,1
imperial,2
discuss,1
liberal,8
harmony,1
acceptable,1
turmoilhow,1
sharply,1
chill,1
wish,1
deadly,1
invigorating,1
pac,2
wise,1
huddleston,1
amounts,1
andrei,1
pay,1
enormous,3
list,2
strange,1
candidates,1
evan,2
wire,1
spending,9
treasury,1
forgotten:,1
lisa,2
folks,1
preserving,1
child,1
withholding,1
againbipartisan,1
ghali,2
germany,1
divided,1
capitalthe,2
medium,1
remove,1
wisdom,1
starvation,1
producing,1
peacekeeper,2
normalcy,1
germans,1
live,1
responded,1
harbors,1
victory,7
perform,1
uniforms,1
occurring,1
with,29
r&d,1
china,2
service,1
there,34
victors,1
hectic,1
fate!,1
smuggled,1
monuments,1
``the,1
american,4
americas,1
russia,1
heroes,1
pen,1
per,1
period,1
africa,1
proceed,2
infants,1
a&m,4
birth,2
oilers,1
ever,4
loving,1
assisted,1
even,1
cuomo,1
integration,1
meetings,1
assumed,1
engaged,1
kinds,1
injured,2
tainted,1
imperative,1
monday,1
violence,2
robust,1
foley,1
granddaughter,1
verge,1
tensions,1
policemen,1
unilateralism,1
imposed,2
chanceseveral,1
manner,1
mckinney,3
judgment,1
members,1
stock,1
guarantees,1
verification,1
suspend,1
overkill,1
terror,1
everyone,2
strengthened,1
kings,1
stalags,1
guaranteed,1
senator,1
condoned,1
hymns,1
privates,1
rarely,1
evil,1
rising,1
prisoner,1
cause,1
represents,1
godspeed,1
intended,1
working,5
friday,1
victim,2
conformity,1
department,1
penetration,1
chief,4
accord,1
aircraft,1
kicked,1
contributing,1
followed,1
despite,1
thoughand,1
qatar,1
obey,1
fantastic,1
interested,1
machines,1
policeman,1
action:,1
accessibility,1
waivers,1
ahepa,1
teenagers,2
unproductive,1
liberty,2
lawrence,1
meeting,1
confidential,1
bible,2
began,2
demolishing,1
exposed:,1
recognize,1
warehouse,1
echoing,1
bravely,1
i`ve,1
shrewd,1
reality,1
brutality,1
offend,1
actions,1
safeguard,1
sunrise,1
overalls,1
giving,1
realism,1
scrutiny,2
facts,1
marine,1
hungary,1
freer,1
excuse,1
frees,1
butand,1
pow,1
enlist,1
trillion,1
giver,1
escape,1
demonstrating,2
emerging,1
gives,1
validate,1
latest,1
receive,2
consulting,1
unfocused,1
declaration,2
shaping,1
standing,1
unspeakable,1
peeking,1
rightover,1
manned,1
prosperous,1
representatives,1
feelings,1
friendship,1
exploding,1
fact:,1
disappointed,1
wheats,1
continue,2
mediocrity,1
realize,1
offers,1
given,2
accountable,1
predated,1
somalia:,1
crimes,2
freed,1
uncomfortable,1
pro,1
casualties,1
country:,1
playing,1
expounding,1
asking,1
tirelessly,1
anything,2
agriculture,2
heavens,1
prudent,1
horton,2
parrino,1
zimbabwe,1
bahrainall,1
endorse,1
genius,1
embargo,2
bravery,1
medicare,1
shadow,1
semitism,1
workamerican,1
stormgeneral,1
program,10
put,7
options,1
gangs,2
trap,1
struggle,1
grows,1
redevelopment,1
most:,1
meets,1
mirrors,1
unfolds,1
iran,2
conclusions,1
iraq,1
iras,1
heritage,1
then:,1
light,4
classrooms,1
indomitable,1
valuable,1
satisfactions,1
questioning,4
formulate,1
hoar,1
alikethe,1
emigrate,1
themy,1
theme,1
grown,1
barrel,1
desire,2
terrified,1
unfortunately,1
ravage,1
january,1
permanent,1
foster,2
organized,1
infested,1
choice,1
travel,1
homelessness,1
defeated,2
civilization,1
replace,1
pakistan,1
listen,1
assumptions,2
wondering,1
do:first,1
major,1
answering,1
worldwide,1
funds,1
consider,1
group,1
imports,1
gross,2
porch,1
tree,1
soak,2
distrust,1
hurts,1
absolutely,1
managing,1
sustain,3
arbitrarily,1
anchoran,1
request,1
their,6
percent,7
banking,1
depositors,1
general,1
september,1
process,1
requirements,1
clear,2
clean,1
sock,1
columnists,1
neither,1
fulfilling,1
glad,1
selflessly,1
uneasy,1
asians,1
innocent,1
understand:,1
safer,1
come:,1
trip,2
scapegoating,1
rally,1
lloyd,1
knowledge,2
soft,1
jump,1
prime,1
happen,1
flexibly,1
beena,1
loyal,3
mainstream,2
july,1
yugoslavia,1
population,1
atlantic,3
route,2
flexible,1
trying,7
millions,1
wisely,1
negotiated,1
comes,2
unwilling,1
cambodia,1
soil,1
trusting,1
capability,1
involvement,1
haunts,1
spark,1
peter,2
hearing,1
embedded,1
democrats,2
``i,1
transition,1
tells,1
prevails,1
june,1
series,1
justone,1
represent,1
compete,1
arkansas,1
moscow,1
hold,2
chinese,1
prior,1
rubber,2
talk,9
``wall,1
tall,1
landmark,1
dedicated,1
planet,1
2000,1
planes,1
take,8
immediate,1
budgets,1
electrified,1
seams,3
plunging,1
some,12
subtlety,1
session,2
additional,1
symbolized,1
primarily,1
passes,1
tennessee,1
passed,2
tank,2
reception,1
just,8
respects,2
rediscover,1
sole,1
sold,1
midnight,1
hometown,1
jury,1
holy,1
``son,1
affects,1
home,1
arrogantly,1
existing,1
genocidal,1
material,1
iron,1
refocused,1
explain,1
taps,1
hope,3
great!,1
soon,1
executive,1
tables,1
gardner,1
hook,1
sons,1
classified,1
heavy,1
hong,1
[national,1
faraway,1
hardest,1
machinery,1
summed,1
britain,1
carpenters,1
conquered,1
innovators,1
summer,1
robert,1
streaming,1
listencome,1
member,2
incidents,1
creed,1
together,1
sakharov,1
within,2
health,2
gathered,1
positive,2
agents,1
prospect,1
machine,1
efficiently,1
evening,5
return,1
$800,1
practically,1
eliminating,1
serve,3
iraqi,5
intercepted,1
confused,1
surrendering,1
fine,2
find,1
host,1
selected,1
pilots,1
pleasant,1
youwelcome,1
definitive,1
seriously,1
breeze,2
sort,1
fill,1
heart,1
transforming,1
trash,1
task,1
convenient,1
true,1
flaws,1
uninspired,1
tactics,1
position,4
since,3
soul,1
divad,1
dangerous,1
harder!,2
troubles,1
timeless:,1
hour,2
leadership,2
ambivalence,2
alliances,1
troubled,1
agitate,1
heard,2
sought,1
extraordinary,1
sander,2
evident,1
roadblock,1
writer,1
merchants,1
coming,2
povertyand,1
credible,1
chamberdemocrats,1
firm,1
airborne:,1
ignorant,1
fire,3
reason:,1
negligible,1
pentagon,2
fashioned,1
verificationextraordinarily,1
scowcroft,1
disastrous,1
villagers,1
except,1
programs,7
thinking:,1
professionalism,1
aggressors,1
superiority,1
shipyard,1
illinois,1
global,1
fist,1
outline,1
unless,1
plants,1
perspective,1
operating,1
ought,9
invade,1
roquejeoffre,1
people,28
broadest,1
democracy,1
peninsula,1
abandon,1
intolerable,1
operation,1
broadens,1
//a,1
alarming,1
obligations,1
inside,1
cause:,1
secretaries,1
alone:,1
leaves,2
five,1
celebrate,1
admirable,1
offshore,1
announced,1
gunpoint,1
owning,1
youthful,1
campaign,1
systematically,1
conflict,1
loudly,1
reasons,1
rough,1
america:,2
decriminalizing,1
father,1
swept,1
assistance,1
commerce,2
schedules,1
wants,2
definition,1
wonder,1
every,7
mechanized,1
answered,1
again,3
evident:,1
taxpayer,2
stockpile,1
indiana,1
coerce,1
request:,1
during,1
wisest,1
embodies,1
instill,2
hamstrings,1
price,1
defensive,2
now!and,1
ever:,1
dependent,1
welcomes,1
reduced,1
agree,4
risked,1
arabs,3
resistance,1
trade:,1
fascination,1
welcomed,1
itself,1
versions,1
anyone,1
pride,1
embodied,1
broadcast,1
distress,1
colorsby,1
civilized,1
regions,1
hoped,1
thumb,1
protector,1
substitute,1
uniform,1
furloughed,3
causes,1
hopes,3
collective,1
thatwhat,1
demonstrated,1
event,1
witnessed,1
established,2
finger,1
including:,1
agency,1
caused,1
fascinating,1
agenda,3
evolving,1
holocaust,1
cannot,1
span,1
gasohol,1
lawyers,1
prefer,1
sped,1
minority,1
greenspan,1
planners,1
space,1
reference,1
hope:,1
chamber,1
arrange,1
struggles,1
bottom,1
commitment,1
o!the,3
praising,1
covered,1
airlift,1
intervention,2
constant:,1
solving,1
statements,1
membership,3
network,1
terrorist,3
holding,1
trace,1
moments,1
public,1
array,1
terrorism,2
nominee,1
markwell,3
looted,1
track,5
modernization,1
monetary,1
charging,1
resources,1
sisters,1
expensive,1
calderon,1
trade,3
performance,1
round,1
ambassador,1
insisted,1
unveiled,1
horses,2
vague,1
references,1
simple:,1
alsoi,1
building,3
setting,1
score,1
quote,1
alaska,1
raf,1
nationalism,3
truman,1
shaking,1
authorities,1
donethe,1
institute,1
southern,2
ridiculed,1
uncertainty,1
sentimental,1
dollar,1
rolling,1
aspect,1
departments,3
scott,1
breathed,1
federation,1
pulled,1
oppression,1
authoritatively,1
forefront,1
calling,1
qualities,1
frankness,1
blames,1
couple,4
moved,2
demise,1
red,1
act,5
helped,1
finish,1
warsaw,1
gifts,2
swift,1
ada,6
add,1
wealong,1
consent,1
helpless,1
mutual,1
peacefully,1
ruins,1
panamanian,3
therefore,1
exchange,1
washington,1
trust,1
campaigned,1
nightif,1
comprehensively,1
universally,1
soldiers,1
prevent,3
benjamin,1
transcends,1
disturbing,1
happiness,1
sorry,1
ratings,2
scope,1
morale,1
embrace,1
judicious,1
label,1
message,1
recorded,1
justand,1
modify,1
truth,1
moves,2
exempt,1
age,1
shoulders,1
smaller,1
movie,2
ago,1
yearn,1
rumors,2
rid,1
years,3
fisher,1
disappointment,1
objectivestimetablesand,1
rim,1
odds,1
decline,2
businesses,1
swiss,1
exit,1
system,2
likelihood,1
presenting,1
aid,1
sleeves,1
other,7
aim,1
year:,1
imprudent,1
retain,1
air,1
skilled,1
crew,1
defeat,1
tenacity,1
speak,2
outcome,2
sacred,1
infected,1
sundered,1
horrors,2
jews,1
inauguration,1
future,2
demagogs,1
movement,1
signing,1
abouthe,1
impressed,3
body,1
missouri,1
commenced,1
am:,1
implemented,1
complement,1
all,15
always,2
already,1
barrels,2
conducted,1
adhere,1
maintaining,1
alan,1
territorial,1
prayers,1
singled,1
billiere,1
communicates,1
weakness,3
and,244
ration,1
dump,1
ann,1
abroad,2
unnecessary,1
any,4
caring,1
suggested,1
communicated,1
until,1
honorable,1
collapse,2
expanding,1
concession,1
thought,2
prosecution,1
treaties,1
anywhere,1
battalion,1
chiefs,1
quisling,1
spirita,1
poverty,2
resort,1
shelters,1
righting,1
devoted,1
margin,1
broke,1
nail,1
hosts,1
sunlit,1
000,1
risktakers,1
territories,1
atomic,1
grade,1
tyrants,1
choices,1
succeeded,1
increased,1
inspiring,1
increases,1
uncharted,1
diversity,1
fruits,1
are,43
came,2
grace,1
patience,1
captive,1
where,11
broader,1
arm,1
kids,3
vice,2
art,1
thoughtful,1
empower,1
delegates,1
abraham,1
call,3
calm,1
ownership,1
partners,1
ask,2
stalks,1
relations,1
``american,1
rub,1
packard,1
through,2
vision:,1
engagement,3
becoming,1
strength,1
disregard,1
officer,1
offices,1
towering,1
run,1
justified,1
enact,4
bomb,1
cans,1
mother,1
view,1
ours,1
all:,1
neighbors,1
out:,1
yourself,1
bicentennial,1
dust,1
results,1
accomplishing,1
bold,1
camp,2
volunteer,1
instability,1
name,2
university:,1
neighborhood,2
mourn,1
stalin,2
crunch,1
benefits,1
congressional,2
branstad,1
mood,1
book,1
truck,1
approaching,1
caps,1
kicking,1
alma,1
icbm,1
defend,1
ally,1
crying,1
indiscretion,1
bono,1
armstrong,1
legalizing,1
awe,1
target,1
momentum,1
spendthrift,1
duty,2
commonsense,2
moms,1
when:,1
leader,1
dangers,2
assignments,1
republicans,1
developers,1
janes,1
pledged,1
corruptions,1
amnesty,1
monitored,1
cast,1
anxious,1
broad,1
officials,2
participating,2
truly,2
greater,1
elevate,1
case,2
generation,1
item,1
images,1
subscribes,1
emigration,2
lifetimes,1
schoolchildren,1
saving,1
moon,1
phone,1
carl,1
matched,1
excessive,3
jungle,1
card,3
care,2
bennett,1
participation,1
damage,1
assault,1
tolerated,1
hussein,6
fulfilled,1
pattern,1
exercise,1
criticizes,1
exhilarated,1
scrape,1
rededicate,1
lebanon,2
protect,1
nato,1
contingencies,1
more,13
born,1
anytime,1
kill,1
bore,1
beings,1
spurs,1
nasa,1
stimson,2
cured,1
accounts,1
tyranny,1
bidding,1
navy,1
simple,1
nave,1
percentage,1
talent,1
described,1
factual,1
negotiate,1
package,2
king,1
kind,5
tumult,1
consultations,1
both,1
most,2
heartened,1
nerve,1
clinics,1
guillermo,1
affecting,1
polemic,1
inspiration,2
partas,1
understands,1
patient,1
reject,1
sad,1
phony,1
mentioned,1
sequester,1
maimed,1
san,1
move,1
amount,1
sat,1
saw,4
also,2
say,12
cloudless,1
enough,1
increase,4
spread,1
educated,1
said:,1
favor,9
organizations,1
guests,2
depression,1
simply,4
ugliness:,1
gloat,1
bad,1
reflected,1
completing,1
ban,2
dissenting,1
suffer,1
expeditionary,1
personal,1
pitching,1
alum,1
underestimate,1
delay,1
globe,1
violates,1
chemical,2
sdi,1
greatly,1
ter]this,1
deal,4
strong,3
abuse,1
vantage,1
facing,1
buildup,1
dead,3
necessitating,1
proven,2
ministers,1
eyes,1
cleansing,1
sea,2
proves,1
proved,1
containment,1
see,30
inward,2
responsibility,1
dear,1
set,2
richardson,1
joined,1
oval,1
practices,1
battle,1
awesome,1
earnest,1
river,1
eyed,1
kite,1
bed,2
beauty,1
labored,2
bet,1
marriages,1
wedlock,1
france,1
clear:,1
digit,1
instructive,1
viva,3
convoys,2
unstable,1
she,3
danforth,2
debt,2
little,9
deep,2
unshackled,1
forgive,1
maryland,2
regulatory,1
capable,1
parade,1
explained,1
regulators,1
getting,2
jersey,1
clears,1
supervision,1
await,1
sin,1
unfair,1
confines,1
sir,1
sit,3
kilroy,1
conversion,2
over,4
independence:,1
brilliant,1
six,1
practical,2
living,1
undermined,2
bound,2
falter,1
football,1
elusive,1
presley,1
interestsand,1
demolished,1
avoid,3
fresh,2
bid,1
comprehensive,1
bipartisanship,1
big,5
select,1
advanced,1
thankful,1
convinces,1
improves,1
peers,1
recommendation,1
nations,15
bit,2
thanks,2
improved,1
striking,1
convinced,1
advances,1
unrewarded,1
beside,1
model,1
tasks,2
sky,1
reduce,3
surface,2
large,1
20th,2
satisfied,1
mists,1
tomorrow,4
transactions,1
foresight,1
phil,2
refinance,1
operate,1
doctrine,1
begin,1
secondly,1
weekend,1
lulac,1
finishing,1
viewed,1
hopefully,1
immigrant,1
tradition,1
convicted,2
table,1
amidst,1
resisted,1
unfree,1
creator,1
change,5
nowevery,1
systematic,1
extremes,1
likewise,1
punishment,1
separations,2
corporate,1
initiativehopeto,1
facilities,1
improvements,1
waiving,1
theirs,1
constant,1
several,2
office,2
northern,1
anger,1
tests:,1
stands,1
son,1
petroleum,1
redtape,1
longstanding,1
retrained,1
thrown,1
alleviating,1
permanently,2
relevant,1
bob,1
deduction,1
sincerest,1
rewarded,1
enacted,1
gladiators,1
evermore,1
comprised,1
behind,1
infinitely,1
boo,3
medicaid,6
box,1
principals,1
mental,3
bow,2
boy,1
racial,1
switch,1
1/2,1
workshops,1
prices,1
highly,1
unfortunate,1
chance,4
tearful,1
nature,3
wheel,1
enthralled,1
proviso,1
throwback,1
sri,1
budgeting,2
100,1
fightin,1
awards,1
quarrel,2
[arkansas],1
longfellow,1
amen,1
forging,1
stance,1
closest,1
murderers,1
stoop,1
coherent,1
county,1
buried,1
stood,3
fighting,1
democracies,1
dynamics,1
encouraged,2
scandal,1
geography,1
horrible,1
friend,1
paine,1
drawn,1
societies,1
deny,1
closely,1
unrealistic,1
easygoingness,1
morning,1
glory,1
120,1
mission,1
requested,1
servicemen,1
doctors,1
acknowledging:,1
128,1
stops,1
conditions,1
lessons,1
sue,1
enhances,1
pride:,1
jogging,1
overcome,1
cooperate,1
sum,1
grounded,1
ports,1
sun,1
extended,2
serving,1
current,2
resorting,1
secretary,2
democrat,3
actively,1
civilian,1
participants,1
offensive,1
knights,1
storm,6
stalling,1
makes,1
threatened,1
amid,1
enemies,1
beloved,1
condemned,1
patrolling,1
unconditional,1
gallon,1
story,3
but,54
dissent,1
bus,1
symbol,3
away:,1
suppliers,1
buy,2
express,1
150,1
zero,1
cheered,1
missile,1
written,2
wishes,1
passion,7
greatness,1
dealers,2
stole,1
analysisin,1
inhibiting,1
ocean,2
andreottijust,1
naval,1
desk,2
higher,2
doing,8
idea,1
adults,1
prisoners,1
rebuffed,1
backing,1
missing,1
turnover,1
successful,1
normal,1
brutal,1
guido,1
deliberations,1
weaker,1
socialism,1
pushers,1
weaken,1
norman,1
stone,1
passing,1
todayactive,1
streets,1
tested,1
immensely,1
195,1
commencement,1
seconds,2
children,1
road,1
strategically,1
review,1
massachusetts,7
peddling,1
roar,1
nobody,1
guide,1
longtime,2
ethnic,2
efficiency,1
goal,2
natural,1
rightly,1
sergeants,1
stately,1
scared,1
totalitarianism,1
aggressor,1
flag,1
james,1
range,1
gentler,1
rock,1
freedomtoday,1
feature,1
flat,1
recall,1
suggest,1
cease,1
preparedness,1
elements,1
squalor,1
concerted,1
andabout,1
argument,1
villain,1
begun,1
hopeful,1
tremendous,1
dozen,1
andover,1
escalate,1
growing,1
centuries,1
hallmark,1
hollings,2
appropriations,1
goes,5
patients,1
tax,1
towards,1
ranks,1
chances,1
serviceman,2
safe,1
reborn,1
fragile,1
presidential,1
departure,1
herself,1
potentially,1
sail,2
cab,1
aware,1
can,25
drama,1
projected,2
targeting,1
hair,1
cap,1
car,1
eligible,1
taxing,1
floating,1
albert,1
flew,1
cincinnati,1
said,13
village,1
terminated,1
smooth,1
carried,1
cleaning,1
racism,1
texans,1
february,1
plight,1
fault,1
reunification,1
passive,1
really,1
carrier,1
response,1
counterparts,1
responsive,1
arguments,1
racist,1
