williamHowardTaft,Occurences
cancel,1
half,1
belligerent,1
supplant,1
reformatory,1
costing,1
hall,1
salary,3
naturalized,1
theorists,1
imperfect,1
commends,1
ten,1
daring,1
energy,1
deference,1
antonio,1
$,1
&,4
tex,1
(,3
squares,1
investment,2
competent,1
),3
interestwhich,1
require,2
carriers,1
*,3
especiallytrue,1
avoidance,1
0,5
standards,1
1,6
willow,2
2,6
3,5
4,5
5,1
6,1
7,1
8,2
9,2
protective,5
bycongress,1
sittings,1
newspaper,1
britannic,1
fearless,1
roll,1
concede,1
turn,1
result,6
gold,1
opposition,1
same,6
botanic,1
selfish,1
procedures,1
commission,3
after,4
hand,1
resume,1
a,137
ordered,1
contractual,1
856schedule,1
b,2
c,3
d,3
tripartite,2
00independent,1
collisions,1
e,1
f,2
g,1
h,2
i,83
j,2
k,1
l,4
m,1
violating,1
neighbor,1
blood,1
n,2
the,701
p,1
straight,1
halt,1
unimproved,1
entering,2
sale,1
r,1
s,1
t,1
panics,1
u,2
v,1
tropics,1
w,2
obvious,1
information,2
november,1
resolve,1
uprising,2
earths,3
good,3
tia,1
faithful,1
amounted,1
skeleton,1
huddle,1
suffered,1
copying,1
tin,1
besides,1
serious,2
tip,3
thereunder,1
tit,1
promotionof,1
mustbe,1
disguised,1
gone,1
sane,1
owed,1
aside,2
erosion,1
enjoined,1
(signed),1
harm,1
disturbed,1
provided,1
effecting,1
representation,1
embody,2
motive,1
postmaster,6
provides,2
shrinks,2
root,1
mainlandand,1
hard,1
termini,1
pasture,1
effectiveness,2
roof,1
definitively,1
quarters,3
congressmen,1
room,2
better,3
ranging,1
disturber,1
creeps,1
21st,1
permit,3
suitable,6
taking,3
pupils,1
voters,1
discharges,1
conjecture,1
discharged,2
gained,2
exerting,1
zelaya,4
struck,2
to:,2
flow,1
order,10
protecting,1
timid,1
traveling,2
exertion,1
propose,1
withthe,1
follows:this,1
reform,1
remit,1
ensue,1
women,1
save,1
protection,7
combatants,1
mandatory,2
frankly,1
ton,1
timefreedom,1
too,5
belligerents,1
honesty,1
orderly,1
have,65
106d,1
forfeiture,1
energetic,1
haul,3
washingtonthe,1
avail,1
question,17
reorganized,4
additions,1
drugs,1
violative,1
spirit,1
intellectual,1
incertain,1
wishing,1
(old),2
picture,1
warmer,1
trusts,7
regard,1
thousand,2
com,1
col,4
con,1
orinoco,1
findings,11
resignations,1
smyrna,1
abilities,1
owns,3
representative,1
circumstances,1
including,2
itmay,1
conveniently,1
introducing,1
devising,1
pernicious,1
constitutes,2
christmas,3
markets,1
200,1
201,1
204,1
obligation,2
violation,1
try,1
208,1
209,1
constituted,1
patriotic,1
specialized,1
became,1
ceded,1
reserveone,1
effective,2
times,1
debtor,1
215,1
217,1
says,1
direction,1
twofold,1
bachelor,1
empowers,1
warsman,1
conclusively,1
cry,1
inspector,1
22+,1
totals,1
220,3
221,2
224,1
stable,1
activities,1
harness,1
directing,1
canton,1
229,1
playgrounds,1
productions,1
respond,1
incident,2
70total,1
capita,1
exceeds,1
japan,6
concert,1
theirown,1
uncertain,1
concern,1
230,1
unimportant,1
likin,2
beautiful,3
232,2
worked,5
eventual,1
233,1
234,1
237,2
state,1
constructionwill,1
defined,1
undue,2
element,1
appointments,1
22d,1
probable,1
240,1
restraint,1
241,1
offering,2
creating,1
restrained,1
fertilizing,1
directs,1
sweeping,1
cut,2
probably,6
jurisdiction,4
concurrent,1
constitutional,2
dread,1
untrue,1
two,3
moment,1
unfitting,1
254,2
desired,1
tear,1
attack,1
259,1
reported,3
distribute,1
prevented,2
creation,1
immigrants,1
vexations,1
think,11
participate,1
occurred,2
languages,1
desires,2
forbidden,1
replaced,1
services,3
team,1
260,1
261,2
forfeited,1
chilean,3
marketing,1
speech,2
cabinet,1
thing,2
imperativethat,1
privileges,2
litigant,1
vexatious,1
tedious,1
propersense,1
peacein,1
270,2
271,1
domestic,1
275,2
initiate,1
276,1
92panama,1
278,1
paying,1
holidays,3
department:war,1
dying,1
pribilof,1
guaranties,2
stability,1
budget,1
actual,2
eastern,3
undertook,2
glass,2
reflection,1
ultimate,1
widely,1
prosecute,1
26m,1
280,1
856i,1
enlisted,2
284,1
inspected,1
privileged,1
288,1
suited,1
easiest,1
redound,1
shops,2
assume,1
567190910,1
unscoured),1
immorality,1
ences,1
banish,1
291,1
farmers,2
292,1
house,12
disaster,1
296,1
299,1
construed,1
unjust,2
hours,7
opposing,1
cairo,4
earliest,1
ostensibly,1
fallen,1
conveniences,2
tenders,1
short,2
commonwealth,1
reducing,6
finance,1
additionalreasonable,1
downward,10
measured,1
dutiesin,1
pensionable,2
abreast,1
dogmatic,1
regulate,1
ninety,1
obstacles,1
legumes,1
trains,1
required,3
measures,1
golden,1
specifically,1
savings,2
enter,17
attain,1
restoration,1
definiteness,1
sessions,2
noncombatants,1
destroy,2
dates,1
deemed,1
grouping,1
railways,2
statesmen,1
respectfully,2
coast,5
requires,2
submitting,1
leased,2
reforestation,1
bubonic,2
consume,1
trails,2
belligerency,1
anti,1
unknown,1
leases,2
frivolous,1
assure,2
consult,2
gracious,1
consuls,1
edwin,1
survive,1
agriculturethe,1
performed,1
heterogeneity,1
prevalent,1
federals,1
speedy,1
friendly,2
possession,1
outlay,1
tell,1
lawfixing,1
shores,1
manila,1
dam,2
shows,1
outlined,1
shown,1
date),1
celebrated,1
pointing,2
majesty,2
day,2
keeps,1
depredation,1
raising,1
contraband,1
claimants,2
created,1
island,2
issueinjunctions,2
water,22
corps,1
formal,1
instructor,1
higashi,1
creates,1
canadians,1
entertain,1
condemns,1
critical,1
boards,1
elsewhere,1
judiciary,2
inducement,1
tend,1
exceedingly,1
guarded,1
workhouse,3
dutiesof,1
equitable,1
sixteen,1
possessing,1
restraints,2
endowed,1
introduction,1
furseal,1
built,1
burdened,1
concentration,6
heavily,1
entertained,1
peking,2
whichcreated,1
third,5
build,1
meridian,1
equitably,1
further,2
demands,1
2417,1
contracted,1
hukuang,2
areas,3
exemption,1
parliament,1
noncommissioned,1
finds,1
dew,1
examining,1
railway,2
prieta,1
cuba,2
announcement,1
banks,2
carefully,2
going,3
scouring,2
shock,1
committees,1
paralysis,1
partisanship,1
prejudiced,1
importers,1
fines,1
monopoliesand,1
nascent,1
attitude,1
treatment,1
average,1
compare,1
obstructions,1
influential,1
bodies,2
equivalents,1
investments,1
woolgrowers,2
grasp,1
composition,1
unlike,1
respectto,2
term,1
acquisition,3
volcano,1
rigid,2
accords,1
exempting,1
ambassadors,2
business,12
advent,1
transported,1
staff,1
possible,5
right,3
partly,1
leone,1
shoes,1
stage,1
returning,1
complicated,1
maximum,3
diversification,1
under,20
did,12
quarter,1
proposing,1
die,1
repealed,2
112c,1
bulgaria,1
happiest,1
quantities,1
emory,1
$1,3
divisions,2
$2,5
exemplary,1
fears,1
$3,2
$4,3
$5,3
$6,1
later,1
$7,1
$8,1
$9,2
considerate,1
evils,1
dispensing,1
highway,1
impair,1
possibly,1
emancipation,1
parcel,9
seasons,1
angeles,1
test,1
finally,2
thedifference,1
enforcement,3
remained,1
thereafter,1
conviction,2
beirut,1
77023,1
misleading,1
sculptor,1
acceptance,1
embraced,1
final,3
expiration,2
deserving,1
occasion,1
loan,2
proportionate,1
againstlawless,1
back,1
training,3
expectation,1
heavier,1
states,8
duration,1
pound,1
hsun,1
ignore,1
company,2
engagements,2
aleshire,1
enforceable,1
ofpolitical,2
length,1
advert,1
concerns,2
grand,1
schedule,46
insurgent,1
convicting,1
grant,1
showing,1
qualified,2
bureaus,8
helping,2
construct,1
oligarchical,1
thirteenth,1
attempt,2
rivalry,1
balance,3
revealed,1
lock,4
resorted,1
latin,3
text,2
weakening,1
renounced,1
lying,1
glittering,1
beverages,1
exceeded,1
framing,1
made,23
bythe,1
conciliation,1
statue,3
electrical,1
manan,1
being,2
yielded,1
menace,3
safeguarding,1
hoping,1
contents,1
qualifies,1
maintenanceand,1
(a,1
interval,1
selfgovernment,2
status,1
(i,1
familiarity,1
operates,2
embarrassed,1
portugal,2
stamp,1
ellis,1
therace,1
scattered,1
government,6
known,3
wisdomof,1
stream,2
condemnation,1
accumulate,1
crime,1
stand,1
surround,1
characterized,2
forward,2
lacks,2
conservatively,1
zealous,1
cultivation,1
computation,1
features:,1
300,1
widest,1
301,3
pendency,1
303,1
bernardo,1
warlike,1
comparable,1
repealing,1
mail,1
approximating,1
subject,6
use,2
immigrationdistributing,1
edward,1
main,2
arrangement,3
revenue,6
310,1
sufficiency,1
313,2
concentrated,2
monopoly,2
314,1
negotiation,1
continuous,1
315,1
pretense,1
grain,1
credit,1
maid,1
citizensas,1
insofar,1
fraudulent,4
combine,1
waste,1
bearing,1
establishment,1
includes,1
dry,2
32+,1
cheating,1
deposits,2
undesirable,1
creditable,1
320,1
originate,1
321,2
varieties,1
322,2
null,1
323,1
deputies,1
dispose,2
bumper,1
graft,1
fidelity,1
33+,1
00treasury,1
negotiating,1
augury,1
jeopardized,1
smoking,2
338,1
herjust,1
threats,1
suppressed,2
unlawfulbusiness,1
make,13
included,1
hostilities,1
assisting,1
attempting,1
opposed,1
onlyfrom,1
familiarize,1
noisome,1
legitimately,1
rapidly,1
tyrannical,1
andlabor16,1
witness,1
343,2
fortify,2
due,4
346,1
conform,4
devoid,1
properties,1
00,14
02,1
inform,1
04,1
05,1
dearth,1
08,2
commit,1
friendships,2
enacting,1
sorrow,1
cure,1
646total,1
trees,2
laissez,1
350,2
observed,1
352,1
observer,1
353,1
bank,1
354,1
357,1
oppressed,1
meaning,1
drawing,1
expended,4
beneficent,1
salutary,1
10,2
upheaval,1
11,4
12,2
13,2
14,3
august,1
15,1
16,2
17,3
18,2
19,2
allied,1
execute,1
benefit,2
celerity,1
labor,7
364,1
vastly,1
365,1
367,1
highest,1
368,1
disobeyed,1
unique,1
20,6
21,3
22,3
transporting,1
23,2
24,1
25,4
seizure,1
26,2
postponement,1
examine,1
27,1
28,2
experiments,1
29,3
wiping,1
industry,4
long,3
372,1
equivalency,1
374,1
remember,1
1st,1
377,1
partition,1
garrisons,5
frightening,1
invites,1
examined,1
relationship,1
30,3
31,3
cuts,1
33,4
ourtreaties,1
34,1
35,2
36,1
expression,1
36f,1
37,1
38,2
39,1
auditor,3
drilling,1
380,1
many,8
381,1
exploiting,1
antung,1
stay,3
controlled,1
extensive,1
sovereigns,1
2d,1
387,1
transacts,1
389,1
inspire,1
increasing,5
progress,5
40,1
41,1
43,1
devote,1
44,2
statutethe,1
45,1
70executive998,1
wool,12
treat,1
agent,2
46,2
47,2
militia,1
48,2
wholly,1
49,2
approximate,1
numbers,1
rapid,1
seven,1
expressing,1
390,1
391,1
393,1
395,1
hinterland,1
3d,1
redivision,1
wood,8
50,2
klingle,1
51,1
52,1
internecine,1
54,2
55,1
admitted,1
surprise,1
58,1
59,2
seeds,1
carefulnot,1
apportioned,1
invited,1
complaints,1
bridges,1
modification,1
look,1
duress,1
rates)g,1
grounds,12
korea,2
achieving,1
00472,1
chamizal,1
60,1
61,1
62,1
63,1
65,2
66,1
67,1
69,1
needed,4
invoking,1
mass,2
lord,1
39n,1
recording,1
spoliation,1
speed,1
admit,1
common,1
interest,2
thatin,1
themselves,4
]the,2
72,1
74,1
75,4
76,3
78,4
cubic,1
apply,1
gratifying,1
separated,1
6i,1
80,3
69+14,1
81,3
step,1
fisheries,1
82,1
83,1
84,1
85,1
mark,1
base,1
87,1
89,2
subordinate,1
requisition,1
undervaluation,1
mechanic,1
ilouse,1
itinerary,1
panaman,1
loss,1
caribbean,1
incentive,1
lost,1
premises,3
90,1
91,1
92,1
93,1
emphasizing,1
preliminary,1
controlling,1
colliers,2
98,1
repayment,1
99,2
work,1
exceptional,1
00interior,1
utilization,2
cattle,1
thefifteenth,1
expanse,1
8g,1
convince,1
delays,3
missionary,1
registration,1
word,3
stated,1
theory,1
contractor,3
extension,4
nondealing,1
foundation,1
secret,1
northerners,1
across,3
unwise,3
partnerships,1
identity,1
verify,1
impotence,1
inaugurate,1
europe,2
haversacks,1
reward,1
prevailed,1
simplest,1
disagreement,1
haveauthorized,1
subjectof,1
consolidation,1
gathering,1
opinion,3
soldier,1
regulations,1
32937,1
exists,2
majorities,1
indian,3
existence,3
textiles,1
threshold,1
migratory,1
expressive,1
defendant,1
exaggerate,1
exploration,1
unsettled,2
mining,1
revision,20
waterways,1
bosphorus,1
visitors,1
preparing,2
provision,2
reasonableness,5
bays,2
voorhees,1
thrust,1
seems,1
honored,1
revising,1
sporadic,1
scientific,1
winter,1
insure,1
authority),1
clouds,1
platform,15
sojourn,1
caribbeanduring,1
jackson,1
spend,1
entrain,1
fairness,2
workwhich,1
tenants,1
heartily,1
grave,1
advantage,5
spent,1
premised,1
telegram,2
moroccan,1
sameway,1
instead,1
improvident,1
shipments,1
frederick,2
indies,1
abortive,1
cuban,1
slightest,2
exception,2
temporary,2
markedly,1
hands,1
year,3
sufficiently,2
allowed,1
staying,1
awful,1
faire,1
branch,1
via,1
prohibitionsand,1
revolutionists,1
emergencies,1
awaiting,1
vii,1
understanding,3
empire,3
surveying,1
near,1
handicaps,1
remedial,2
supplyand,1
inviting,1
instruct,1
viz,2
biased,1
economy,1
inspired,1
community,1
malcontents,1
stop,1
dishonesty,1
inspires,1
convictions,1
prudence,1
consented,1
appropriate,1
usefulness,3
financier,1
least,1
confiding,1
immediately,1
drilled,1
resignation,1
subsequently,1
measurement,2
submarine,1
prohibitionagainst,1
lawin,1
table:philippine,1
misrepresentation,2
orphans,1
agreed,1
cultivated,1
fostering,1
brands,1
excepting,1
representing,2
logical,2
77121,1
77122,1
intrusion,1
eventuated,1
missions,1
severe,1
monopolize,1
lease,2
idealists,1
severalinstances,1
addressing,1
instructions,1
notes,3
evidence,13
occupancy,1
amity,1
official,1
ohio,1
dowager,1
woeful,1
spring,1
autonomy,1
assessment,1
generated,1
leave,1
excluding,2
peoples,3
friars,3
predicated,1
minister,2
need,1
vexed,1
vetoed,3
shade,1
often,2
newspapers,1
users,1
obtaining,2
kindly,1
tests,1
canada,5
traditions,1
hardly,1
useful,2
lasting,1
considerationof,1
private,1
complained,3
unwarranted,2
rigidity,1
narcotic,1
precisely,2
accomplish,1
von,2
constituent,1
proportioned,1
gatundam,1
forts,1
end,2
confiscatory,1
lines,2
mexicans,1
fails,1
forty,1
offending,2
special,1
noted,2
contempt,1
conclusioncongress,1
undertaking,2
28125,1
royalties,2
addressor,1
achieved,1
progressive,4
andthe,2
happens,1
slightly,1
wanting,2
education,2
occupation,1
called,5
springs,1
charter,2
nationalities,1
occurs,1
investors,1
turns,1
fullest,1
newly,1
gradually,1
caribbeanimpressed,1
tried,1
burdensome,1
outbreak,2
succeeding,1
narrow,1
proceedings,1
postmastersa,1
shape,1
seventy,1
programmes,1
allegiance,1
forth,1
hudson,1
nicaragua,2
classifying,1
utica,3
demised,1
andoperation,1
thoroughness,2
400,1
pertinent,1
seventh,1
403,1
weapons,1
129b,1
authors,1
hadley,1
thetolerance,1
41+,2
valid,1
asked,2
era,1
emasculated,1
rights,3
414,3
administer,1
415,2
zoological,2
share,1
notthereby,1
419,1
thoroughly,1
chairman,2
weighing,1
420,2
noninterest,1
423,1
ofthe,2
426,1
428,1
strongest,2
procedurethe,1
cent,12
indemnity,1
rurales,1
metals,4
mexican,1
autonomous,1
begrudging,1
trial,1
perception,2
becompleted,1
exploitation,1
430,1
undertake,1
2oo,1
12636,1
declares,1
433,1
434,1
etc,3
435,1
deprivation,1
438,1
doctrines,1
439,1
entrance,1
ancestors,1
belgium,2
dissolutions,1
subjected,2
canals,1
below,1
substitutes,1
remedies,1
woods,1
estate,1
shall,9
capitaland,1
440,2
careers,1
rigorous,1
haveshown,1
substituted,1
races,1
remedied,1
tribe,1
449,1
therefor,1
officered,1
financial,2
indictments,1
promulgated,1
450,1
running,1
451,1
credits,1
eve,1
comprehensivenessvoluntary,1
investigationsin,1
458,1
commensurate,1
unprofitable,1
harder,1
render,1
republics,10
declared,1
endeavor,1
relieve,1
rates,32
armored,1
progressing,1
adjacent,1
justice10,1
requirement,1
disastrously,1
462,2
463,1
465,3
borrowing,1
usefillness,1
strategy,1
forms,1
desireto,1
maintain,5
farther,1
belgian,2
establishing,1
conservator,1
companies,1
discriminates,1
differently,2
478,2
pounds,1
479,1
represented,1
chemicals,5
remain,2
expected,2
themain,1
countries,5
480,1
rents,1
correlations,1
483,1
specifying,1
himself,1
486,1
487,1
deposit,1
continent,1
disturbance,1
feels,1
argued,1
another,5
simultaneous,2
guarantee,2
enemy,2
usein,1
490,1
492,2
493,1
494,3
495,1
indemnify,1
cemetery,1
clinchingof,1
cropping,1
columbia13,1
ratification,1
structures,1
disregarding,1
fortunate,2
such,18
exacting,1
recovered,1
describe,1
countenance,1
incorporation,14
penalties,1
navigable,1
administration,4
widening,1
developing,1
remains,1
incorporate,1
briefs,2
cloths,2
features,1
incomplete,1
white,2
openly,1
statehood,2
menacing,1
geographically,1
clothe,1
recurs,1
suez,4
might,7
examiners,1
transcontinental,1
reconstruct,1
expressions,1
improving,1
servants,2
participated:,1
embarrassing,2
leads,2
patriotism,1
clothing,3
fields,1
experimenting,1
next,3
furnishing,7
submit,1
occupy,1
import,2
amendmenthas,1
classes,1
wouldbe,1
conclusion,1
strugglethey,1
durable,1
doubtless,2
habeas,1
central,8
impose,1
memorial,2
supporting,1
factor,1
derived,2
postponed,1
foci,1
news,1
severity,1
race,11
congresses,1
effectively,1
was,79
warehouses,1
war,5
way,5
realization,1
antitrust,1
bolivia,2
23230,1
african,1
departmental,1
whichmy,1
attempted,3
play,2
amalgamated,1
disciplined,1
betterment,1
fought,1
quickly,1
taxes,1
affecteda,1
decide,2
insurrection,6
issues,2
departmentat,1
justicethis,1
instruments,1
confirming,1
collections,1
far,3
coastwise,2
greed,1
elasticityin,1
issued,4
plan,1
italians,1
erecting,1
double,1
comprising,1
instituted,1
rendering,1
canalwill,1
169note,1
lowest,1
feasibility,1
classifications,5
prizes,1
tranquility,1
completely,1
suit,3
hoarding,1
denial,1
study,1
differences,1
portion,2
packers,1
fever,1
gain,1
receiving,2
relieves,1
diaz,1
uninfluenced,1
financing,2
feeds,1
older,2
relieved,1
favorof,1
lawby,1
wet,1
adjutant,2
electricity,3
climate,1
continuously,1
great,5
samoa,1
proceeded,1
discoveries,1
sides,1
dominance,1
organizing,1
investmentas,1
economic,2
statistics,3
dick,1
distinction,1
section,2
retirement,1
precedence,2
protocol,2
looks,1
obstructive,1
discounts,1
presented,1
theoretically,1
few,2
attemptno,1
highways,1
foil,1
strain,1
framers,1
quoting,1
397),1
heirs,1
(departmental,1
statutesof,1
rail,1
laughed,1
opened,2
plea,1
exceptions,1
produced,2
voyage,1
personally,1
turkish,1
outside,1
effect,4
unfavorable,1
producer,1
sugar,5
sums,1
who,18
option,1
erection,2
politics,3
game,1
manifesting,1
unexpected,1
issue),1
contribute,2
why,3
faith,1
remark,1
died,1
cognizant,1
intelligible,1
hospitality,2
underthe,1
win,1
wit,1
electric,1
ungracious,1
colleges,2
diminish,1
recommended,1
thosewho,1
matters,2
73$13,1
various,3
administrative,1
posterity,1
festivities,1
attention,1
visit,1
fulfillment,1
reduction,18
denied,1
politico,1
extent,17
greeting,1
conversely,1
voted,2
00722,1
indorse,1
losing,1
fit,1
fix,1
1908$5,1
honest,1
rank,1
assumption,1
pension,7
negroes,3
preparatory,1
deaths,1
improvementof,1
addition,1
doubts,1
24th,1
ac,1
sure,3
ad,1
grow,1
supremacy,1
locality,1
textile,1
ordinarily,1
proceeding,2
proper116,1
am,11
an,24
amphitheater,2
former,1
panic,2
extend,2
0017,2
as,60
0015,1
at,13
storekeeper,1
proper120,1
interpretation,1
unanimously,2
0014,3
0012,2
inspectors,1
simultaneously,1
looking,2
formed,2
hurt,4
be,51
prove,2
cherished,1
recoveries,1
0028,2
systems,1
sudden,1
by,44
groundwork,1
abandonment,1
develops,1
foot,1
wills,1
enabling,1
charge,1
outstanding,1
systema,1
keeping,1
familiar,1
co,2
e1,1
gaps,1
food,5
tropical,1
maturing,2
partner,1
votes,1
interview,1
freely,1
perceiving,1
expenditure,2
de,2
whatsover,1
11th,1
equalized,1
admits,1
commanders,1
accomplishes,1
sites,8
language,1
do,6
ford,1
passamaquoddy,1
observe,1
dr,1
widenedfar,1
furnish,1
withoutfoundation,1
0049,1
accomplished,1
criticise,1
attacks,2
strictness,2
criticism,3
needy,1
which,79
needs,1
coinage,1
el,1
patterns,1
favored,2
eo,1
profound,1
affirm,1
never,1
congressi,1
ex,1
aspiration,1
intervened,1
amending,1
foe,1
adjustmentin,1
limbs,1
for,32
wrongdoers,1
disadavantage,1
easing,1
content,3
0070,1
isthmus,2
perhaps,1
rate,7
alert,1
plot,1
0069,1
oils,4
depots,1
skill,1
prosperity,3
representatives:i,1
contrary,1
contend,3
covers,2
brigandage,1
governors,1
thence,1
go,4
deposition,1
rata,2
dill,1
conserve,1
chewing,1
i5,1
justly,1
capablein,1
form,1
500,1
guayaquil,3
instrumentalities,1
fort,1
renew,2
he,10
griswold,1
forestry,2
withdraw,1
placed,2
forceful,1
grade),1
welfare,1
authorization,1
beenpassed,1
intricate,1
appeared,1
510,1
four,1
else,2
contemplate,1
easily,1
515,1
516,1
518,1
if,10
ii,2
likely,3
in,239
subsistence,1
is,75
impartiality,1
it,103
schemes,1
aimed,1
disputes,2
iv,1
announce,1
lively,1
supplement,1
halting,1
524,3
525,1
gave,1
alteration,1
become,1
lawful,2
$10,1
$11,2
progressively,1
accrue,1
$14,1
$15,2
$16,1
$17,1
grades,5
occurrence,1
disposal,1
settlement,1
unearthed,1
532,1
534,1
536,1
sending,1
irreparable,2
ability,5
belief,1
ottawa,2
immigration,1
$20,1
$21,1
$22,1
$24,1
$25,1
suggestion,1
knew,1
$26,1
$28,1
disposition,1
places,1
patented,2
541,1
542,1
543,1
troublesome,1
la,1
545,1
ful,1
accomplishment,2
$30,1
fur,1
impeded,1
$31,1
$32,1
$33,1
$34,1
$35,1
$37,1
pursuant,1
political,3
$38,1
$39,1
ourinterests,1
while,3
enterprises,2
second,1
that,157
552,1
canalduring,1
than,21
sufficient,4
md,1
me,8
limit,1
unrepresented,1
communication,1
$41,1
$42,1
contest,1
precedents,1
mr,12
turmoil,1
$47,2
possessed,1
feeling,10
my,7
flowing,1
plus,1
expansion,4
actthe,2
indingley,1
entry,2
license,2
565,1
dismissal,1
fiscal,1
dream,1
halts,1
566,1
possesses,2
567,1
568,1
noble,1
avisit,1
postpone,1
$50,1
no,13
$52,2
$53,1
$54,1
student,1
chambers,1
inexpensive,1
earthenware,1
careful,1
seal,1
remsen,1
mixed,1
inestimable,1
elapsed,1
head,2
574,1
575,1
576,2
misunderstanding,1
of,375
imported,2
reserve,1
britainunder,1
candidacy,1
enterinto,1
hear,1
occupied,1
$60,1
avenues,1
on,53
regimental,1
$63,1
or,26
$67,1
batteries,1
$69,1
tendencies,1
families,2
occupies,1
intelligent,2
582,1
easier,1
luxury,1
communicating,1
infringement,1
sitting,1
dominican,3
$73,1
increasingly,1
[exclusive,2
indications,1
$75,1
$76,1
nation,2
splendid,1
registered,1
determination,2
convenience,1
discipline,1
596,1
extremely,1
proclamation,1
inevitably,1
hundreds,1
blending,1
recent,1
$81,1
they,37
suspension,1
perpetually,1
inevitable,1
consciousness,1
them,15
allowance,2
then,8
seas,2
re,1
scoured,6
adopt,1
attorney,6
agriculture19,1
guardianship,3
expire,1
7569,1
oppose,1
obtained,1
bridge,1
$92,1
strengthening,2
discovered,2
executed,1
seek,2
seen,1
seem,1
poorest,1
exporter,1
fourths,1
forester,1
compelled,1
so,23
thanked,1
accountability,1
apart,2
issuing,2
calendar,2
maintains,1
exported,1
st,4
necessary,5
decision,1
squadrons,1
policyshould,1
started,2
abstained,1
heed,1
reallyneeded,1
closer,2
tc,1
single,1
dissociated,1
cement,1
dissenters,1
teamwork,1
massing,1
closed,1
consequent,1
to,259
compressed,1
commercial,7
joint,2
separate,1
reasonable,4
generations,1
rules,5
ruler,1
enthusiastically,1
embracing,1
military,10
up,7
reluctant,1
hides,3
fifteenth,2
us,2
waters,1
department:treasury,1
usual,1
invading,1
lowden,1
this,43
reasonably,1
va,1
thin,1
remarkable,1
recess,1
purchased,1
failure,1
know,2
changea,1
clearances,3
reasonswhich,1
suggesting,1
knox,2
changed,5
563191018,1
ingenious,1
medicines,1
changes,9
prophesy,1
wa,1
disposes,1
approving,1
we,17
expeditiously,1
summoned,1
examination,2
destitute,1
gas,1
disposed,4
emphasize,1
readjusted,2
slight,1
previous,1
use:schedule,1
hawaii,2
securing,2
growingout,1
teach,1
reading,1
enactments,1
vacancies,1
roumania,1
deepen,1
compensation,1
deeper,1
ascorrect,1
monopolies,1
outpost,1
acknowledgment,1
localities,1
held,1
annihilation,1
undersecretary,1
courts,5
fruitful,1
type,4
beyond,5
troops,3
april,5
nonintervention,2
internationalization,2
scrupulously,1
tottering,1
terms,3
deeply,1
proof,1
phase,1
surrounding,1
contract,4
bonded,1
conclude,1
mingling,1
elections,3
provisions,8
workingman,1
combinations,3
revolutionary,3
exact,1
force,2
ecuador,2
ascertaining,1
jurists,1
south,1
precautions,1
north,1
99+19,1
progressivebusiness,1
geo,1
hemp,4
gen,4
befound,1
thrusts,1
get,1
continues,1
course,7
power,3
mediation,1
semi,1
rivers,2
precious,1
sell,2
industrious,1
continued,1
help,1
mediating,1
depth,7
ended,1
self,2
located,1
ourselvesto,1
prone,1
exposition,3
tyte,1
courageously,1
hindrance,1
sound,1
obliged,1
harbor,1
treasurer,1
sales,1
striven,1
impetus,1
indignation,1
costa,3
barrier,1
tariffi,1
create,1
criminal,4
themis,1
tariffs,4
procedurei,1
congressfreedman,1
proud,1
unexampled,1
depended,1
judged,1
sent,1
brussels,2
90193,1
addressed,1
purposes,2
igneous,1
interposition,1
quasi,1
send,1
inconsiderable,1
judges,8
thereupon,1
expenses,1
here,12
concrete,2
necessities,4
purpose,3
regret,2
rejected,1
scale,1
affiliations,1
vegetation,1
security,2
challenged,1
organize,1
observations,1
station,1
paternalism,1
herd,1
earning,1
costs,1
factory,1
stating,1
reorganizationour,1
confidently,1
follow,1
revenues,1
intent,1
factors,1
appraisement,1
treaty,2
intend,4
illustrating,1
german,1
satisfactorily,1
exceeding,2
numerous,1
recognized,1
auditing,3
without,3
youth,1
introduced,3
collusion,1
recruiting,1
sovereignty,1
authorize,1
whatsoever,1
thus,4
possess,1
volunteers,1
devise,1
replies,1
extinguishment,1
recognizes,1
inefficient,1
much,12
entitled,2
chapter,1
doubtlesssuggest,1
anybody,2
are:,1
switchmen,1
mastery,1
counteragitation,1
currents,1
guantanamo,3
colonization,1
builtand,1
problematical,1
lights,1
committed,2
committee,6
financiers,1
intrusted,1
capitals,1
namely,1
defends,1
union,2
pribiloff,2
faculties,1
disbursing,2
revisionist,2
illustration,1
returned,3
god,1
adopted,2
novel,1
standard,1
reports,3
epitome,1
correct,1
reader,1
completeness,1
institution,1
possessions,1
ambition,1
invokethe,1
aspirations,1
enlarge,1
mindful,1
unsurveyed,1
contributed,1
area,1
manifestation,1
shipment,3
european,2
fuels,1
goethalsas,1
internationally,1
clearer,1
woolens,1
moisture,1
lack,2
governmental,1
neglected,1
60+,1
lessens,1
success,1
ingenuity,1
600,1
authority,1
remarked,1
602,2
605,1
606,1
607,1
deleterious,1
young,3
taxpayers,1
obsolete,1
27027,1
gasoline,1
steaming,1
61+,1
reaffirmation,1
612,1
615,1
619,1
sustaining,1
redeposited,1
mobile,1
negotiations,1
trademarks,1
evolution,1
laborers,1
620,1
redemption,1
complaint,1
622,1
interiorthe,1
ments,1
magazine,1
628,1
named,1
injustice,1
bettered,1
foreigners,1
offense,2
considered,1
albania,1
averaging,1
channel,1
focus,1
cutter,1
delivered,1
favorable,1
entire,1
changing,2
qualifications,1
631,1
decisive,1
634,5
637,1
638,1
write,1
wage,1
sneer,1
nonworking,1
shipyards,3
arid,5
passengers,1
neglecting,1
loyalty,1
corporation,1
understand,2
underlying,2
suspended,1
intelligence,2
vigorously,1
injuriously,1
640,1
million,5
install,2
strongly,2
645,1
manifested,2
648,1
appearing,1
bulk,2
favorably,1
parcels,6
discredited,1
larger,1
wait,1
hundred,1
circuit,5
vitally,1
magnificent,1
restrict,1
63k,1
instant,1
electoralqualifications,1
650,1
mason,1
652,1
native,1
frictionand,1
654,3
656,1
657,1
658,1
659,1
determinative,1
costly,1
hitherto,1
accordingly,1
laid,1
consequence,3
particularly,1
contending,2
discussed,2
pacific,1
inconsistent,2
opportunities,2
garments,1
660,1
stationnaire,1
writ,1
names,1
framework,1
667,2
consular),1
impractical,1
668,1
attorneys,1
entity,1
armaments,1
practicability,1
possibilities,1
franchise,1
predecessors,1
palisades,1
replica,2
arrears,3
almost,1
conduce,2
6310,2
equally,1
adjudicating,1
sustained,1
suits,2
defenseless,1
harmful,1
associate,1
scrupulous,1
672,1
detract,1
earlier,1
675,1
whether,10
compendium,1
reclassification,1
discusses,1
679,2
claimable,1
void,1
liability,1
dispense,1
codification,1
68+,1
00870,1
basis,2
affected,2
681,2
army,8
entitles,1
carter,1
annul,1
contentions,1
687,1
october,1
arms,2
virginia,7
governor,2
lake,1
unite,1
policies,1
reassign,1
units,1
restoring,1
690,2
691,2
adjudication,1
694,2
sacrificed,1
695,6
pursue,1
697,1
698,1
699,1
convey,1
extra,2
land,25
importation,2
wayas,1
cholera,1
identic,2
imposing,2
tied,1
regranting,1
performing,1
compensatory,2
farsighted,1
foremost,1
doubtful,1
assimilation,1
filipinos,1
encyclopedia,1
conduct,1
redounds,1
drainage,1
wall,2
extending,1
quietly,1
refusing,1
ardently,1
clauses,1
witnessing,1
fulton,1
discussion,5
advertising,1
incidental,1
imbued,1
lessen,1
oversight,1
83119,1
rendezvous,1
arrangements,3
thinks,2
welcome,3
events,3
interchange,1
drift,1
oughtto,1
chaos,2
separately,1
mankind,1
abundant,1
want,1
herewith,1
unnecessarily,1
fourteenthamendment,1
induce,2
thatthe,1
pooling,1
difference,11
must,3
appraising,1
mehmed,1
resign,1
reside,2
notexist,1
ware,3
crops,2
archaic,1
colors,1
accident,1
found,7
legitimateeconomic,1
defense,1
knight,1
currency,4
canal,7
arts,1
00district,1
limits,1
convict,1
interrelated,1
ideals,2
cruelty,1
weathers,1
intimate,1
combining,1
simplification,1
entirely,1
disclose,1
religion,1
baths,1
businessconditions,1
powerless,1
chart,1
evoke,1
buys,1
attend,1
nationals,3
voting,1
goods,3
needing,1
had,27
accounting,3
secure,2
late,1
school,1
differing,1
preserved,1
proclaimed,3
locomotive,1
brutally,1
things,5
immense,1
avenue,1
has,50
residences,1
reposed,1
advantageous,2
hay,1
legislature$13,1
last,1
definite,1
tomake,1
weight,2
preserves,1
warm,1
measure,2
wars,2
scotch,1
injurious,2
policing,1
exports,3
impossible,1
effort,1
settling,1
exercising,1
submarines,1
vegetables,3
acquirement,1
stronger,1
ends,1
denying,1
steady,1
vote,6
early,1
proper68,1
underweights,1
commissioners,1
disease,2
yet,1
reserving,1
formalities,1
engineer,1
insurgents,1
alike,1
wages,1
inasmuch,1
observing,1
time,8
buenos,2
applications,1
flourishing,1
aroused,1
happy,1
signalized,1
electoral,1
governments,2
disaffected,1
her,4
haichi,1
universities,2
powerthere,1
themeasure,1
authorized,1
deprive,1
probabilities,1
torpedo,2
having,5
laws,7
stationed,1
russian,1
authorizes,1
supreme,3
slope,1
kansas,1
brunt,1
passenger,1
doubled,1
aggressively,1
merits,1
mailing,1
confirmed,1
sanitation,1
ways,1
emphasized,1
hepburn,2
electorate,2
allthose,1
deficient,1
preponderance,1
ledger,1
efficient,1
unify,1
consistent,1
havederived,1
reverse,2
earnings,1
manchuria,2
subsidies,1
garden,1
lays,1
governed,1
small,1
gallant,1
before,2
campers,1
him,1
crockery,4
pelts,1
his,4
brunswick,1
emphasis,1
bear,1
potential,1
awaited,1
manchurian,1
repeatedly,1
governmentin,1
logically,1
vigilant,1
resist,2
discriminatory,1
history,1
stimulate,1
repairs,1
square,1
twice,1
interference,1
colony,1
misconstrued,1
wagon,1
values,1
works11,1
initialed,1
point,3
154h,1
visits,1
correspondingly,1
canada),1
portuguese,2
hospital,1
restore,1
hereafter,1
diplomatically,1
penalizing,1
alternative,1
asan,1
approve,2
mean,1
valued,1
meat,2
determining,2
suggestions,1
drafted,1
settlements,1
13th,1
been,76
cordiality,2
reservoirs,1
advance,2
landowners,1
barra,1
foregoing,2
diverse,1
strict,1
reflects,1
you,1
limitations,1
tangier,1
preference,1
opportunity,3
active,1
court,1
misuse,1
subsidiary,1
024j,1
deals,1
dealt,1
natives,1
firms,1
beds,1
bulky,1
advising,1
mirror,1
obstruction,1
gardens,1
perennial,1
andfull,1
abuses,1
interior,10
thereto,1
how,2
assembly,1
endeavors,1
subjects,1
overcoming,1
assemble,1
march,1
inaugural,1
advantages,1
meet,2
regarded,2
answer,1
calls,2
700,3
701,1
restored,1
outrages,1
705,1
encroachments,1
707,1
publications,1
abused,1
exportation,1
dispatch,1
putting,1
and(3),1
sometimes,1
questions,1
corpus,1
promise,7
enjoying,1
aggregating,1
strauss,1
blockade,1
budgetthe,1
obstructing,1
reply,1
717,1
simplifying,1
719,2
ignored,1
enactment,2
count,2
statuteof,1
thereof,1
bondsand,1
reckon,1
confusion,1
carrying,2
submergence,1
blank,1
beginning,1
waiting,1
representatives:the,2
aggregation,2
complainant,2
thereon,1
73+,1
730,1
71o,1
731,1
732,1
733,1
exposed,1
supplementals,1
735,1
annexed,1
738,1
shameful,1
notice,1
lumber,7
entailed,1
intrust,1
department:navy,1
killed,1
scrutinized,1
although,1
approximately,1
741,1
encouragement,1
742,2
744,1
subsidizing,1
decades,1
749,1
president,3
fortunes,1
contracting,1
envy,1
reaches,1
therein,1
dropped,1
america,4
750,2
751,1
752,1
753,1
754,1
756,1
action,5
surpassed,1
manifold,1
757,1
758,1
casualty,1
penury,1
bounty,1
76+,1
altered,1
captains,1
accompanied,1
snuff,1
afford,2
fires,5
763,1
reached,1
asks,3
766,1
impression,1
768,1
arica,1
acting,2
ably,1
enforcing,1
inference,1
diligently,1
asphaltum,1
headed,1
sparsely,2
75l,1
products,11
eight,1
770,1
mutsuhito,1
775,2
777,1
778,1
periods,2
effectuate,1
intricateand,1
guaranty,1
sloan,1
could,11
topics,1
marks,3
defining,2
780,1
withhold,1
785,1
trusted,1
nonpartisan,2
able,1
789,1
embittered,1
enfant,1
inother,1
cheaper,3
rotate,1
charities,1
forged,1
concerned,1
cheapen,1
conscience,2
inheritance,1
british,1
790,1
792,1
outlays,1
geographic,1
solution,1
796,1
judicially,1
799,1
opponent,1
supplementary,1
inducing,1
international,6
regardless,1
calculated,1
flagrant,1
upward,1
citizen,1
confiscate,1
cities,1
difficult,3
guam,1
steps,2
friends,2
corporations,5
forget,1
principles,3
designation,1
testifying,1
present,4
importations,3
problems,1
strife,2
arrested,1
belong,1
accommodations,2
borders,1
surveys,1
best,3
movements,1
assuredly,1
advise,3
competitor,1
idealistic,1
regulating,2
genuine,1
steamboat,1
certainly,13
probing,1
program12,1
impressive,1
lessee,2
master,1
negro,9
amelioration,1
beriberi,1
concerning,5
epidemics,1
regulation,1
conventional,1
mere,4
accommodation,1
opinions,3
electors,1
feared,1
frauds,2
cover,1
quoted,1
competitors,4
statesmanship,1
33deficiency,1
devolve,1
misstep,1
hawaiian,2
symbolic,1
based,1
646m,1
something,3
intention,3
miners,2
pointed,3
spreckels,1
thereby,1
concur,3
nevertheless,2
fact,4
respectable,2
pusillanimous,1
fundamental,1
unmindful,1
deliberation,1
bases,2
upheld,1
ecuadorian,5
christian,1
thrift,1
purporting,1
particulars,1
free,9
equality,4
rebellion,1
reaction,1
thorough,1
actually,1
evolve,1
22customs,1
face,2
ingrain,1
showed,1
cessation,1
convened,1
marvelous,1
stagnation,2
invite,1
preemption,1
coordinated,1
ratio,1
calculation,1
circumvent,1
legation,2
refugees,1
conditional,1
instinct,1
independence,2
honors,2
coordination,2
conditionas,1
presentation,1
niggardly,1
afforded,3
whenever,1
mandamus,1
thedingley,1
exhaustive,1
exactness,1
commands,1
mercifully,1
wools,1
please,1
finding,1
elected,3
enlarging,1
extends,1
598total,1
inspect,1
vital,1
disadvantageous,1
salvage,1
necessitates,2
proposeto,1
rule,3
detect,1
notto,1
decrees,3
expired,1
gulf,1
uncivilized,1
characteristics,1
inferior,1
refuge,1
certainty,1
commend,4
groundless,1
indeed,2
husbanding,1
deficiency,1
removal,1
comment,1
railroads,5
humanitarian,1
guns,3
sturdy,1
confronting,1
equalize,5
comparatively,1
discussions,1
fair,1
stamping,1
preparation,4
igo,1
charitable,1
liberiaas,1
tenement,1
enable,5
safety,2
misdemeanors,1
slavery,1
decree:,1
stipulations,2
provisional,2
profession,2
competing,5
arise,1
fruitless,1
facilitating,1
eminent,1
fail,1
filing,1
repaid,1
wines,6
emperor,2
ascertained,1
public:your,1
t903,1
refund,2
remnant,1
hillside,1
iii,2
yardage,2
isolated,1
alexandria,2
privilege,1
admirals,1
immunity,1
foreign,11
caceres,1
chinchow,1
fall,1
blaze,1
innocuous,1
397191010,1
nationsof,1
paints,2
appearance,2
complished,1
culture,2
hereby,1
incumbents,1
first,2
perfect,1
ascribe,1
clearly,1
pole,1
seacoast,1
preferable,1
conspiracy,3
spite,1
theater,1
from,23
ill,2
finished,4
rejection,1
incalculable,1
manufacture,1
remitted,1
determinations,1
dignified,1
repair,3
death,1
advice,3
according,3
factories,1
denounced,2
powder,1
worsteds,1
error,4
differential,1
attendant,1
operations,2
paper,8
colored,1
steam,1
discriminate,1
idaho,1
value,3
concealed,1
enforced,2
centennial,1
quantity,1
repay,1
bluejackets,2
stages,1
fishermen,1
growth,1
enlistments,1
from:,2
keenly,1
objects,2
gratifies,1
texas,7
shaken,1
administrationof,1
resolution,1
properly,1
dutch,1
graduate,1
poor,2
properlv,1
unanimous,2
unsatisfactory,1
farm,2
gratified,1
invented,1
unlikely,1
needful,1
enduring,1
excellent,1
virtually,1
fairly,1
tehuantepec,1
pool,1
adapted,4
persons,1
charges,5
farley,1
advancement,1
800,1
municipal,2
801,1
cigarettes,1
intelligently,1
803,1
804,2
charged,1
805,3
shortly,2
firmly,1
809,1
(besides,1
providing,3
weeks,2
insistence,1
manual,1
treatythe,1
retire,1
habana,1
patentees,1
812,1
aggressive,1
close,1
816,1
818,1
linked,1
chemistry,1
michigan,1
intending,1
accelerated,1
embarrassment,2
proclamations,2
grocers,1
fast,2
turbulent,1
invasion,2
trials,2
comptroller,3
precedent,1
isa,1
821,1
823,1
citizens,4
rosslyn,1
nine,1
unborn,1
communicate,1
concurrence,1
controls,1
unwiseor,1
rural,1
annoyance,1
mutuality,1
fortunately,1
oriente,1
agricultural,5
post,6
830,1
negligence,3
6oo,1
exhibitors,1
836,1
protocols,1
838,1
violators,1
educational,2
businesslike,2
its,9
constructive,1
remedy,1
nullify,1
respect,14
article,1
greenbacks,1
administrationis,1
840,1
port,6
842,1
843,1
pharmacy,1
844,2
adjustment,2
846,1
847,2
hesitate,1
income,3
applauded,1
joining,1
united,8
production,21
smallest,1
directors,1
searching,1
fleets,1
debarred,1
peaceful,1
miles,2
850,1
previously,3
againsttheir,1
disinterestedness,1
855,1
democratic,2
bills,2
857,1
859,1
guatemalan,1
colonel,1
cigars,1
citizenship,1
arizona:as,1
infused,1
artesian,1
improvement,1
thesecuring,1
196total,1
steadfast,1
860,2
marines,4
864,2
865,1
limitationsof,1
pledge,1
inwhich,1
following:,1
segregated,1
strewn,1
enjoyed,1
foreigntrade,1
college,1
wemust,1
excepted,1
variation,1
number,4
870,1
871,1
shorten,1
873,1
reformation,1
874,2
875,3
punish,1
slack,1
coaling,1
property,2
centers,1
878,1
879,2
delicacy,1
innocuousness,1
shorter,1
nothing,2
distributed,1
33120,1
6th,1
isolation,1
repaired,1
distributee,1
urged,2
happily,2
ittiation,1
883,2
884,1
886,1
887,2
specialization,1
silver,2
partial,1
urges,1
sundry,1
artisans,1
fundamentals,1
mortgages,1
insurrectos,2
preoccupied,1
city,1
confident,1
fairer,1
exclusion,1
epoch,1
local,3
courage,1
extravagant,2
yield,1
899,1
promptly,2
decisions,1
assertion,2
incidentally,1
rests,2
bulkier,1
filled,2
curriculum,1
satisfaction,3
removed,1
powerful,2
needfor,1
fishery,1
acquaintance,1
governance,1
undecomposed,1
movers,1
precision,1
properfederal,1
sealing,1
construing,1
points,2
absorbed,1
rear,1
copies,1
modified,1
presume,1
maintained,1
border,1
read,1
constructing,1
touch,1
real,1
prompted,1
admission,1
enforcible,1
differed,1
unit,2
monthly,2
archipelago,1
coupled,1
collect,1
olongapo,2
badly,1
facilitate,2
telegraph,1
diminished,2
today,1
construction,1
parliamentary,1
saying,1
universal,3
fifteen,1
radical,2
looked,1
mills,1
emanates,1
wrongs,1
formulated,3
application,1
pricipal,1
productive,1
rebels,1
judson,2
formally,2
comprehend,1
reason,3
collectible,1
ship,3
acts,2
erect,1
revolutions,3
modicum,1
uplifting,1
annual,1
exclusive,2
testify,1
occasioned,1
needfulremedy,1
reorganizing,1
[concerning,1
using,1
reconciled,1
containing,2
investigating,1
completed,1
demand,2
unexplored,1
turkey,1
proofs,1
letter,2
tawney,5
constantinople,1
anniversaries,1
annually,1
housing,1
60territorial,1
frequently,1
predecessor,7
incendiaries,1
handed,1
acquire,1
worth,1
materialistic,1
37new,1
taken,7
follows:(i),1
takes,1
popular,1
moreimportant,1
americaour,1
broken,1
detection,1
reynolds,2
outweigh,1
missionaries,1
lacking,1
potentialities,1
fitted,1
ordnance,1
armed,1
tothe,1
centered,1
assailed,1
bloodshed,1
individuals,2
repeated,1
debate,1
either,2
departmentthe,2
neededamendments,1
unrestricted,1
defraud,1
helpful,1
manchu,1
machinations,1
those,22
estimates,12
courses,1
barges,1
motives,2
telephone,1
significant,1
arbitration,2
difficulty,3
longer,1
senate,12
everywhere,1
gunshot,1
architects,2
consul,2
parties,2
selling,1
worst,2
leaving,2
shop,1
unlawful,5
distance,1
abstain,1
prospects,1
attract,1
show,3
description,1
disappear,1
ismore,1
augmented,1
situated,1
vigilance,1
street,1
arrive,1
feverish,1
plains,1
annuities,3
hence,2
outrageous,1
seamen,1
infringed,1
learned,1
substance,1
estimated,2
suddenly,1
receipts,1
compensated,1
earnestness,1
guidance,1
perpetuation,1
absorbing,1
hastening,1
thoughtthat,1
delicate,1
rent,1
vocational,1
largely,1
tripolitania,1
givenit,1
awakened,1
(report,1
utilized,1
circuits,3
designate,1
crises,1
sympathyfor,1
maneuvered,1
incomingcongress,1
department189,1
unification,2
28th,1
cleanliness,1
tinder,1
rely,2
averments,1
inconsiderate,1
determinable,1
refined,1
style,1
southeastern,1
purely,1
$106,2
guard,10
settle,1
centimes,1
harsh,1
ofthem,1
vehicle,1
pressing,1
1753,1
freedom,1
criminals,1
$100,1
minimizing,1
scorpion,1
$101,1
$114,1
$118,1
tribes,1
nomination,1
mexico,2
waive,1
watersheds,2
dairy,1
shut,1
$128,1
conspiracies,1
mature,1
amicable,1
(+),3
bonds,1
minded,1
menaced,1
influence,1
15th,1
043h,1
attractiveness,1
responsibilities,2
detailing,1
battleships,1
$120,1
68department,1
$122,1
england,1
roused,1
tenements,1
$139,1
crisis,1
marshall,1
temporarily,1
important,5
1789,1
disciplinary,2
parting,1
veteran,1
phrase,1
daily,1
exigency,1
job,1
$135,1
erroneous,1
$134,1
marshals,1
cloth,4
redemptionor,1
largest,2
limitation,1
solicitation,1
ofthis,1
investigations,2
captain,1
footing,1
billion,1
guano,1
sheer,1
naturalization,2
battalions,1
sheep,1
rest,1
administrations,1
comply,1
original,1
adherence,1
executivein,1
kingdom,2
differ,1
afternoon,1
variancewith,1
emoluments,1
leasehold,1
investigation,1
subarctic,1
$150,1
900,4
front,2
902,1
904,1
905,1
plane,1
907,1
equivalent,1
909,1
projects,11
plague,4
perpetual,1
offer,1
diplomatic,1
91+,1
loath,1
complex,1
911,1
913,1
914,1
directattack,1
healthful,1
singleness,1
$167,1
917,1
918,2
resettlement,1
afterwards,1
adequately,1
inadequacy,2
neutralization,1
accurately,1
plans,2
plant,1
920,1
921,1
boardshows,1
drive,1
926,1
jones,2
927,1
ascribed,1
928,1
expound,1
readiness,1
admiralty,1
civic,1
servant,1
liquors,3
discouraging,1
offered,1
shipowners,1
civil,1
931,1
national,5
subsequent,3
indicate,1
customers,2
936,1
937,1
938,1
antinarcotic,2
(2),1
sixty,2
contain,1
words,2
founded,2
benefited,1
medicine,2
entered,3
instructed,3
tending,1
dissatisfaction,1
difficulties,1
944,1
somewhat,1
946,1
947,1
shrinkage,1
948,2
949,1
(3),1
performs,2
standpatters,1
deepened,1
parte,1
therewith,1
developed,3
needless,1
detention,1
950,1
smallness,1
951,1
contact,1
953,1
956,1
959,1
(4),1
disadvantage,1
dishonest,1
cereals,1
defenses,1
anxiety,1
98post,1
exploited,2
962,1
adjust,1
964,2
parts,1
965,1
western,2
helps,1
vigorous,1
mediator,1
969,1
lucid,1
party,30
duties,18
accountants,1
however,2
thisone,1
invidious,1
trained,3
sources,1
sierra,1
compel,1
970,1
related,2
intrastate,1
973,1
975,1
brigade,2
strategical,1
views,2
directed,1
assurances,2
unacceptable,1
historic,1
roosevelt,1
false,1
reviewing,1
7th,1
980,1
982,1
983,1
984,1
farmer,2
mcclain,1
envelopes,5
prompt,1
appealing,1
elaborate,1
expert,1
fulfill,1
99+,2
blacks,1
andafter,1
990,1
output,2
993,1
995,1
997,1
majority,2
join,1
intrenchments,1
ricans,1
director,1
juristsin,1
assembling,1
ordinary,3
harmonious,1
reappointed,1
largeness,1
economize,1
siam,1
attracted,1
john,1
breeding,1
determinationof,1
recommending,1
lorillard,2
brought,1
works,2
proportion,3
alive,1
payments,2
pursuit,1
plate,1
emerged,1
ruthless,1
healthfor,1
world,2
composed,1
astronomer,2
prejudice,2
dissolve,1
december,1
embarked,1
urgent,1
everything,4
soils,13
levee,1
penal,1
italy,1
composing,1
highness,1
side,2
creditors,2
break,1
predominate,1
expressly,1
willingness,3
modernpractice,1
indirectly,1
vogue,3
comfort,1
lawfulness,1
pensions,5
century,1
report,2
platt,1
subcontractor,2
powers,1
disquieting,1
cotton,12
makedefinite,1
high,6
falls,1
madero,3
publication,1
levied,2
expressed,1
outlived,1
different,1
directly,1
administered,1
awaits,1
superstructure,1
officially,1
skoupchtina,1
level,1
adjusted,4
restrictions,2
preserve,2
magnanimous,1
establish,1
everystate,1
collectors,2
belongs,1
attached,1
oregon,1
overthrown,1
errors,1
consumed,3
decent,2
preservation,2
total,3
pursued,1
loses,1
consumers,1
revisions,1
informs,1
consumer,1
auspicious,1
initiative,2
social,1
interesting,1
raised,2
cross,1
relying,1
control,3
drill,2
currentfiscal,1
corollary,1
declined,1
jeopardizing,1
earth,1
reconstruction,1
overthrow,1
inflict,1
steamships,1
preamble,1
specialty,1
cottons,5
philippine,1
emery,1
threatening,1
upper,1
inflaming,1
intercourse,1
reclassified,1
behalf,1
supposing,1
scene,1
improperly,1
bathtub,1
unduly,2
exert,1
facilitates,1
raises,1
strengthen,1
injury,3
exhibit,1
adjunct,1
lighted,1
inadequate,1
assemblies,1
tothose,1
performingour,1
merchantable,1
embitterment,1
remaining,2
accept,1
geodetic,2
stopping,1
appreciated,1
inhibitions,1
access,4
wiped,1
redeemed,1
intersects,1
apprehension,2
overzealous,1
fixingthe,1
lawthe,1
conferences,2
key,1
situations,2
silk,6
sill,1
laying,1
periodicals,5
vacated,1
persia,1
confirm,1
hill,1
appoint,1
mortality,2
shanghai,1
fourth,1
vast,4
intervene,1
declare,2
commercerailroads,1
(with,1
guiding,1
available,1
confine,1
certiorari,1
1818,1
unusual,1
extreme,1
degree,1
divisional,1
inquiries,2
especially,2
once,3
expend,2
demonstrate,3
334$32,1
assessed,2
records,2
figures,1
inventors,1
ormunicipal,1
pending,1
monument,1
latinamerican,1
infantry,3
supposedto,1
1832,1
initiation,1
governmentowned,1
shoddy,1
assists,1
throughout,1
virtue,1
types,1
criticised,1
reforming,1
phosphate,4
transmit,1
othersources,1
aires,2
litigation,1
contravention,1
speedily,1
initiating,1
specially,1
1846,1
compromise,1
reach,1
comparative,1
react,1
unjustly,2
pomades,2
meritorious,1
rulers,1
justify,3
dissemination,1
timber,2
between,9
$200,1
1856,1
exhibited,1
inclusive,1
lending,1
demarcation,1
$219,1
deprived,1
jeopardy,1
1864,1
intact,1
1862,1
expenditures,1
seventeen,1
1860,1
following,2
sediments,1
1868,1
provoked,1
promulgation,1
unsuccessful,1
186j,1
weal,1
weak,3
willcome,1
impress,1
distressed,1
announcing,1
1874,1
blocked,1
assert,1
place,3
lawless,2
$220,1
regular,1
$223,1
objection,3
1878,1
informed,1
dispute,1
$237,2
deepening,1
observation,1
1891,1
1890,2
myer,1
offenders,2
lead,1
fraction,1
similiar,1
expect,1
site,1
assess,1
1883,1
1881,1
pacification,1
$231,1
passage,1
outburstsof,1
adequate,2
leaders,1
routes,4
parks,15
1894,1
plain,1
1892,1
should,12
only,12
justice,1
unintentional,1
officers,2
$257,1
apportions,1
individual,1
loans,1
irresponsibleelement,1
netherlands,3
accepted,1
comparing,1
lawlessness,1
regards,1
empress,1
testimony,1
person,1
retaliation,1
enforce,1
offices2,1
thefederal,1
mereadoption,1
obtainable,1
emphatic,1
enjoin,1
guarding,1
gunboats,1
paris,1
ready,3
readjust,1
$260,1
issued:,1
interposed,1
greatest,1
unconscious,1
manufacturers,8
limited,2
studied,1
thiswork,1
impartially,1
couplers,1
played,1
corresponding,2
divest,1
iquitos,1
$272,1
informal,1
prepare,2
minerals,1
hamlet,1
fifty,1
readjustments,1
withdrawn,1
unhampered,1
discourage,1
owners,1
noils,1
phosphorous,2
approved,1
would,30
securedthe,1
customs,1
reproach,1
warrant,1
devoutly,1
successfully,1
solid,1
meanwhile,2
notably,1
meats,2
reserves,1
circular,2
cooperative,1
diplomacy,3
stringency,3
size,1
applies,1
left,17
reserved,1
:2o,1
munificence,1
resumption,1
eleven,1
$298,1
$297,1
statute,1
object,3
mined,1
accessible,1
managua,1
suffice,1
notable,1
unparalleled,1
elect,1
meansof,2
example,1
minds,2
clothiers,1
quiet,1
policy,1
resigned,1
address,1
consisting,1
destroyed,1
police,3
throw,2
norway,1
fifth,1
quarantine,1
accumulated,1
exorbitant,1
reimburse,1
avoidwar,1
inaccessible,1
foodstuffs,2
zealously,1
torturing,1
implement,1
export,1
others,2
making,4
check,2
relatives,1
pollock,2
supposed,1
applied,3
elasticity,1
misrepresented,1
intermediation,1
indispensable,1
theretofore,1
lent,1
expanded,1
society,1
arranged,2
nowhere,1
denmark,1
inthe,2
americanpeople,1
lend,2
enhancing,2
submittedto,1
approval,2
realized,1
concentrate,1
expose,1
presentcondition,1
explosion,1
inindustrial,1
322this,1
well,1
personnel,3
handling,1
defenseof,1
ambitions,1
raceto,1
extinguished,1
circularizing,1
observance,1
allegation,1
agriculturalmachinery,1
gains,1
experiment,3
docks,1
flour,1
businesscan,1
reservation,4
cordial,1
hunan,1
cooperation,2
went,2
altering,1
considering,1
custody,1
cooperating,1
bringing,1
schools,2
prohibited,1
orders,6
managers,3
southeast,1
reestablishing,1
legislatures,1
averse,1
deferred,1
respectively,1
solemnly,1
matter,2
conjunction,1
acquiring,3
neutrality,4
reformers,1
product,1
contented,2
walter,1
lover,1
affidavits,1
discouraged,2
cheap,1
produce,1
justices,2
perfected,1
confided,1
industries,9
outworn,1
undoubtedly,1
dictators,1
unreasonable,3
scientifically,1
communities,1
capital,3
fuel,1
smuggling,1
upon,31
employee,3
expeditions,1
imme,1
employed,1
identical,1
consular,6
inaugurator,1
lag,1
ambitious,2
function,3
defective,1
west,1
raise,2
quite,4
employer,2
circumspection,1
50navy,1
traffic,7
frontiers,1
franchises,1
lax,1
law,19
appropriationto,1
comparison,1
lay,2
differs,1
revert,1
less,6
conscienceless,1
institutions,1
conflicting,1
successive,1
condition,2
landreau,1
inventions,1
were,72
improve,1
gratification,1
ceremony,1
mooted,1
taxation,4
structurally,1
arizona,2
hastily,1
university,1
mukden,1
troop,1
artificially,1
levy,4
similarly,1
expedients,1
generous,2
constitutionally,1
detrimental,1
floor,3
awakens,1
possibility,1
exhibition,2
wounded,1
highnesses,1
lengthy,1
effortas,1
distinguished,4
opening,1
declarations,1
whichshould,1
doctor,1
industrial,4
lengths,1
pharmacopoeia,1
lockport,2
remission,1
maintenance,1
barbarous,1
prey,1
legislating,1
robbing,1
expedition,2
led,1
supply,2
wherein,2
integrity,2
mountain,1
litigated,1
injunctions,2
liable,1
appreciative,1
destroys,1
let,2
advises,1
adviser,1
cargo,3
philippines,4
press,1
dock,1
subordinates,3
cares,1
whosetrade,1
1909,1
1908,6
pace,1
ingalls,1
fiftieth,1
233$22,1
ourforests,1
polity,1
lawsin,1
each,2
rendered,2
1907,1
1906,1
similarcondition,1
1905,1
cordially,1
1904,1
1903,1
items,28
1902,1
1901,1
thirty,2
1900,1
workman,2
bankers,2
perfectly,1
killing,1
dollars,2
prayed,1
steamers,1
ottomans,1
1910,2
promote,2
does,5
punishments,1
moody,1
tonnage,4
(as,1
1915,1
1914,1
1913,1
1912,1
situation,3
legislation,2
1911,2
circulars,1
clause,3
bureauof,1
fraught,1
refused,1
withpromises,1
pelagic,1
tidal,1
understoodthat,1
withdrawal,1
producers,1
emphatically,1
formative,2
economical,1
1924,1
demanded,1
ofdirect,1
insurance,2
southwest,1
principle,1
medical,3
source,1
circulated,1
unable,1
russo,1
irrigation,2
uncontrolled,1
separation,1
filipino,4
weakened,1
acquired,1
tension,1
involves,4
juana,1
judgments,1
doubt,1
merit,1
mainlandof,1
verbal,1
develop,1
employing,1
producedby,1
pecuniary,3
boilers,2
involved,1
converted,2
district,1
defensesshould,1
fixed,2
full,2
referendum,1
destiny,1
away,3
$305,1
aspects,1
$309,1
obviated,2
cared,1
$300,1
enhance,1
convention,14
harvest,1
appropriately,1
center,1
suspicion,1
purchase,3
refusal,1
enlarged,1
ourtariff,1
consultative,1
advised,2
inaugurated,1
manage,1
equal,1
wiser,1
obviates,1
separating,2
fund,4
gravity,1
moderation,1
paid,1
exacted,1
parking,1
incur,1
(otherwise,1
cheapening,2
$326,1
tentatively,1
(i),1
three,2
remembered,2
payable,1
recruitment,1
sweden,1
unselfish,1
suppression,1
season,1
payment,7
controversial,1
wellto,1
allotted,1
unnoticed,2
reciprocation,1
deputy,1
suppressing,1
roads,1
dependencies,3
judicial,1
symptomatic,1
provide,1
eradication,1
bids,1
consultation,1
lection,1
primary,1
$346,1
liggett,2
computed,1
enterprise,4
formation,1
dome,1
undefined,1
accidental,1
panama,2
los,1
aided,1
wholesale,1
premium,1
low,4
solidarity,3
merely,2
theanother,1
phases,1
wealth,1
means,3
aides,1
initial,1
impracticable,1
9011,1
prof,1
disturbs,1
promotions,2
absurdity,1
drafting,1
fellow,1
juries,2
cases:(1),1
advancing,1
[on,2
interests,12
38119,1
clip,1
natchez,1
crushing,1
door,1
commanded,1
quick,3
recapitulate,1
alliance,1
improper,1
recognizing,1
experience,1
asnecessary,1
commander,1
wasteful,1
zone,1
combiners,1
controversies,2
disappeared,1
necessitate,2
combination,14
obtain,3
$378,1
fixing,1
sparks,1
coasts,1
amiable,1
minutes,1
sacrifice,4
particular,1
tactical,2
done,2
illegal,2
congratulate,1
economies,1
ample,1
residents,1
subserved,2
$375,1
$376,1
ease,1
part,3
workmen,2
expediency,1
principal,2
east,1
expediting,1
relies,1
relief,1
amply,1
affirmed,2
bytreaty,1
$386,1
boycott,2
park,9
corollaries,1
nicaraguan,1
washed,1
villages,1
incorporators,1
(no,2
invalidate,1
seeking,1
capitol,1
ears,1
earn,1
commissary,1
intoa,1
interfere,1
reclamation,1
fitting,2
annexation,1
regulated,1
reductions,2
evolved,1
mutually,1
conducting,2
allay,2
path,1
bind,1
mustnot,1
record,2
chicago,1
prevention,1
accepting,1
provinces,1
preventing,1
pass,1
past,1
nineteen,1
demoralization,1
mild,1
bill,44
whose,1
easy,2
clog,1
mill,1
bucket,1
pittsburg,1
domain,11
census,1
adopting,1
paso,1
oceans,1
goethalsand,1
assigned,2
relative,1
quartermaster,1
profoundly,1
annuity,1
existed,1
adoption,2
pave,1
harmonize,1
chaotic,1
mine,1
mind,1
emergence,1
adjoining,1
unwillingness,1
involve,1
requisite,1
9th,1
affectinginterstate,1
degrading,1
depositories,2
retrograde,1
paul,1
london,3
added,1
emergency,2
thoserestrictions,1
recommendations,1
down,1
incumbent,1
faculty,2
affaires,1
brings,1
habit,1
lookout,1
adding,1
legal,5
boundaries,2
disintegration,1
signal,2
arbitrated,1
interferes,1
fastened,1
varied,1
agreements,5
retrenchment,1
interfered,1
regarding,1
upwards,1
thecolonization,1
armor,2
month,1
precautionary,1
occasions,1
acres,9
trustees,1
chinain,1
impossibility,1
outgoingcongress,1
individualism,1
rather,5
importance,8
worthy,1
aldrich,1
title,2
papers,3
furnisha,1
againstany,1
hemisphere,1
tokugawa,1
human,2
continuation,1
alarge,1
prince,1
custom,1
intrusting,1
generalities,1
permission,1
inconveniences,1
considerations,1
interpret,1
recommends,1
individuality,1
engendered,1
recoup,1
articles,33
35719094,1
appreciating,1
exhausted,1
deplorable,1
convert,1
division,1
navigation,1
upholding,1
supplies,1
cigar,1
specialservice,1
differentiating,1
deems,1
usually,1
whereas,3
letters,1
fear,1
inspection,6
oriental,1
appreciation,1
signed,1
sense,1
classification,2
removing,2
whichthe,1
printed,3
physically,1
field,2
montrose,1
served,1
messages,6
legitimate,2
realities,1
whereby,2
senators,1
amalgamate,1
mittee,1
advisability,1
liberian,1
stamped,2
minimizethe,1
mention,2
inserted,1
advocated,1
legally,1
recur,1
man,4
18gi,1
twenty,1
contemplated,1
may,5
supplied,1
undetected,1
reforms,6
competes,1
authorizing,2
princes,1
vividly,1
statutes,2
andrecognition,1
contemplates,1
feet,6
fees,1
condolence,1
recognition,1
feel,1
thesouth,1
circulating,1
irresponsibility,1
residence,1
terrible,1
ideal,2
bangkok,1
imperatively,1
equipment,1
ideas,1
apprehensions,2
pressure,1
interrupted,1
servia,1
becomes,1
feed,1
directions,1
martial,1
senor,2
predominating,1
redetail,1
constitution,1
conceive,2
beneficially,1
futuregenerations,1
men,5
repeat,3
louis,3
justification,1
physical,1
met,1
repeal,1
lepers,1
diversified,1
supervisory,1
speeches,2
apportionment,3
exactly,1
constituting,2
structure,2
contrariety,1
newfoundland,1
circulation,2
contingency,1
interlocutory,1
interpreting,1
depend,2
enters,1
stich,1
about,6
danger,3
granted,1
detriments,1
character,5
consummate,1
429),1
above,1
moderate,1
resident,1
comprise,1
incorporationthere,1
domesticinterests,1
injunction,1
receiver,1
myself,1
beaten,2
02214,1
received,1
wonderful,1
surveyor,1
substantial,3
flood,1
quality,1
avoided,2
certificates,1
consistently,1
sincere,2
receives,1
invested,1
shared,2
outset,1
vigor,1
association,1
eliminate,1
believe,4
augment,1
fell,2
shares,1
into,28
riparian,2
greece,1
voyages,1
arbitrator,2
superannuation,1
destruction,1
holes,1
diate,1
liquidation,1
stiff,1
lynchings,1
middle,1
though,2
associates,1
renewal,1
ottoman,1
appeal,1
swamp,3
transportation,1
balkan,1
appear,2
adownward,1
definitely,2
republicanplatform,1
collaboration,1
theisthmus,1
associated,1
tinfoil,1
holds,1
experts,2
open,1
justifying,1
$400,1
suffering,1
forced,1
ascertainment,1
project,3
incapacitated,1
locks,1
tobacco,7
california,2
commending,1
studying,1
uneasiness,1
felt,1
corpsexpert,1
owing,3
bears,1
secures,1
effected,1
sections,1
withdrawals,5
assurance,2
injuring,1
fabrics,6
advisers,1
paths,1
forces,1
hypothetical,1
regulator,1
securea,1
secured,2
allow,1
ranges,1
expansionof,1
$428,1
proper,2
18th,1
peculiarly,1
bitter,1
stocks,2
sympathized,1
urgency,1
65rivers,1
lakes,1
patrol,1
$433,1
recently,1
disputeon,1
rentals,1
exempted,1
sherman,4
renewed,1
money,1
healthy,1
dewey,1
illogical,1
endanger,1
bounteous,1
achievement,1
claimed,1
arctic,1
tradesmen,1
whole,4
revolution,1
philippinesa,1
relation,1
reliable,1
$440,1
obstacle,1
attempts,1
unconstitutional,1
profits,1
embitterments,1
still,2
relating,1
enriched,1
constitute,2
toward,2
books,3
knowing,1
mammals,1
among,1
$450,1
humiliating,1
nationalitywho,1
continental,1
alluring,1
internal,1
deprecate,1
signature,2
republican,19
excise,1
defended,1
enjoy,1
ourselves,2
specified,1
throwing,1
slave,2
naturally,2
flexibility,1
believes,2
installation,1
writing,3
federal,1
changesrequired,1
believed,3
$462,2
spruce,1
include,1
forthe,1
nucleus,1
monroe,1
destructive,1
altogether,1
sleeve,1
cutting,1
comprehensiveness,1
dimensions,1
voice,2
$488,1
shipper,5
principality,1
moroccothe,1
injuries,1
prepared,1
fertility,1
controlof,2
amendments,2
rigorously,1
revolutionizes,1
tours,1
perfecting,1
negligent,1
regrettable,1
evade,1
$483,1
alley,2
uncertainties,1
thereforthe,1
disputein,1
discover,1
imply,1
offset,1
receivership,1
capture,1
failed,2
doneby,1
exigencies,1
appointed,3
appointee,1
sequence,1
abolition,1
noyes,1
luxuries,6
prescribed,2
expedited,1
distances,1
notified,2
assistant,1
controversy,1
ultimately,1
command,1
compulsory,2
revised,1
prevailing,1
floods,1
saved,1
desperate,1
leading,1
fushimi,1
politically,1
urge,1
cruiser,1
1911to,1
because,13
moving,1
agreement,16
dealing,1
coalesce,1
merchant,5
bronze,1
contains,1
prohibiting,1
selection,3
permits,1
ensued,1
derelict,1
science,3
conception,1
protracted,1
agreeably,1
guest,1
returns,2
detail,1
forest,2
utility,1
occupations,1
interstate,1
observatory,7
grasses,1
prohibition,3
behavior,1
discriminations,1
taxed),1
minimize,2
preferences,1
failures,1
andof,1
fourteenth,1
decreased,19
unlimited,1
ourtraditional,1
mechanics,1
wyoming,1
pushing,1
assiduous,1
legality,1
decreases,8
debates,1
exemplify,1
emerge,1
ancillary,1
anniversary,1
eager,1
gratuitous,1
republic,1
honolulu,1
historical,1
repetition,1
togo,1
fitness,1
incorporated,1
kuni,1
discrimination,1
artillery,4
6948,1
surrender,1
cruel,1
thereover,1
forbidding,1
originally,1
jail,4
insist,1
systemthe,1
volume,4
energies,1
beneficiary,1
materials,3
accoutrements,1
buildings,18
unawares,1
01total,1
rises,1
cynical,1
technical,1
respecting,1
indebtedness,2
70$13,1
scouts,1
stretch,1
70$12,1
pendleton,1
rico,1
responsible,4
legalize,1
selecting,1
mistake,2
rica,3
rich,1
chiefly,1
agencies,1
denominated,1
significance,3
arises,1
visited,2
arisen,1
family,3
contributory,1
deliberate,1
asupon,1
referred,1
gift,1
career,1
copyright,1
rife,1
told,1
release,1
consolidations,1
canalization,1
abiding,1
toll,1
grievously,1
moral,1
diminution,2
rehabilitation,1
hupeh,1
judge,1
agua,1
similar,1
partnership,1
aliens,2
foundations,1
responsibly,1
thousands,3
disassociated,2
betweenthe,2
broughtto,1
driven,1
indicated,1
against,11
manufactures,22
representations,1
manufacturer,3
remind,1
withstand,2
encourage,1
holders,1
indicates,1
morality,1
charters,1
punished,2
manufactured,1
deficit,2
coronation,3
19ii,1
tome,1
stores,2
clustered,1
outposts,4
cession,1
cumulative,1
bushel,1
providedas,1
potash,1
concessions,1
slip,1
urgently,2
firing,1
preceding,1
snuffs,1
uruguay,2
francisco,1
commentaries,1
remodeling,1
honor,2
tops,2
doneto,1
losses,1
whites,2
bureau,2
net,1
overestimated,1
intense,2
new,6
took,3
numbering,1
thrifty,1
shouldit,1
438),1
acreage,1
positions,2
elaboration,1
tool,1
uneventful,1
19li,1
intervals,1
whichmakes,1
stimulating,1
continuance,2
tons,2
heated,1
inconvenience,1
487$25,1
boundary,3
19o8,1
reaching,1
respective,1
impassable,1
around,3
influences,2
define,2
douglas,10
legislationprior,1
frontier,1
remiss,1
manifest,1
employment,1
specific,1
bondholders,1
obtains,1
risks,1
engage,2
yardstick,1
remainder,1
territory,2
entails,1
amendment,1
equalization,1
developments,1
rehabilitate,1
peary,2
impairing,1
johnson,1
professional,1
securities,1
alaskan,1
decided,1
elective,2
java,1
locally,1
formulation,1
butler,1
fully,1
pearl,2
eliminated,1
merging,1
ensuing,2
lading,8
imminent,1
disinterested,1
hampering,1
eliminates,1
slow,1
formulating,1
graduated,1
exchanged,1
supplying,1
permitthe,1
deserved,1
silks,3
whichfollowed,1
pinchot,1
heartiest,1
$500,2
associations,1
complexity,1
undisputed,1
automatically,2
students,2
recommend,1
literal,2
permitted,4
supplemental,2
obeyed,1
advertisement,3
attribute,1
expectations,1
suchan,1
arouse,1
palpable,1
tour,1
blaine,1
lincoln,2
stayed,1
absolute,1
recommend:first,1
abovementioned,1
understood,2
supported,1
resulted,1
intercontinental,2
documents,1
solved,1
objections,1
shouldbe,3
arlington,1
andlimb,1
guatemala,3
research,3
sciences,1
reiterate,1
fittingly,1
sinister,1
houses,2
retaining,1
attractive,1
town,1
customhouses,4
boats,1
engineering,1
portorico,1
whatever,1
decrease,2
yards,1
glossary,1
reopen,1
designs,1
involving,1
blind,1
nearly,6
admittedly,1
simplicity,1
191:2,1
non,1
magnify,1
vested,1
nor,2
not,62
discontinuing,1
now,16
statement,6
thisthe,1
astronomers,1
interownership,1
delivery,1
election,2
rates),1
unifying,1
continuity,1
experimentally,1
asiatic,1
what,27
refer,2
detailed,1
fortified,1
risk,1
rise,1
trusteeship,1
contextual,1
$566,1
subsidy,4
unquestioned,1
obscene,2
prohibitive,1
when,7
withheld,1
excluded,1
businessand,1
meantimewe,1
crush,1
canal56,1
andto,1
struggling,1
promising,1
give,4
practicable,2
counsel,1
$579,2
lives,1
cartridges,1
profitabletrade,1
depends,1
misinformation,1
probability,1
dissolution,9
stations,1
contention,1
limiting,1
tribunals,2
underselling,1
invasions,1
propriety,2
ships,2
commerical,1
farms,1
determined,1
utilize,1
shouldhave,1
prevail,1
burdens,1
enormously,1
sentences,3
direct,1
districts,1
enabled,1
hardship,1
modern,3
befitting,1
occasionally,1
amass,1
enables,1
earner,1
janeiro,1
adjourned,1
superannuated,1
barbarities,1
noteworthy,1
shirk,1
tentative,1
ofhappiness,1
proper1,1
inquisitorial,1
glassware,1
organization,1
hampered,1
yarns,3
heads,2
certain,3
board,4
woolen,16
pursuing,1
widow,1
heretofore,2
used,1
constantly,1
herds,2
nomine,1
peruvian,1
earned,1
overflow,1
messagesset,1
letting,1
otherwise,4
marked,1
several:,1
intrigue,2
projectors,1
orient,1
borne,1
recurring,1
guardunder,1
nearer,1
pertaining,1
solely,1
qualificationsthought,1
market,4
keen,1
effects,2
keep,2
citizens:,1
conventions,8
solemn,1
acute,1
peacethe,1
transpires,1
almighty,1
imprisonment,1
necessarily,1
fares,2
alone,1
along,1
rocks,3
parallel,1
designed,1
breach,1
supplemented,1
munitions,1
regiment,1
ballast,1
critics,2
reforesting,1
contained,2
herd),1
]fiscal,2
uses,1
disproportionate,2
inhabitants,1
conciliatory,2
bring,4
assures,1
promoted,1
brink,1
equity,8
replenished,1
colonial,2
warfare,1
manufacturing,1
promotes,1
investigated,1
treatedas,1
neglect,1
departing,1
promoting,1
employers,2
revolutionize,1
urging,1
furnishes,1
peach,1
engineers,2
thirds,2
canyon,1
turning,2
peace,4
jaegers,1
garnered,1
consideration,3
competitive,1
frank,1
ordering,2
lawfully,1
commodities,3
consequently,3
permanency,1
communications,2
extinction,1
furnished,1
insures,1
whom,1
permanence,1
havebeen,1
attainable,1
humanity,1
ceaseless,1
fraudulently,1
attainment,1
foreseeing,1
lasted,1
assuage,1
prospered,1
empowered,8
870$30,1
essential,1
clarify,1
defendants,5
ditch,1
commissioned,1
generosity,1
japanese,3
lands),1
accounted,1
excavation,2
warning,2
exclude,1
amalgamation,1
celebrating,1
commissioner,9
beneficiaries,1
utmost,2
fractional,1
arbitrations,1
caracas,1
emphaticway,1
countervailing,1
fourteen,2
homogeneous,2
worsted,3
celebration,3
jute:,1
pauncefote,1
outgrowth,1
temptation,1
carry,2
arose,1
necessity,4
frame,1
compelling,1
origin,1
pursuits,1
overturn,1
mistaken,1
burden,1
unitedstates,1
precaution,1
sanction,1
teachers,1
confirms,1
patents,2
trouble,1
class,1
attended,1
spanish,1
rehearse,2
disbursed,1
counter,1
kept,1
adjournment,2
management,1
amalgamating,1
publish,1
promotion,1
presents,2
very,11
amendmentand,1
practice,2
decade,2
congress,11
examinations,1
canadian,4
delayed,1
legislative,1
dispatches,1
william,1
vessel,1
embarrassments,1
french,1
encouraging,1
dispatched,1
issue,2
dependency,1
lower,10
metal,1
resulting,1
conservation,1
traditional,1
decree,3
creativeword,1
dictates,1
acted,1
causeof,1
everyway,1
evasion,1
continuing,1
wider,1
promptness,2
semblance,1
turned,1
widen,1
eventually,2
445k,1
settlers,2
delegate,1
library,1
sphere,1
ditional,1
dependence,1
veto,1
modifications,1
seemed,3
slums,1
draw,2
instrumentality,1
off,4
generally,1
dickinson,1
contended,2
seriousness,1
overlapping,1
direst,1
(157,1
complete,2
oft,1
compensate,1
transaction,1
domination,1
prodigal,1
derivatives,1
coupling,1
claim,2
widespread,1
colonies,1
aidof,1
months,2
dominating,1
furnishan,1
italways,1
follows,1
confronted,1
chosen,1
expand,1
annexing,1
coal,1
survey,2
outbreaks,1
termed,1
code,1
displace,1
legislationthese,1
incompetent,1
investigate,2
statesof,1
ineach,1
dredging,1
ofpower,1
concurred,1
preparations,1
devastation,1
considerable,5
oil,1
carded,3
proposition,3
playground,1
sympathy,1
misstatement,1
fight,1
unofficial,1
brief,1
21699,1
recover,1
determine,4
considerably,2
voluntarily,1
decreasing,1
montenegro,4
purview,1
regiments,5
confer,1
friction,3
(192,1
wrought,1
lands,1
remarks,1
exercised,1
$600,1
recognizingthe,1
regeneration,1
amounting,2
shippers,7
periodically,1
evidently,1
promised,3
expedient,1
speaking,1
partakes,1
province,1
exercises,1
disbursements,8
increasethe,2
estimate,2
promises,3
excavated,2
breaking,1
proposal,1
spoils,1
conspirators,1
old,1
settled,1
$616,1
recreation,1
opponents,1
lowered,1
diseases,2
thecourt,1
ancient,4
consolidated,1
disingenuous,1
twelve,1
warships,2
madrid,2
austria,1
clerkships,1
device,1
donated,1
checking,1
archives,1
conservative,3
conference,1
activity,1
variety,3
incurring,1
madriz,1
disturb,1
george,3
aiding,2
paved,1
strained,1
mints,2
ona,1
one,11
$637,1
incurred,1
cents,2
quito,2
connected,1
buying,2
assist,2
threatens,1
materially,1
attained,1
pulp,5
undergraduate,1
$630,2
partially,1
acquiescence,1
country,45
$645,1
exporting,1
willing,1
blessings,1
innumerable,1
technicalities,1
haphazard,1
ooo,4
regularly,2
governments202,1
satisfactory,2
details,3
aids,1
instrumentof,1
scuttle,1
$654,2
treated,2
$656,1
abolished,4
$655,1
authoritative,1
endeavoring,1
$659,1
retarded,1
suppose,1
infliction,1
cavalry,3
constructors,2
towns,3
solve,1
elkins,1
conspire,1
region,1
support,1
yearly,1
coin,1
$667,1
$666,1
destination,2
learning,2
reciprocal,6
resolutions,1
cold,1
pure,1
dams,2
life,1
establishments,2
lies,1
ora,1
cases,1
ore,1
wide,2
regime,1
$679,1
witha,1
honda,1
nicaraguans,1
storing,1
superior,1
restitution,1
location,1
fractions,1
proportions,1
forego,1
competition,11
none,2
pupil,2
problem,1
arranging,1
voluntary,1
connection,1
$680,1
presence,1
abandoned,2
fundamentallaw,1
inability,1
method,2
withone,1
streams,10
profitable,1
come,2
fortifications,2
samples,1
leather,1
harassing,1
exist,2
examples,2
columbia,1
conjectures,1
celestine,1
instrumental,1
dingley,16
lift,1
resourceful,1
emanating,1
misdemeanor,1
conceived,1
distribution,1
our,13
said:the,1
evidenced,1
out,13
capacity,2
consuming,1
(the,1
copy,1
sensible,1
obstinacy,1
desirability,1
puts,1
bahia,1
disputants,1
matured,1
asset,1
owe,1
minimum,3
date,1
categorical,1
billmust,1
data,3
lamps,1
theoretical,1
rightful,1
corn,1
own,1
pecuniaryright,1
argentina,1
distributing,1
partisan,1
argentine,2
shrinkages,1
waterpower,1
consequences,1
corregidor,1
expositionin,1
avoiding,3
development,1
like,4
resource,2
asserted,1
proposes,1
populated,1
branches,1
licorice,2
prolonged,1
prestige,2
ending,1
efforts,2
magistracy,1
reviewable,1
proposed,1
council,1
fraud,1
hills,1
ground,3
embassy,1
repression,2
visitor,1
sagacity,1
note,1
signatories,1
line,1
hearty,4
penalty,3
recovery,1
conveyed,2
intends,1
hearts,1
inure,1
affairs,1
retrogression,1
enactmentof,1
cost,26
aims,1
lima,1
warmest,1
will,14
sufficed,1
fishing,1
confidence,1
groups,1
arbitrary,1
allowing,2
representatives:during,1
bordering,1
yangtse,1
treasurythe,1
assay,2
oath,2
compliance,2
york,1
vissering,1
sultan,1
assured,2
dignity,1
appointmentshow,1
wild,1
fortification,3
allison,1
sufferers,1
functions,1
wastes,1
govern,1
novo,1
your,1
explanation,1
remote,3
freedomloving,1
these,14
nucleusout,1
contributions,3
protected,6
framed,1
essentials,1
sister,2
exporters,2
barracks,1
neutral,1
smallpox,1
analysis,2
apparent,1
dissension,1
dutiable,2
enlightened,2
wing,1
arrives,1
independent,3
carriage,1
concluded,1
alleged,1
tribunal,1
congo,1
covenants,5
arrived,1
economically,1
insidious,1
(except,2
sedimentary,3
follows:,1
combines,1
forests,1
whilesome,1
printing,1
americans,1
licenses,1
component,1
impartial,2
sundries,4
speaks,1
unprecedented,2
days,5
hague,1
combined,1
imperial,3
liberal,2
discuss,1
harmony,1
renders,1
specifications,2
wish,4
belonging,1
wise,1
homestead,2
amounts,1
exceed,1
takein,1
pan,5
patronage,2
grievance,1
claimant,1
par,4
monarchy,1
negroeshas,1
vicious,1
invitation,1
pay,2
enormous,1
especial,2
earthen,2
list,1
rivals,1
conforming,1
candidates,1
interstatecommerce,1
external,1
hypothecation,1
treasury,1
revise,1
sinking,1
claims,3
preserving,1
permitting,1
chile,3
legislature,1
child,1
withholding,1
establishsuch,1
relieving,1
germany,1
divided,2
instrument,1
medium,1
remove,2
wisdom,1
producing,1
confinement,1
treasure,1
policyfor,1
live,1
maneuvers,1
ventured,1
responded,1
engender,1
harbors,1
perform,1
ridding,1
lucrative,1
germane,1
colorado,3
theinterest,1
elihu,1
occurring,1
beautifying,1
with,27
amended,1
impairs,1
china,7
furtherance,1
service,3
there,63
ching,1
american,1
utilities,4
affords,1
assiduity,1
russia,3
per,12
ceased,1
period,1
africa,1
proceed,1
offenses,1
prohibitory,1
confirmation,1
slowly,2
jointly,1
monarchies,1
recurrence,1
ever,2
loving,1
assisted,1
even,2
restriction,1
meetings,1
indication,1
assumed,2
vacancy,1
engaged,1
injures,1
integrating,1
rebates,3
doubted,1
dismantling,1
fromvoting,1
insurrectionary,1
kinds,2
indicating,1
prevalence,1
injured,1
restricting,1
peer,1
imperative,1
violence,1
attributed,2
bought,1
wasteof,1
apprehended,1
denounce,1
ceases,1
verge,2
propositions,1
requiring,1
adoptionby,1
irrespective,1
attributes,1
retains,1
prohibit,1
imposed,5
reign,1
appropriated,4
semiarid,4
broadening,1
manner,1
foresee,1
aigun,1
imposes,1
judgment,2
members,3
(whose,1
mineral,4
stock,1
guarantees,1
suspend,2
distraught,1
everyone,1
accumulation,1
valorem,1
strengthened,1
guaranteed,1
indiscriminate,1
senator,2
hygienic,1
confiscation,1
appropriates,1
evil,2
rarely,1
forthcoming,2
brigades,2
$700,2
interment,1
initiated,1
$701,1
cause,1
grievous,1
represents,1
initiates,1
intended,3
attending,1
working,2
kindred,1
redeem,1
conformity,2
countryand,1
department,2
allude,1
$710,1
chief,3
liberties,2
accord,1
contributing,1
menwho,1
followed,1
despite,2
merchandise,1
expendituresfor,1
obey,1
interested,1
defeating,1
triumphant,1
formerly,1
vessels,9
accumulating,1
payne,12
goethals,2
liberty,1
perfumes,1
meeting,1
apprentice,1
confidential,2
displayed,1
inefficiency,1
$732,1
began,1
absorption,1
violations,1
recognize,2
exerted,1
bravely,1
amongthe,1
comparisons,1
demonstration,1
commendation,1
actions,1
safeguard,3
diligent,1
facto,1
giving,1
scrutiny,2
objectionable,1
facts,4
prize,3
marine,2
hungary,1
routine,1
freer,1
excuse,1
tariff,72
sectional,2
reorganization,1
escape,1
enlist,1
retention,1
colombia,3
gives,1
latest,2
validate,1
squaring,1
receive,1
implied,1
surplus,1
correspondence,1
consulting,1
dispositions,1
declaration,1
standing,1
unspeakable,1
consultingboard,1
startling,1
prosperous,1
representatives,2
inalienably,1
slides,7
friendship,1
infractions,1
placing,2
39839,1
disappointed,1
continue,1
inherent,1
abolishing,1
realize,2
offers,1
given,1
accountable,1
pronounced,1
thatcongress,1
hayes,1
insufficient,1
molasses,2
freed,3
pro,1
intrinsic,1
casualties,1
guilty,1
exaggerated,1
proximity,2
honduras,3
statutory,1
maritime,5
employees,7
pursuance,1
localizing,1
asking,2
peru,2
trespass,1
surroundings,1
refining,1
anything,2
agriculture,3
bravest,1
retired,1
assembled,1
philippinesare,1
notwithstanding,1
rotation,1
steadiness,1
potomac,5
endorse,1
typical,2
haitian,2
forming,1
notorious,1
shadow,1
dominion,10
striving,1
assassination,1
circles,1
program,5
infant,1
put,4
seafaring,1
identified,1
franking,5
fluctuations,1
struggle,2
grows,2
resultant,1
pest,1
meets,2
conclusions,1
heritage,1
navyas,1
extraction,1
proprietors,1
departmeat,1
discharging,1
light,1
apparently,2
appropriating,2
unfounded,1
countriesbecause,1
valuable,3
stifling,4
methods,3
formulate,1
indictment,2
maintaininga,2
desist,1
concourse,1
barred,1
absurdly,1
grown,2
anomalous,1
reenlistments,1
appropriation,2
disclosure,1
desire,2
liberia,5
unfortunately,1
lately,1
encountered,2
january,5
permanent,1
foster,1
centralization,2
organized,1
impure,1
incidence,1
facility,1
haveaccomplished,1
civilization,2
defeated,2
replace,2
appointment,2
assumptions,1
major,1
employs,1
interestto,1
worldwide,1
funds,2
feasible,2
consider,1
eighty,1
prescribe,1
group,1
creditsa,1
imports,3
gross,1
uncompleted,2
cottonseed,1
tree,2
creditsi,1
reciprocity,2
sailors,1
southward,1
absolutely,1
deserted,1
sustain,1
arbitrarily,1
request,3
classify,2
passingreference,1
substitution,1
thein,1
weightof,1
their,26
majesties,1
fuller,1
thirteen,1
banking,3
depositors,1
general,6
september,4
induced,1
frighten,1
uphold,1
applying,2
padding,1
requirements,1
process,2
embassies,1
clear,1
eighth,1
substituting,1
clean,1
theunited,1
facie,1
duplication,1
governing,1
marking,1
listed,2
neither,1
fulfilling,1
glad,2
andwould,1
account,2
impels,1
unforeseen,1
disintegrated,2
mostly,1
arenot,1
innocent,1
safer,1
executing,2
armysimultaneously,1
diligence,1
trip,1
knowledge,1
prime,1
happen,1
prima,1
devised,1
loyal,1
july,1
prostitutes,1
asiaof,1
meyers,2
venture,1
population,1
atlantic,1
valuation,1
route,3
enthusiasm,1
islands,1
flexible,1
trying,1
millions,2
wisely,1
negotiated,1
typhoid,1
utilizing,1
comes,1
soil,1
rican,1
thirteenthand,1
rouse,1
purlieus,1
farming,1
consisted,1
hearing,4
enrolled,1
committing,1
democrats,1
parsimonious,1
noticeable,1
transition,1
appeals,1
prevails,1
june,1
series,1
denuded,1
cultivate,1
matchless,1
phenomena,1
onthe,1
embodying,1
represent,1
goodwill,1
compete,1
battleship,2
inclined,1
wounding,1
hold,2
gatherings,1
tale,1
chinese,5
correctly,1
designated,2
absurd,1
seals,1
prior,1
japanin,1
talk,1
injecting,1
hundredth,1
galveston,2
impregnable,1
train,3
dedicated,1
rapidity,1
fide,1
granting,1
contradictory,1
take,13
comity,1
obviate,1
jealously,2
immediate,1
beneficial,1
curable,1
some,11
chancellors,1
reorganizations,2
purchasing,1
forbids,1
session,2
additional,1
commonest,1
jute,3
primarily,1
transferring,1
(new),2
14public,1
diego,1
throughoutthe,1
passed,7
steamship,3
reception,2
just,1
respects,1
sole,1
owner,1
sold,1
1913our,1
466n,1
jury,1
restraining,2
affects,1
mexicoin,1
foreshadowed,1
strictly,2
home,3
existing,1
postage,4
print,5
material,1
owned,3
likened,1
peculiar,1
iron,3
curtailment,2
explain,1
staple,1
answers,1
royalty,1
hope,2
soon,1
norwegian,1
opium,4
executive,3
corpsthe,1
displacement,1
anticipated,1
31st,1
classified,1
protest,1
26721,1
distinctly,2
operative,1
heavy,1
detached,1
monopolists,1
constitutionality,3
machinery,1
britain,10
summer,1
robert,1
file,2
creek,1
insular,3
member,1
affirmative,2
elimination,3
together,1
actuated,1
grease,1
within,1
health,6
gathered,1
cyrenaica,1
positive,2
mehemet,1
agents,1
corrected,1
rental,1
existingbanks,1
mediterranean,1
prospect,1
machine,1
return,1
instance,1
practically,1
eliminating,1
$804,1
serve,1
accredited,1
acquiesced,1
seats,2
importing,1
inviolate,1
fine,3
find,1
combatant,1
selected,1
progressed,1
reyes,1
illustrate,1
occur,1
demoralizing,1
definitive,1
seriously,2
sort,1
fill,1
heart,1
contagion,1
eastthe,2
task,1
convenient,2
infer,1
scientists,1
true,1
tactics,1
valley,1
sore,1
position,1
since,2
sentiment,1
patent,1
acrimonious,1
$825,1
abundance,1
subvention,1
dangerous,1
certificate,1
appears,1
troubles,1
hour,1
magazines,4
insuring,1
singularly,1
experienced,1
heard,2
harbors28,1
transportations,1
execution,1
falling,1
tradein,1
prospector,1
sought,1
writers,1
tradeit,1
badges,1
extraordinary,1
hearings,1
privy,1
evident,1
tracts,1
simplify,1
merchants,1
measles,1
coming,1
armament,1
disturbances,2
department:4,1
firm,3
contribution,1
adventitious,1
annapolis,2
ignorant,3
fire,1
51647,1
supplementing,1
fashioned,1
encounteringthe,1
undertaken,2
disastrous,1
except,1
programs,1
inflicted,1
mailsit,1
isthmian,1
prominent,1
illinois,9
collecting,1
entitle,1
dogmas,1
outline,1
nominal,1
unless,3
signalize,1
excess,1
plants,1
perspective,1
operating,1
ought,14
bullets,3
irregularities,1
$878,1
accordance,3
representatives:on,1
restrictive,1
people,8
democracy,1
chesapeake,1
necessaryif,1
abandon,1
fish,1
ranking,1
intolerable,1
operation,6
adverse,1
conforms,1
obligations,1
consign,1
reputation,1
mainly,2
preponderating,1
secretaries,2
leaves,2
restrain,7
provincial,1
compositeur,1
stockholders,1
monumental,1
five,1
celebrate,1
whensubmitted,1
admirable,1
820h,1
collection,1
announced,1
channels,1
owning,1
820b,1
systematically,1
campaign,3
misapprehension,1
overcharges,1
conflict,1
abdication,1
engraving,1
installed,1
insurrectionists,1
reasons,2
rough,1
traders,1
desertions,1
admirably,3
commerce,1
assistance,4
productionhere,1
readjustment,1
denunciation,1
tsai,2
surfaces,1
schedules,8
definition,1
wonder,1
every,3
summary,1
accustom,1
akin,1
entail,1
answered,1
indifferently,1
again,2
taxpayer,1
indians,3
ratified,1
artificial,1
giventhe,1
rovided,1
employ,1
byfederal,1
brakes,1
desirable,1
during,2
embodies,1
reestablish,2
degrees,1
venezuela,2
consist,1
nontransferable,1
price,4
opportune,1
dependent,1
briefly,1
reduced,12
cherish,1
agree,4
risked,1
resistance,1
itself,3
enjoyment,1
discrepancy,1
anyone,1
pride,2
antiquated,1
embodied,1
patrons,1
steuben,2
distress,1
nuclei,1
spain,1
civilized,1
regions,1
hoped,2
crystallizing,1
conspiring,1
irksome,1
magnanimity,1
substitute,1
uniform,1
bountiful,1
moreover,1
causes,1
violate,3
reduces,1
considerationto,1
demonstrated,1
event,3
anappointment,1
wherever,1
established,1
sympathize,1
railroad,13
agency,1
coupon,1
caused,1
cannot,3
patrols,1
prefer,1
astronomical,1
appealed,1
minority,1
space,1
reference,2
chamber,1
arrange,1
navies,1
inferred,2
assessing,1
publicity,1
depart,1
reversals,1
squadron,2
demonstrates,1
ourpopulation,1
exactions,2
misled,1
representatives:it,1
published,1
representatives:in,1
accidents,2
fostered,1
factions,1
mails,1
collision,1
covered,1
intervention,1
invariably,1
publicist,1
arthur,1
accorded,2
solving,1
tract,4
tacnaarica,1
mobilization,2
arrival,1
accommodated,1
friendliness,1
frequent,1
statements,1
membership,1
network,1
holding,4
public,1
validated,1
procure,2
beavoided,1
modernization,1
maine,2
monetary,3
conferring,1
constructed,1
stifle,1
unchanged,17
trader,1
resources,2
trades,1
heaviest,1
municipalities,1
expensive,2
demolish,1
transports,1
trade,5
performance,1
westward,1
garrison,7
ambassador,1
insisted,1
spitzbergenthe,1
conferred,1
derivation,1
moneys,2
exemplification,1
horses,2
alsop,1
unrest,1
accuracy,2
building,1
tolls,7
geological,2
setting,1
quote,3
alaska,2
ran,1
mainstay,1
appendix,1
younger,1
raw,4
destroyers,2
authorities,1
extensions,1
institute,1
volunteersthe,1
southern,5
desiring,1
mediators,2
essence,1
uncertainty,1
sentimental,1
dollar,5
aspect,1
ofour,1
departments,2
perfumeries,1
federation,1
meyer,1
mitigate,1
copyrights,1
them:first,1
oppression,1
authoritatively,1
executions,1
56683,1
calling,1
shallow,1
collateral,1
congestion,2
register,2
fleet,5
honduranean,1
instructions:it,1
red,1
recklessly,1
act,2
transmission,1
shortage,1
awakening,1
inits,1
helped,1
finish,1
morrow,1
add,4
assistants,1
amend,1
imperfections,1
consent,2
benevolent,1
helpless,1
mutual,1
postin,1
therefore,4
exchange,2
washington,2
contiguous,3
trust,1
crypt,1
soldiers,1
morals,1
overtake,1
soldiery,2
prevent,4
commercially,1
transcends,1
appended,1
disturbing,1
happiness,1
sorry,2
fective,1
ratings,3
scope,1
irresponsible,1
usages,1
usand,1
haiti,3
embrace,1
message,1
recorded,2
irritation,1
misconstruction,1
modify,1
truth,1
strikingly,1
exempt,1
age,7
1908$10,1
smaller,3
tendency,1
newtariff,1
ago,2
rid,1
faults,1
fishes,1
years,3
fisher,1
defect,1
pleading,1
decline,1
rio,1
businesses,1
conceded,1
carelessness,1
guise,1
system,2
erected,1
defects,1
reestablishment,1
spot,1
animated,1
aggregates,1
presenting,1
aid,2
expensively,1
other,19
aim,2
$900,2
retain,2
drastic,2
air,2
$907,1
skilled,1
educator,1
defeat,1
steadily,1
tacna,1
speak,1
shackles,1
outcome,1
sacred,1
tender,2
infected,1
$915,1
specialists,1
monopolizing,1
meantime,1
inauguration,1
50war,1
grains,1
tended,1
future,2
plainer,1
mississippi,4
thepowers,1
axiomatic,1
movement,1
signing,3
workings,1
untrained,1
impressed,1
municipality,2
body,1
missouri,2
commenced,1
spur,1
mode,1
ratifications,3
commissions,1
devicesto,1
all,24
always,2
already,1
tying,1
informing,2
toperform,1
applicable,1
conducted,1
percentages,2
adhere,1
expense,1
maintaining,2
weevil,1
bodv,1
contemporary,1
territorial,1
postal,1
inequitable,1
rob,1
equipped,1
interfering,1
monrovia,3
canned,2
accession,1
contracts,1
simpler,1
and,269
commented,1
commission),1
abroad,9
honorably,1
disposing,2
cruisers,1
unnecessary,2
any,8
petitioner,2
duly,3
caring,1
suggested,1
analogy,1
filth,1
communicated,1
consists,1
until,3
150attempts,1
reversed,1
expanding,2
shallbe,1
$963,1
accurate,5
thought,9
concession,1
prostitution,1
prosecution,1
treaties,1
anywhere,1
devotes,1
naught,1
chiefs,2
construe,1
english,1
resort,1
officio,1
mitigation,1
devoted,1
makeevery,1
broke,3
increasingpopular,1
apt,1
spirits,3
00+,13
000,55
001,2
002,1
004,1
territories,1
005,1
grade,2
forarticles,1
009,3
depositor,1
calculations,1
reinforcements,1
corruption,1
succeeded,1
increased,25
appliances,1
northwest,1
assimilated,1
01+,1
inspiring,1
24117,1
increases,14
011,2
representatives:this,1
013,3
varying,2
fruits,3
are,34
016,1
safeguarded,1
came,2
patience,1
grace,1
industrialcombinations,1
where,12
broader,1
reversionary,1
arm,1
cleveland,1
typeof,1
retard,1
vice,1
complications,1
thoughtful,1
danube,1
empower,2
administering,1
suppress,4
delegates,1
erdman,1
call,2
022,1
speculative,1
calm,1
024,3
wilson,3
025,2
ownership,7
026,1
029,1
theories,2
ask,1
federalgovernment,2
relations,6
through,5
becoming,1
strength,2
officer,2
offices,5
03+,1
justified,1
run,1
enact,1
reenacting,1
exchequer,1
031,1
view,4
protests,1
035,1
ours,4
affiliation,1
neighbors,1
039,1
terminable,1
unbalanced,1
results,1
defiance,1
boll,1
accomplishing,2
mold,1
admiral,10
camp,1
agitation,1
046,1
volunteer,1
048,1
049,1
name,2
spaces,1
yale,1
neighborhood,1
justifies,1
12124,1
crop,2
benefits,1
congressional,1
mercenary,1
absence,1
approaching,1
book,1
055,1
negative,1
058,2
defend,1
crying,1
inapplicable,1
analogous,1
sympathies,1
7037,1
introduce,1
waterway,2
situate,1
riflemen,1
intimations,1
bond,1
063,3
bona,1
radically,2
065,1
066,1
067,1
068,1
obstruct,1
mouth,1
069,1
recurred,1
assuming,2
restricted,1
postmastership,1
duty,27
thatits,1
statisticsare,1
reorganize,2
yard,2
dangers,1
republicans,3
pledged,1
collected,2
experimental,1
transmitted,1
cheapness,1
075,2
076,1
discloses,1
cast,1
anxious,1
079,1
officials,2
broad,1
auditors,3
pledges,1
pressures,1
participating,1
074of,1
truly,1
greater,3
cash,1
case,1
oppressive,1
clinch,1
item,1
superintendent,1
080,1
081,1
trunk,1
matches,3
085,1
7052,1
saving,1
cars,1
recommendedin,1
slide,1
failing,1
excessive,8
care,1
participation,5
damage,4
assault,1
pattern,1
fulfilled,1
exercise,1
092,1
099,1
transfers,1
seldom,1
aptitude,1
protect,4
criticized,1
reliance,1
decomposed,1
more,17
display,1
suggestiononly,1
theworld,1
distressing,1
beings,1
disorder,5
otherhand,1
postmasters,12
cured,1
reluctantly,1
accounts,1
broadly,1
yarn,3
colossal,1
habits,4
bidding,1
tyranny,1
navy,6
mployers,1
simple,1
partyplatform,1
theirwhite,1
statesmanlike,1
sentimentof,1
labors,1
philanthropist,1
percentage,1
talent,1
accomplishits,1
described,1
negotiate,1
undervaluations,2
king,1
spooner,1
kind,1
both,4
most,6
transfer,1
00191,1
unscrupulous,1
courteous,1
inseparable,1
ascertain,1
affecting,1
insert,1
forbid,1
wards,1
understands,1
causing,1
executiveupon,1
patient,1
reject,1
consummation,1
sad,1
traced,1
mentioned,1
profit,8
depressing,1
prosecuting,1
accompanying,2
timbered,1
san,2
amount,9
move,2
disclosed,2
sap,1
tolls:i,1
assignment,1
saw,2
earnestly,1
labori,1
also,2
say,8
enough,1
increase,17
consummating,1
spread,1
educated,1
said:,1
favor,5
guests,1
organizations,1
latter,1
depression,1
treating,1
simply,1
dixon,1
commandant,1
defrauded,1
regaining,1
bad,1
enlistment,1
seaboards,1
reflected,1
bar,2
suffer,1
ordinary630,1
draft,1
bay,3
violated,1
delimitation,1
expeditionary,1
personal,1
underestimate,2
delay,2
submitted,2
globe,1
violates,1
standpoints,1
applause,1
greatly,3
hesitation,1
deal,1
geographical,2
strong,2
abuse,1
miscellaneous,3
scheme,1
affect,1
scarcity,1
facing,1
dead,1
provisionthe,1
proven,1
ministers,1
eyes,1
sea,2
drain,1
proved,1
see,1
responsibility,1
montana,1
wheat,2
earners,1
30126,1
omission,1
compared,1
pleadings,1
completion,1
set,1
unabated,1
joined,2
hypothecated,1
procedure,1
practices,3
battle,1
transmissible,1
auspices,1
river,1
earnest,1
astonished,1
practiced,1
transferred,2
beauty,2
beg,1
deposited,1
shipping,3
advocacy,1
discharge,1
useless,1
france,1
allthe,1
laborer,1
farseeing,1
orientgrowing,1
francs,1
complain,1
zeal,1
financed,2
she,2
lessened,1
finances,1
resumed,1
debt,1
little,1
predilections,1
deep,1
confined,1
humane,1
propinquity,1
borderland,1
ladders,1
deem,1
tradeinterests,1
exhibits,2
capable,1
explained,1
collector,2
repress,1
unhappily,1
apprise,1
salaries,1
appalling,1
jersey,2
supervision,2
unfair,1
sin,1
recruited,2
conversion,2
over,4
practical,2
living,4
six,1
breathing,1
bound,1
obviously,2
football,1
stroke,1
retained,1
avoid,2
fresh,4
bid,1
comprehensive,2
appointees,2
transmits,1
select,1
westerncoast,1
modes,1
advanced,1
dissolving,1
peers,1
recommendation,1
supervising,1
invoke,1
nations,4
00state,1
improved,1
thanks,1
striking,1
convinced,1
advances,2
model,1
beside,1
animals,1
reduce,8
inquire,1
gymnasium,1
large,3
surface,2
20th,1
satisfied,2
transactions,2
foolish,1
foresight,1
operate,2
exclusively,1
doctrine,3
begin,1
alluded,1
unobstructed,1
paragraph,1
bankruptcy,1
prosecutions,1
inquiry,1
satisfies,1
viewed,1
hopefully,1
immigrant,3
convicted,2
table,1
resisted,1
change,10
systematic,1
wemay,1
thanever,1
gillett,2
likewise,2
punishment,3
stupendous,1
corporate,2
discovery,1
instruction,4
bombardment,1
facilities,1
improvements,2
waiving,1
constant,2
breakwater,1
several,1
office,5
northern,2
posts,2
stands,1
vesting,1
proceeds,1
bydiplomatic,1
perilous,1
imposition,1
reviewed,2
petroleum,1
incoming,4
discretion,2
franks,2
longstanding,1
throws,1
priced,3
permanently,1
clerks,1
relevant,1
sincerest,1
rewarded,1
inhis,1
enacted,1
signatory,1
behind,2
sentiments,1
hostility,1
racial,1
eminently,1
expendituresmade,1
receivers,1
auxiliary,1
subig,1
1/3,1
prices,9
highly,1
unfortunate,2
chance,1
nature,1
emulation,1
proviso,1
630note,1
frightful,1
inadvertence,1
clerk,7
100,1
101,1
102,1
103,1
104,1
unauthorized,1
awards,3
105,2
106,3
issuance,4
107,1
108,1
109,1
inland,4
closest,1
occurrences,1
fighting,3
00287,1
110,1
112,1
encouraged,1
00282,1
culebra,1
reputable,1
118,1
draws,1
shownthe,1
drawn,1
prompts,1
deny,1
closely,1
pleasure,1
defrayed,1
interpreter,1
australia,1
12+,1
120,1
secondary,3
122,12
mission,1
requested,1
retraced,1
125,2
crystallized,1
126,1
127,1
128,1
plunged,1
129,1
invoked,1
autumn,1
conditions,6
interpreted,2
lessons,1
strictest,1
motor,1
sue,1
advisable,1
cooperate,1
overcome,1
sum,3
expioitation,1
undisturbed,1
ports,1
neighboring,1
extended,1
130,1
serving,1
obliterate,1
porto,1
132,1
current,1
134,1
resorting,1
secretary,2
136,1
137,2
managed,1
actively,1
plainly,1
civilian,1
preferred,1
testof,1
participants,1
storm,1
postponing,1
makes,1
threatened,2
amid,1
sanitary,2
store,1
140,1
beloved,1
condemned,1
141,1
00292,1
145,1
146,1
paralyzed,1
148,1
bigness,1
eventuate,1
contacts,1
governmentfunctions,1
story,1
but,26
sincerely,3
76department,1
wished,1
unequal,1
express,1
150,2
advocate,1
151,1
152,1
153,2
154,1
158,2
hadnot,1
distinctions,1
wishes,1
written,1
generate,1
fills,1
shortened,1
14e,1
coordinate,2
suffrageas,1
160,1
astronomy,1
162,1
164,1
enhanced,1
165,1
166,1
lessors,1
ocean,3
169,3
freedman,1
naval,14
higher,6
doing,1
brazil,1
idea,2
170,2
prisoners,2
171,2
fraternal,1
178,1
proprietary,1
legations,2
successful,1
normal,2
encourages,1
gradual,1
figure,1
deliberations,1
essentialto,1
inhibition,2
socialism,1
consumption,26
16o,1
182,1
183,1
weaken,1
185,2
186,1
187,4
provisionally,1
unreached,1
drought,1
unbiased,1
periodical,1
migration,1
subjecting,1
passing,1
streets,2
tested,1
potent,1
immensely,1
freedmen,2
190,1
191,1
193,1
196,1
197,1
198,1
children,2
road,1
review,4
massachusetts,1
weather,1
devolving,1
sustainedin,2
guide,1
efficiency,1
natural,1
arising,2
rightly,1
consummated,1
benefiting,1
improvised,1
preempted,1
tranquillity,1
81684,1
substantially,1
insanitary,1
flag,1
sympathetic,3
freight,4
range,1
derive,1
rock,3
flax,4
feature,2
flat,1
recall,1
generals,1
conditionsthe,1
suggest,1
averted,1
naphtha,1
lawhave,1
arbitral,2
monopolistic,2
litigants,2
cease,1
preparedness,1
intimates,1
elements,1
responses,1
submission,1
rightof,1
4911,1
concerted,1
4912,1
inefficacy,1
argument,1
neededspeed,1
utter,1
uniformity,3
begun,1
hopeful,2
delegations,1
tremendous,1
dozen,2
payfor,1
leasing,3
growing,3
utterly,2
deciding,1
enlargement,1
conspicuous,2
suspending,1
tenure,1
clothed,1
centuries,1
tao,1
appropriations,1
indirect,1
filed,4
goes,1
tax,1
towards,1
ricoporto,1
reparation,1
ranks,1
safe,3
inhibitive,1
destined,1
themississippi,1
presidential,1
departure,1
spitzbergen,2
pathas,1
potentially,1
legislationin,1
covering,1
instances,1
promptlypassed,1
distinct,1
retroceded,1
aware,2
can,13
projected,1
award,3
car,1
albert,1
taxing,1
delegating,1
floating,1
alarm,2
wells,2
said,5
hankow,1
village,1
stamps,5
privately,1
terminated,1
smooth,1
carried,2
motion,1
satisfy,1
idle,1
exciteddiscussion,1
february,1
fault,1
technically,1
seaboard,2
really,1
efficacy,1
clothes,1
granada,1
exarmy,1
carrier,9
response,1
arguments,1
delegation,2
tends,2
